<?xml version="1.0" encoding="utf-8"?>
<!DOCTYPE eagle SYSTEM "eagle.dtd">
<eagle version="7.3.0">
<drawing>
<settings>
<setting alwaysvectorfont="no"/>
<setting verticaltext="up"/>
</settings>
<grid distance="0.05" unitdist="inch" unit="mm" style="lines" multiple="1" display="yes" altdistance="0.025" altunitdist="inch" altunit="inch"/>
<layers>
<layer number="1" name="Top" color="4" fill="1" visible="yes" active="yes"/>
<layer number="16" name="Bottom" color="1" fill="1" visible="yes" active="yes"/>
<layer number="17" name="Pads" color="2" fill="1" visible="yes" active="yes"/>
<layer number="18" name="Vias" color="2" fill="1" visible="yes" active="yes"/>
<layer number="19" name="Unrouted" color="6" fill="1" visible="yes" active="yes"/>
<layer number="20" name="Dimension" color="15" fill="1" visible="yes" active="yes"/>
<layer number="21" name="tPlace" color="7" fill="1" visible="yes" active="yes"/>
<layer number="22" name="bPlace" color="7" fill="1" visible="yes" active="yes"/>
<layer number="23" name="tOrigins" color="15" fill="1" visible="yes" active="yes"/>
<layer number="24" name="bOrigins" color="15" fill="1" visible="yes" active="yes"/>
<layer number="25" name="tNames" color="7" fill="1" visible="yes" active="yes"/>
<layer number="26" name="bNames" color="7" fill="1" visible="yes" active="yes"/>
<layer number="27" name="tValues" color="7" fill="1" visible="yes" active="yes"/>
<layer number="28" name="bValues" color="7" fill="1" visible="yes" active="yes"/>
<layer number="29" name="tStop" color="7" fill="3" visible="yes" active="yes"/>
<layer number="30" name="bStop" color="7" fill="6" visible="yes" active="yes"/>
<layer number="31" name="tCream" color="7" fill="4" visible="no" active="yes"/>
<layer number="32" name="bCream" color="7" fill="5" visible="no" active="yes"/>
<layer number="33" name="tFinish" color="6" fill="3" visible="no" active="yes"/>
<layer number="34" name="bFinish" color="6" fill="6" visible="no" active="yes"/>
<layer number="35" name="tGlue" color="7" fill="4" visible="no" active="yes"/>
<layer number="36" name="bGlue" color="7" fill="5" visible="no" active="yes"/>
<layer number="37" name="tTest" color="7" fill="1" visible="no" active="yes"/>
<layer number="38" name="bTest" color="7" fill="1" visible="no" active="yes"/>
<layer number="39" name="tKeepout" color="4" fill="11" visible="yes" active="yes"/>
<layer number="40" name="bKeepout" color="1" fill="11" visible="yes" active="yes"/>
<layer number="41" name="tRestrict" color="4" fill="10" visible="yes" active="yes"/>
<layer number="42" name="bRestrict" color="1" fill="10" visible="yes" active="yes"/>
<layer number="43" name="vRestrict" color="2" fill="10" visible="yes" active="yes"/>
<layer number="44" name="Drills" color="7" fill="1" visible="no" active="yes"/>
<layer number="45" name="Holes" color="7" fill="1" visible="no" active="yes"/>
<layer number="46" name="Milling" color="3" fill="1" visible="no" active="yes"/>
<layer number="47" name="Measures" color="7" fill="1" visible="no" active="yes"/>
<layer number="48" name="Document" color="7" fill="1" visible="yes" active="yes"/>
<layer number="49" name="Reference" color="7" fill="1" visible="yes" active="yes"/>
<layer number="50" name="dxf" color="7" fill="1" visible="no" active="no"/>
<layer number="51" name="tDocu" color="7" fill="1" visible="yes" active="yes"/>
<layer number="52" name="bDocu" color="7" fill="1" visible="yes" active="yes"/>
<layer number="53" name="tGND_GNDA" color="7" fill="9" visible="no" active="no"/>
<layer number="54" name="bGND_GNDA" color="1" fill="9" visible="no" active="no"/>
<layer number="56" name="wert" color="7" fill="1" visible="no" active="no"/>
<layer number="57" name="tCAD" color="7" fill="1" visible="no" active="no"/>
<layer number="90" name="Modules" color="5" fill="1" visible="yes" active="yes"/>
<layer number="91" name="Nets" color="2" fill="1" visible="yes" active="yes"/>
<layer number="92" name="Busses" color="1" fill="1" visible="yes" active="yes"/>
<layer number="93" name="Pins" color="2" fill="1" visible="yes" active="yes"/>
<layer number="94" name="Symbols" color="4" fill="1" visible="yes" active="yes"/>
<layer number="95" name="Names" color="7" fill="1" visible="yes" active="yes"/>
<layer number="96" name="Values" color="7" fill="1" visible="yes" active="yes"/>
<layer number="97" name="Info" color="7" fill="1" visible="yes" active="yes"/>
<layer number="98" name="Guide" color="6" fill="1" visible="yes" active="yes"/>
<layer number="99" name="SpiceOrder" color="7" fill="1" visible="no" active="no"/>
<layer number="100" name="Muster" color="7" fill="1" visible="no" active="no"/>
<layer number="101" name="Patch_Top" color="12" fill="4" visible="yes" active="yes"/>
<layer number="102" name="Vscore" color="7" fill="1" visible="yes" active="yes"/>
<layer number="103" name="tMap" color="7" fill="1" visible="yes" active="yes"/>
<layer number="104" name="Name" color="16" fill="1" visible="yes" active="yes"/>
<layer number="105" name="tPlate" color="7" fill="1" visible="yes" active="yes"/>
<layer number="106" name="bPlate" color="7" fill="1" visible="yes" active="yes"/>
<layer number="107" name="Crop" color="7" fill="1" visible="yes" active="yes"/>
<layer number="108" name="tplace-old" color="10" fill="1" visible="yes" active="yes"/>
<layer number="109" name="ref-old" color="11" fill="1" visible="yes" active="yes"/>
<layer number="110" name="fp0" color="7" fill="1" visible="yes" active="yes"/>
<layer number="111" name="LPC17xx" color="7" fill="1" visible="yes" active="yes"/>
<layer number="112" name="tSilk" color="7" fill="1" visible="yes" active="yes"/>
<layer number="113" name="IDFDebug" color="4" fill="1" visible="yes" active="yes"/>
<layer number="116" name="Patch_BOT" color="9" fill="4" visible="yes" active="yes"/>
<layer number="121" name="_tsilk" color="7" fill="1" visible="yes" active="yes"/>
<layer number="122" name="_bsilk" color="7" fill="1" visible="yes" active="yes"/>
<layer number="123" name="tTestmark" color="7" fill="1" visible="yes" active="yes"/>
<layer number="124" name="bTestmark" color="7" fill="1" visible="yes" active="yes"/>
<layer number="125" name="_tNames" color="7" fill="1" visible="yes" active="yes"/>
<layer number="126" name="_bNames" color="7" fill="1" visible="yes" active="yes"/>
<layer number="127" name="_tValues" color="7" fill="1" visible="yes" active="yes"/>
<layer number="128" name="_bValues" color="7" fill="1" visible="yes" active="yes"/>
<layer number="131" name="tAdjust" color="7" fill="1" visible="yes" active="yes"/>
<layer number="132" name="bAdjust" color="7" fill="1" visible="yes" active="yes"/>
<layer number="144" name="Drill_legend" color="7" fill="1" visible="yes" active="yes"/>
<layer number="150" name="Notes" color="7" fill="1" visible="yes" active="yes"/>
<layer number="151" name="HeatSink" color="7" fill="1" visible="yes" active="yes"/>
<layer number="152" name="_bDocu" color="7" fill="1" visible="yes" active="yes"/>
<layer number="153" name="FabDoc1" color="7" fill="1" visible="yes" active="yes"/>
<layer number="154" name="FabDoc2" color="7" fill="1" visible="yes" active="yes"/>
<layer number="155" name="FabDoc3" color="7" fill="1" visible="yes" active="yes"/>
<layer number="199" name="Contour" color="7" fill="1" visible="yes" active="yes"/>
<layer number="200" name="200bmp" color="1" fill="10" visible="yes" active="yes"/>
<layer number="201" name="201bmp" color="2" fill="10" visible="yes" active="yes"/>
<layer number="202" name="202bmp" color="3" fill="10" visible="yes" active="yes"/>
<layer number="203" name="203bmp" color="4" fill="10" visible="yes" active="yes"/>
<layer number="204" name="204bmp" color="5" fill="10" visible="yes" active="yes"/>
<layer number="205" name="205bmp" color="6" fill="10" visible="yes" active="yes"/>
<layer number="206" name="206bmp" color="7" fill="10" visible="yes" active="yes"/>
<layer number="207" name="207bmp" color="8" fill="10" visible="yes" active="yes"/>
<layer number="208" name="208bmp" color="9" fill="10" visible="yes" active="yes"/>
<layer number="209" name="209bmp" color="7" fill="1" visible="yes" active="yes"/>
<layer number="210" name="210bmp" color="7" fill="1" visible="yes" active="yes"/>
<layer number="211" name="211bmp" color="7" fill="1" visible="yes" active="yes"/>
<layer number="212" name="212bmp" color="7" fill="1" visible="yes" active="yes"/>
<layer number="213" name="213bmp" color="7" fill="1" visible="yes" active="yes"/>
<layer number="214" name="214bmp" color="7" fill="1" visible="yes" active="yes"/>
<layer number="215" name="215bmp" color="7" fill="1" visible="yes" active="yes"/>
<layer number="216" name="216bmp" color="7" fill="1" visible="yes" active="yes"/>
<layer number="217" name="217bmp" color="18" fill="1" visible="no" active="no"/>
<layer number="218" name="218bmp" color="19" fill="1" visible="no" active="no"/>
<layer number="219" name="219bmp" color="20" fill="1" visible="no" active="no"/>
<layer number="220" name="220bmp" color="21" fill="1" visible="no" active="no"/>
<layer number="221" name="221bmp" color="22" fill="1" visible="no" active="no"/>
<layer number="222" name="222bmp" color="23" fill="1" visible="no" active="no"/>
<layer number="223" name="223bmp" color="24" fill="1" visible="no" active="no"/>
<layer number="224" name="224bmp" color="25" fill="1" visible="no" active="no"/>
<layer number="248" name="Housing" color="7" fill="1" visible="yes" active="yes"/>
<layer number="249" name="Edge" color="7" fill="1" visible="yes" active="yes"/>
<layer number="250" name="Descript" color="3" fill="1" visible="no" active="no"/>
<layer number="251" name="SMDround" color="12" fill="11" visible="no" active="no"/>
<layer number="254" name="cooling" color="7" fill="1" visible="yes" active="yes"/>
</layers>
<library>
<packages>
<package name="QFN46-CC3000">
<smd name="P$1" x="-5.85" y="5.4" dx="1.2" dy="0.7" layer="1"/>
<smd name="P$2" x="-5.85" y="4.2" dx="1.2" dy="0.7" layer="1"/>
<smd name="P$3" x="-5.85" y="3" dx="1.2" dy="0.7" layer="1"/>
<smd name="P$4" x="-5.85" y="1.8" dx="1.2" dy="0.7" layer="1"/>
<smd name="P$5" x="-5.85" y="0.6" dx="1.2" dy="0.7" layer="1"/>
<smd name="P$6" x="-5.85" y="-0.6" dx="1.2" dy="0.7" layer="1"/>
<smd name="P$7" x="-5.85" y="-1.8" dx="1.2" dy="0.7" layer="1"/>
<smd name="P$8" x="-5.85" y="-3" dx="1.2" dy="0.7" layer="1"/>
<smd name="P$9" x="-5.85" y="-4.2" dx="1.2" dy="0.7" layer="1"/>
<smd name="P$10" x="-5.85" y="-5.4" dx="1.2" dy="0.7" layer="1"/>
<smd name="P$28" x="5.85" y="5.4" dx="1.2" dy="0.7" layer="1"/>
<smd name="P$27" x="5.85" y="4.2" dx="1.2" dy="0.7" layer="1"/>
<smd name="P$26" x="5.85" y="3" dx="1.2" dy="0.7" layer="1"/>
<smd name="P$25" x="5.85" y="1.8" dx="1.2" dy="0.7" layer="1"/>
<smd name="P$24" x="5.85" y="0.6" dx="1.2" dy="0.7" layer="1"/>
<smd name="P$23" x="5.85" y="-0.6" dx="1.2" dy="0.7" layer="1"/>
<smd name="P$22" x="5.85" y="-1.8" dx="1.2" dy="0.7" layer="1"/>
<smd name="P$21" x="5.85" y="-3" dx="1.2" dy="0.7" layer="1"/>
<smd name="P$20" x="5.85" y="-4.2" dx="1.2" dy="0.7" layer="1"/>
<smd name="P$19" x="5.85" y="-5.4" dx="1.2" dy="0.7" layer="1"/>
<smd name="P$11" x="-4.2" y="-7.25" dx="1.2" dy="0.7" layer="1" rot="R90"/>
<smd name="P$12" x="-3" y="-7.25" dx="1.2" dy="0.7" layer="1" rot="R90"/>
<smd name="P$13" x="-1.8" y="-7.25" dx="1.2" dy="0.7" layer="1" rot="R90"/>
<smd name="P$14" x="-0.6" y="-7.25" dx="1.2" dy="0.7" layer="1" rot="R90"/>
<smd name="P$15" x="0.6" y="-7.25" dx="1.2" dy="0.7" layer="1" rot="R90"/>
<smd name="P$16" x="1.8" y="-7.25" dx="1.2" dy="0.7" layer="1" rot="R90"/>
<smd name="P$17" x="3" y="-7.25" dx="1.2" dy="0.7" layer="1" rot="R90"/>
<smd name="P$18" x="4.2" y="-7.25" dx="1.2" dy="0.7" layer="1" rot="R90"/>
<smd name="P$29" x="4.2" y="7.25" dx="1.2" dy="0.7" layer="1" rot="R270"/>
<smd name="P$30" x="3" y="7.25" dx="1.2" dy="0.7" layer="1" rot="R270"/>
<smd name="P$31" x="1.8" y="7.25" dx="1.2" dy="0.7" layer="1" rot="R270"/>
<smd name="P$32" x="0.6" y="7.25" dx="1.2" dy="0.7" layer="1" rot="R270"/>
<smd name="P$33" x="-0.6" y="7.25" dx="1.2" dy="0.7" layer="1" rot="R270"/>
<smd name="P$34" x="-1.8" y="7.25" dx="1.2" dy="0.7" layer="1" rot="R270"/>
<smd name="P$35" x="-3" y="7.25" dx="1.2" dy="0.7" layer="1" rot="R270"/>
<smd name="P$36" x="-4.2" y="7.25" dx="1.2" dy="0.7" layer="1" rot="R270"/>
<smd name="GND@37" x="-2.15" y="3.6" dx="2.4" dy="1.9" layer="1"/>
<smd name="GND@38" x="-2.15" y="0" dx="2.4" dy="1.9" layer="1"/>
<smd name="GND@39" x="-2.15" y="-3.6" dx="2.4" dy="1.9" layer="1"/>
<smd name="GND@40" x="2.15" y="3.6" dx="2.4" dy="1.9" layer="1"/>
<smd name="GND@41" x="2.15" y="0" dx="2.4" dy="1.9" layer="1"/>
<smd name="GND@42" x="2.15" y="-3.6" dx="2.4" dy="1.9" layer="1"/>
<smd name="GND@43" x="-5.85" y="7.25" dx="1.2" dy="1.2" layer="1"/>
<smd name="GND@44" x="-5.85" y="-7.25" dx="1.2" dy="1.2" layer="1"/>
<smd name="GND@45" x="5.85" y="-7.25" dx="1.2" dy="1.2" layer="1"/>
<smd name="GND@46" x="5.85" y="7.25" dx="1.2" dy="1.2" layer="1"/>
<wire x1="-6.75" y1="8.15" x2="6.75" y2="8.15" width="0.127" layer="51"/>
<wire x1="6.75" y1="8.15" x2="6.75" y2="-8.15" width="0.127" layer="51"/>
<wire x1="6.75" y1="-8.15" x2="-6.75" y2="-8.15" width="0.127" layer="51"/>
<wire x1="-6.75" y1="-8.15" x2="-6.75" y2="8.15" width="0.127" layer="51"/>
<wire x1="4.75" y1="8.15" x2="6.75" y2="8.15" width="0.2032" layer="21"/>
<wire x1="6.75" y1="8.15" x2="6.75" y2="6.15" width="0.2032" layer="21"/>
<wire x1="6.75" y1="-6.15" x2="6.75" y2="-8.15" width="0.2032" layer="21"/>
<wire x1="6.75" y1="-8.15" x2="4.75" y2="-8.15" width="0.2032" layer="21"/>
<wire x1="-4.75" y1="-8.15" x2="-6.75" y2="-8.15" width="0.2032" layer="21"/>
<wire x1="-6.75" y1="-8.15" x2="-6.75" y2="-6.15" width="0.2032" layer="21"/>
<wire x1="-6.75" y1="6.15" x2="-6.75" y2="8.15" width="0.2032" layer="21"/>
<wire x1="-6.75" y1="8.15" x2="-4.75" y2="8.15" width="0.2032" layer="21"/>
<circle x="-4.2" y="5.4" radius="0.508" width="0.2032" layer="21"/>
<text x="-6.818" y="8.492" size="0.4064" layer="25">&gt;NAME</text>
<text x="-6.802" y="-8.93" size="0.4064" layer="27">&gt;VALUE</text>
</package>
<package name="GR-10">
<wire x1="-5" y1="5" x2="5" y2="5" width="0.127" layer="51"/>
<wire x1="5" y1="5" x2="5" y2="-5" width="0.127" layer="51"/>
<wire x1="5" y1="-5" x2="-5" y2="-5" width="0.127" layer="51"/>
<wire x1="-5" y1="-5" x2="-5" y2="5" width="0.127" layer="51"/>
<wire x1="-5" y1="5" x2="-5" y2="4.6" width="0.1778" layer="21"/>
<wire x1="-5" y1="5" x2="-4.6" y2="5" width="0.1778" layer="21"/>
<wire x1="-5" y1="-5" x2="-5" y2="-4.6" width="0.1778" layer="21"/>
<wire x1="-5" y1="-5" x2="-4.6" y2="-5" width="0.1778" layer="21"/>
<wire x1="5" y1="-5" x2="4.6" y2="-5" width="0.1778" layer="21"/>
<wire x1="5" y1="-5" x2="5" y2="-4.6" width="0.1778" layer="21"/>
<wire x1="5" y1="4.6" x2="4.6" y2="5" width="0.1778" layer="21"/>
<circle x="3.81" y="3.81" radius="0.2839" width="0.127" layer="51"/>
<smd name="1" x="5" y="4" dx="0.8" dy="0.5" layer="1"/>
<smd name="2" x="4.9" y="3" dx="1" dy="0.6" layer="1"/>
<smd name="3" x="4.9" y="2" dx="1" dy="0.6" layer="1"/>
<smd name="4" x="4.9" y="1" dx="1" dy="0.6" layer="1"/>
<smd name="5" x="4.9" y="0" dx="1" dy="0.6" layer="1"/>
<smd name="6" x="4.9" y="-1" dx="1" dy="0.6" layer="1"/>
<smd name="7" x="4.9" y="-2" dx="1" dy="0.6" layer="1"/>
<smd name="8" x="4.9" y="-3" dx="1" dy="0.6" layer="1"/>
<smd name="9" x="5" y="-4" dx="0.8" dy="0.5" layer="1"/>
<smd name="10" x="4" y="-5" dx="0.8" dy="0.5" layer="1" rot="R270"/>
<smd name="11" x="3" y="-4.9" dx="1" dy="0.6" layer="1" rot="R270"/>
<smd name="12" x="2" y="-4.9" dx="1" dy="0.6" layer="1" rot="R270"/>
<smd name="13" x="1" y="-4.9" dx="1" dy="0.6" layer="1" rot="R270"/>
<smd name="14" x="0" y="-4.9" dx="1" dy="0.6" layer="1" rot="R270"/>
<smd name="15" x="-1" y="-4.9" dx="1" dy="0.6" layer="1" rot="R270"/>
<smd name="16" x="-2" y="-4.9" dx="1" dy="0.6" layer="1" rot="R270"/>
<smd name="17" x="-3" y="-4.9" dx="1" dy="0.6" layer="1" rot="R270"/>
<smd name="18" x="-4" y="-5" dx="0.8" dy="0.5" layer="1" rot="R270"/>
<smd name="19" x="-5" y="-4" dx="0.8" dy="0.5" layer="1" rot="R180"/>
<smd name="20" x="-4.9" y="-3" dx="1" dy="0.6" layer="1" rot="R180"/>
<smd name="21" x="-4.9" y="-2" dx="1" dy="0.6" layer="1" rot="R180"/>
<smd name="22" x="-4.9" y="-1" dx="1" dy="0.6" layer="1" rot="R180"/>
<smd name="23" x="-4.9" y="0" dx="1" dy="0.6" layer="1" rot="R180"/>
<smd name="24" x="-4.9" y="1" dx="1" dy="0.6" layer="1" rot="R180"/>
<smd name="25" x="-4.9" y="2" dx="1" dy="0.6" layer="1" rot="R180"/>
<smd name="26" x="-4.9" y="3" dx="1" dy="0.6" layer="1" rot="R180"/>
<smd name="27" x="-5" y="4" dx="0.8" dy="0.5" layer="1" rot="R180"/>
<smd name="28" x="-4" y="5" dx="0.8" dy="0.5" layer="1" rot="R90"/>
<smd name="29" x="-3" y="4.9" dx="1" dy="0.6" layer="1" rot="R90"/>
<smd name="30" x="-2" y="4.9" dx="1" dy="0.6" layer="1" rot="R90"/>
<smd name="31" x="-1" y="4.9" dx="1" dy="0.6" layer="1" rot="R90"/>
<smd name="32" x="0" y="4.9" dx="1" dy="0.6" layer="1" rot="R90"/>
<smd name="33" x="1" y="4.9" dx="1" dy="0.6" layer="1" rot="R90"/>
<smd name="34" x="2" y="4.9" dx="1" dy="0.6" layer="1" rot="R90"/>
<smd name="35" x="3" y="4.9" dx="1" dy="0.6" layer="1" rot="R90"/>
<smd name="36" x="4" y="5" dx="0.8" dy="0.5" layer="1" rot="R90"/>
<text x="-3.683" y="3.4925" size="0.4064" layer="25">&gt;NAME</text>
<text x="-3.7465" y="2.667" size="0.4064" layer="27">&gt;VALUE</text>
</package>
<package name="NS73M">
<wire x1="-3.5" y1="3.5" x2="3.5" y2="3.5" width="0.127" layer="51"/>
<wire x1="3.5" y1="3.5" x2="3.5" y2="-3.5" width="0.127" layer="51"/>
<wire x1="3.5" y1="-3.5" x2="-3.5" y2="-3.5" width="0.127" layer="51"/>
<wire x1="-3.5" y1="-3.5" x2="-3.5" y2="3.5" width="0.127" layer="51"/>
<wire x1="-3.5" y1="3.5" x2="-3" y2="3.5" width="0.2032" layer="21"/>
<wire x1="-3.5" y1="3.5" x2="-3.5" y2="3" width="0.2032" layer="21"/>
<wire x1="3" y1="3.5" x2="3.5" y2="3.5" width="0.2032" layer="21"/>
<wire x1="-3.5" y1="-3.5" x2="-3.5" y2="-3" width="0.2032" layer="21"/>
<wire x1="-3.5" y1="-3.5" x2="-2.95" y2="-3.5" width="0.2032" layer="21"/>
<wire x1="3" y1="-3.5" x2="3.5" y2="-3.5" width="0.2032" layer="21"/>
<circle x="1.778" y="-2.921" radius="0.2268" width="0.2032" layer="21"/>
<smd name="9" x="-3.35" y="2.4" dx="1.5" dy="0.5" layer="1" roundness="75"/>
<smd name="10" x="-3.35" y="1.6" dx="1.5" dy="0.5" layer="1" roundness="75"/>
<smd name="11" x="-3.35" y="0.8" dx="1.5" dy="0.5" layer="1" roundness="75"/>
<smd name="12" x="-3.35" y="0" dx="1.5" dy="0.5" layer="1" roundness="75"/>
<smd name="13" x="-3.35" y="-0.8" dx="1.5" dy="0.5" layer="1" roundness="75"/>
<smd name="14" x="-3.35" y="-1.6" dx="1.5" dy="0.5" layer="1" roundness="75"/>
<smd name="15" x="-3.35" y="-2.4" dx="1.5" dy="0.5" layer="1" roundness="75"/>
<smd name="1" x="3.35" y="-2.8" dx="1.5" dy="0.5" layer="1" roundness="75"/>
<smd name="2" x="3.35" y="-2" dx="1.5" dy="0.5" layer="1" roundness="75"/>
<smd name="3" x="3.35" y="-1.2" dx="1.5" dy="0.5" layer="1" roundness="75"/>
<smd name="4" x="3.35" y="-0.4" dx="1.5" dy="0.5" layer="1" roundness="75"/>
<smd name="5" x="3.35" y="0.4" dx="1.5" dy="0.5" layer="1" roundness="75"/>
<smd name="6" x="3.35" y="1.2" dx="1.5" dy="0.5" layer="1" roundness="75"/>
<smd name="7" x="3.35" y="2" dx="1.5" dy="0.5" layer="1" roundness="75"/>
<smd name="8" x="3.35" y="2.8" dx="1.5" dy="0.5" layer="1" roundness="75"/>
</package>
<package name="RFM22-S2">
<description>Package for Hope RF s RFM22-xxx-S2 SMD wireless transciever, xxx is module s frequency band.
*Unproven*''</description>
<wire x1="-8" y1="8" x2="8" y2="8" width="0.2032" layer="21"/>
<wire x1="8" y1="-8" x2="-8" y2="-8" width="0.2032" layer="21"/>
<wire x1="2" y1="1.65" x2="2" y2="-3.35" width="0.2032" layer="21"/>
<wire x1="2" y1="1.65" x2="5.2" y2="1.65" width="0.2032" layer="21"/>
<wire x1="5.2" y1="1.65" x2="5.2" y2="-3.35" width="0.2032" layer="21"/>
<wire x1="-2.5" y1="-1.5" x2="1" y2="-1.5" width="0.2032" layer="21"/>
<wire x1="1" y1="-1.5" x2="1" y2="-5" width="0.2032" layer="21"/>
<wire x1="1" y1="-5" x2="-2.5" y2="-5" width="0.2032" layer="21"/>
<wire x1="-2.5" y1="-5" x2="-2.5" y2="-1.5" width="0.2032" layer="21"/>
<wire x1="2" y1="-3.35" x2="5.2" y2="-3.35" width="0.2032" layer="21"/>
<wire x1="-8" y1="8" x2="-8" y2="-8" width="0.2032" layer="51"/>
<wire x1="8" y1="-8" x2="8" y2="8" width="0.2032" layer="51"/>
<smd name="1" x="-8" y="7" dx="1.3" dy="2" layer="1" rot="R90"/>
<smd name="2" x="-8" y="5" dx="1.3" dy="2" layer="1" rot="R90"/>
<smd name="3" x="-8" y="3" dx="1.3" dy="2" layer="1" rot="R90"/>
<smd name="4" x="-8" y="1" dx="1.3" dy="2" layer="1" rot="R90"/>
<smd name="5" x="-8" y="-1" dx="1.3" dy="2" layer="1" rot="R90"/>
<smd name="6" x="-8" y="-3" dx="1.3" dy="2" layer="1" rot="R90"/>
<smd name="7" x="-8" y="-5" dx="1.3" dy="2" layer="1" rot="R90"/>
<smd name="8" x="-8" y="-7" dx="1.3" dy="2" layer="1" rot="R90"/>
<smd name="9" x="8" y="-7" dx="1.3" dy="2" layer="1" rot="R90"/>
<smd name="10" x="8" y="-5" dx="1.3" dy="2" layer="1" rot="R90"/>
<smd name="11" x="8" y="-3" dx="1.3" dy="2" layer="1" rot="R90"/>
<smd name="12" x="8" y="-1" dx="1.3" dy="2" layer="1" rot="R90"/>
<smd name="13" x="8" y="1" dx="1.3" dy="2" layer="1" rot="R90"/>
<smd name="14" x="8" y="3" dx="1.3" dy="2" layer="1" rot="R90"/>
<smd name="15" x="8" y="5" dx="1.3" dy="2" layer="1" rot="R90"/>
<smd name="16" x="8" y="7" dx="1.3" dy="2" layer="1" rot="R90"/>
<text x="4" y="-3" size="0.8" layer="21" ratio="15" rot="R90">Crystal</text>
<text x="-1.2" y="-3.6" size="0.8" layer="21" ratio="15">IC</text>
<text x="-6" y="-7" size="0.4064" layer="27">&gt;VALUE</text>
<text x="-6" y="-6" size="0.4064" layer="25">&gt;NAME</text>
</package>
<package name="RFM69CW-S2">
<wire x1="-8" y1="8" x2="8" y2="8" width="0.2032" layer="21"/>
<wire x1="8" y1="8" x2="8" y2="-8" width="0.2032" layer="21"/>
<wire x1="8" y1="-8" x2="-8" y2="-8" width="0.2032" layer="21"/>
<wire x1="-8" y1="-8" x2="-8" y2="8" width="0.2032" layer="21"/>
<smd name="4" x="-7.5" y="0" dx="3" dy="1.2" layer="1"/>
<smd name="3" x="-7.5" y="2" dx="3" dy="1.2" layer="1"/>
<smd name="2" x="-7.5" y="4" dx="3" dy="1.2" layer="1"/>
<smd name="1" x="-7.5" y="6" dx="3" dy="1.2" layer="1"/>
<smd name="5" x="-7.5" y="-2" dx="3" dy="1.2" layer="1"/>
<smd name="6" x="-7.5" y="-4" dx="3" dy="1.2" layer="1"/>
<smd name="7" x="-7.5" y="-6" dx="3" dy="1.2" layer="1"/>
<smd name="8" x="7.5" y="-6" dx="3" dy="1.2" layer="1"/>
<smd name="9" x="7.5" y="-4" dx="3" dy="1.2" layer="1"/>
<smd name="10" x="7.5" y="-2" dx="3" dy="1.2" layer="1"/>
<smd name="11" x="7.5" y="0" dx="3" dy="1.2" layer="1"/>
<smd name="12" x="7.5" y="2" dx="3" dy="1.2" layer="1"/>
<smd name="13" x="7.5" y="4" dx="3" dy="1.2" layer="1"/>
<smd name="14" x="7.5" y="6" dx="3" dy="1.2" layer="1"/>
<wire x1="-4" y1="2" x2="-4" y2="-2" width="0.2032" layer="21"/>
<wire x1="-4" y1="-2" x2="0" y2="-2" width="0.2032" layer="21"/>
<wire x1="0" y1="-2" x2="0" y2="2" width="0.2032" layer="21"/>
<wire x1="0" y1="2" x2="-4" y2="2" width="0.2032" layer="21"/>
<text x="-9" y="9" size="1.27" layer="25">&gt;NAME</text>
<text x="9" y="9" size="1.27" layer="27" align="bottom-right">&gt;VALUE</text>
<text x="-5.485" y="5.35" size="1.27" layer="21" ratio="12">1</text>
<wire x1="2" y1="-0.5" x2="2" y2="1.5" width="0.2032" layer="21"/>
<wire x1="4" y1="1.5" x2="2" y2="1.5" width="0.2032" layer="21"/>
<wire x1="4" y1="-0.5" x2="4" y2="1.5" width="0.2032" layer="21"/>
<wire x1="4" y1="-0.5" x2="2" y2="-0.5" width="0.2032" layer="21"/>
</package>
<package name="RFM69HCW-S2">
<wire x1="-8" y1="8" x2="8" y2="8" width="0.2032" layer="21"/>
<wire x1="8" y1="8" x2="8" y2="-8" width="0.2032" layer="21"/>
<wire x1="8" y1="-8" x2="-8" y2="-8" width="0.2032" layer="21"/>
<wire x1="-8" y1="-8" x2="-8" y2="8" width="0.2032" layer="21"/>
<smd name="4" x="-7.5" y="1" dx="3" dy="1.2" layer="1"/>
<smd name="3" x="-7.5" y="3" dx="3" dy="1.2" layer="1"/>
<smd name="2" x="-7.5" y="5" dx="3" dy="1.2" layer="1"/>
<smd name="1" x="-7.5" y="7" dx="3" dy="1.2" layer="1"/>
<smd name="5" x="-7.5" y="-1" dx="3" dy="1.2" layer="1"/>
<smd name="6" x="-7.5" y="-3" dx="3" dy="1.2" layer="1"/>
<smd name="7" x="-7.5" y="-5" dx="3" dy="1.2" layer="1"/>
<smd name="8" x="-7.5" y="-7" dx="3" dy="1.2" layer="1"/>
<smd name="9" x="7.5" y="-7" dx="3" dy="1.2" layer="1"/>
<smd name="10" x="7.5" y="-5" dx="3" dy="1.2" layer="1"/>
<smd name="11" x="7.5" y="-3" dx="3" dy="1.2" layer="1"/>
<smd name="12" x="7.5" y="-1" dx="3" dy="1.2" layer="1"/>
<smd name="13" x="7.5" y="1" dx="3" dy="1.2" layer="1"/>
<smd name="14" x="7.5" y="3" dx="3" dy="1.2" layer="1"/>
<smd name="15" x="7.5" y="5" dx="3" dy="1.2" layer="1"/>
<smd name="16" x="7.5" y="7" dx="3" dy="1.2" layer="1"/>
<wire x1="-4" y1="6" x2="-4" y2="2" width="0.2032" layer="21"/>
<wire x1="-4" y1="2" x2="0" y2="2" width="0.2032" layer="21"/>
<wire x1="0" y1="2" x2="0" y2="6" width="0.2032" layer="21"/>
<wire x1="0" y1="6" x2="-4" y2="6" width="0.2032" layer="21"/>
<text x="-9" y="9" size="1.27" layer="25">&gt;NAME</text>
<text x="9" y="9" size="1.27" layer="27" align="bottom-right">&gt;VALUE</text>
<text x="-5.485" y="6.35" size="1.27" layer="21" ratio="12">1</text>
<wire x1="2" y1="3" x2="2" y2="5" width="0.2032" layer="21"/>
<wire x1="4" y1="5" x2="2" y2="5" width="0.2032" layer="21"/>
<wire x1="4" y1="3" x2="4" y2="5" width="0.2032" layer="21"/>
<wire x1="4" y1="3" x2="2" y2="3" width="0.2032" layer="21"/>
</package>
<package name="RFM69W-S2">
<wire x1="-9.85" y1="8" x2="9.85" y2="8" width="0.2032" layer="21"/>
<wire x1="9.85" y1="8" x2="9.85" y2="-8" width="0.2032" layer="21"/>
<wire x1="9.85" y1="-8" x2="-9.85" y2="-8" width="0.2032" layer="21"/>
<wire x1="-9.85" y1="-8" x2="-9.85" y2="8" width="0.2032" layer="21"/>
<smd name="4" x="-9.35" y="1" dx="3" dy="1.2" layer="1"/>
<smd name="3" x="-9.35" y="3" dx="3" dy="1.2" layer="1"/>
<smd name="2" x="-9.35" y="5" dx="3" dy="1.2" layer="1"/>
<smd name="1" x="-9.35" y="7" dx="3" dy="1.2" layer="1"/>
<smd name="5" x="-9.35" y="-1" dx="3" dy="1.2" layer="1"/>
<smd name="6" x="-9.35" y="-3" dx="3" dy="1.2" layer="1"/>
<smd name="7" x="-9.35" y="-5" dx="3" dy="1.2" layer="1"/>
<smd name="8" x="-9.35" y="-7" dx="3" dy="1.2" layer="1"/>
<smd name="9" x="9.35" y="-7" dx="3" dy="1.2" layer="1"/>
<smd name="10" x="9.35" y="-5" dx="3" dy="1.2" layer="1"/>
<smd name="11" x="9.35" y="-3" dx="3" dy="1.2" layer="1"/>
<smd name="12" x="9.35" y="-1" dx="3" dy="1.2" layer="1"/>
<smd name="13" x="9.35" y="1" dx="3" dy="1.2" layer="1"/>
<smd name="14" x="9.35" y="3" dx="3" dy="1.2" layer="1"/>
<smd name="15" x="9.35" y="5" dx="3" dy="1.2" layer="1"/>
<smd name="16" x="9.35" y="7" dx="3" dy="1.2" layer="1"/>
<wire x1="-5" y1="-1" x2="-5" y2="-6" width="0.2032" layer="21"/>
<wire x1="-5" y1="-6" x2="0" y2="-6" width="0.2032" layer="21"/>
<wire x1="0" y1="-6" x2="0" y2="-1" width="0.2032" layer="21"/>
<wire x1="0" y1="-1" x2="-5" y2="-1" width="0.2032" layer="21"/>
<wire x1="-5" y1="7" x2="-5" y2="4" width="0.2032" layer="21"/>
<wire x1="-5" y1="4" x2="5" y2="4" width="0.2032" layer="21"/>
<wire x1="5" y1="4" x2="5" y2="7" width="0.2032" layer="21"/>
<wire x1="5" y1="7" x2="-5" y2="7" width="0.2032" layer="21"/>
<text x="-10" y="9" size="1.27" layer="25">&gt;NAME</text>
<text x="10" y="9" size="1.27" layer="27" align="bottom-right">&gt;VALUE</text>
<text x="-6.985" y="6.35" size="1.27" layer="21" ratio="12">1</text>
</package>
<package name="WI07-3">
<smd name="8" x="-6.5" y="5" dx="2" dy="1.27" layer="1" thermals="no"/>
<smd name="9" x="-6.5" y="3" dx="2" dy="1.27" layer="1" thermals="no"/>
<smd name="14" x="-6.5" y="-7" dx="2" dy="1.27" layer="1" thermals="no"/>
<smd name="10" x="-6.5" y="1" dx="2" dy="1.27" layer="1" thermals="no"/>
<smd name="11" x="-6.5" y="-1" dx="2" dy="1.27" layer="1" thermals="no"/>
<smd name="12" x="-6.5" y="-3" dx="2" dy="1.27" layer="1" thermals="no"/>
<smd name="2" x="6.5" y="-5" dx="2" dy="1.27" layer="1" thermals="no"/>
<smd name="3" x="6.5" y="-3" dx="2" dy="1.27" layer="1" thermals="no"/>
<smd name="4" x="6.5" y="-1" dx="2" dy="1.27" layer="1" thermals="no"/>
<smd name="5" x="6.5" y="1" dx="2" dy="1.27" layer="1" thermals="no"/>
<smd name="6" x="6.5" y="3" dx="2" dy="1.27" layer="1" thermals="no"/>
<smd name="7" x="6.5" y="5" dx="2" dy="1.27" layer="1" thermals="no"/>
<smd name="13" x="-6.5" y="-5" dx="2" dy="1.27" layer="1" thermals="no"/>
<smd name="1" x="6.5" y="-7" dx="2" dy="1.27" layer="1" thermals="no"/>
<wire x1="-6" y1="-8.5" x2="-6" y2="9.5" width="0.3048" layer="51"/>
<wire x1="-6" y1="9.5" x2="6" y2="9.5" width="0.3048" layer="51"/>
<wire x1="6" y1="9.5" x2="6" y2="-8.5" width="0.3048" layer="51"/>
<wire x1="-5" y1="8.5" x2="-5" y2="7" width="0.127" layer="21"/>
<wire x1="-5" y1="7" x2="-4.5" y2="7" width="0.127" layer="21"/>
<wire x1="-4.5" y1="7" x2="4.5" y2="7" width="0.127" layer="21"/>
<wire x1="4.5" y1="7" x2="5" y2="7" width="0.127" layer="21"/>
<wire x1="5" y1="7" x2="5" y2="8.5" width="0.127" layer="21"/>
<circle x="4.5" y="-7" radius="0.5" width="0.127" layer="21"/>
<text x="-6" y="10" size="1.4224" layer="21">&gt;NAME</text>
<text x="-6.5" y="-10.5" size="1.4224" layer="21">&gt;VALUE</text>
<wire x1="-4" y1="3.5" x2="-4" y2="-1.5" width="0.127" layer="21"/>
<wire x1="-4" y1="-1.5" x2="1" y2="-1.5" width="0.127" layer="21"/>
<wire x1="1" y1="-1.5" x2="1" y2="3.5" width="0.127" layer="21"/>
<wire x1="1" y1="3.5" x2="-4" y2="3.5" width="0.127" layer="21"/>
<wire x1="-3.5" y1="-3.5" x2="0.5" y2="-3.5" width="0.127" layer="21"/>
<wire x1="0.5" y1="-3.5" x2="0.5" y2="-8" width="0.127" layer="21"/>
<wire x1="0.5" y1="-8" x2="-3.5" y2="-8" width="0.127" layer="21"/>
<wire x1="-3.5" y1="-8" x2="-3.5" y2="-3.5" width="0.127" layer="21"/>
<wire x1="-6" y1="-8.5" x2="6" y2="-8.5" width="0.3048" layer="21"/>
<wire x1="-6" y1="6" x2="-6" y2="9.5" width="0.3048" layer="21"/>
<wire x1="-6" y1="9.5" x2="6" y2="9.5" width="0.3048" layer="21"/>
<wire x1="6" y1="9.5" x2="6" y2="6" width="0.3048" layer="21"/>
<wire x1="-5" y1="8.5" x2="-4.5" y2="8.5" width="0.127" layer="21"/>
<wire x1="-4.5" y1="8.5" x2="4.5" y2="8.5" width="0.127" layer="21"/>
<wire x1="4.5" y1="8.5" x2="5" y2="8.5" width="0.127" layer="21"/>
<wire x1="-4.5" y1="8.5" x2="-4.5" y2="7" width="0.127" layer="21"/>
<wire x1="4.5" y1="8.5" x2="4.5" y2="7" width="0.127" layer="21"/>
<wire x1="2.25" y1="-1" x2="2.25" y2="-4" width="0.127" layer="21"/>
<wire x1="2.25" y1="-4" x2="4.25" y2="-4" width="0.127" layer="21"/>
<wire x1="4.25" y1="-4" x2="4.25" y2="-1" width="0.127" layer="21"/>
<wire x1="4.25" y1="-1" x2="2.25" y2="-1" width="0.127" layer="21"/>
</package>
<package name="FM1310">
<smd name="1" x="-5.5" y="4" dx="2.54" dy="1.27" layer="1"/>
<smd name="2" x="-5.5" y="2" dx="2.54" dy="1.27" layer="1"/>
<smd name="3" x="-5.5" y="0" dx="2.54" dy="1.27" layer="1"/>
<smd name="4" x="-5.5" y="-2" dx="2.54" dy="1.27" layer="1"/>
<smd name="5" x="-5.5" y="-4" dx="2.54" dy="1.27" layer="1"/>
<wire x1="-5.5" y1="5.5" x2="-5.5" y2="-5.5" width="0.127" layer="51"/>
<wire x1="-5.5" y1="-5.5" x2="5.5" y2="-5.5" width="0.127" layer="51"/>
<wire x1="5.5" y1="-5.5" x2="5.5" y2="5.5" width="0.127" layer="51"/>
<wire x1="5.5" y1="5.5" x2="-5.5" y2="5.5" width="0.127" layer="51"/>
<smd name="10" x="5.5" y="4" dx="2.54" dy="1.27" layer="1"/>
<smd name="9" x="5.5" y="2" dx="2.54" dy="1.27" layer="1"/>
<smd name="8" x="5.5" y="0" dx="2.54" dy="1.27" layer="1"/>
<smd name="7" x="5.5" y="-2" dx="2.54" dy="1.27" layer="1"/>
<smd name="6" x="5.5" y="-4" dx="2.54" dy="1.27" layer="1"/>
<wire x1="-5.5" y1="5" x2="-5.5" y2="5.5" width="0.3048" layer="21"/>
<wire x1="-5.5" y1="5.5" x2="-3" y2="5.5" width="0.3048" layer="21"/>
<wire x1="4" y1="5.5" x2="5.5" y2="5.5" width="0.3048" layer="21"/>
<wire x1="5.5" y1="5.5" x2="5.5" y2="5" width="0.3048" layer="21"/>
<wire x1="-5.5" y1="-5" x2="-5.5" y2="-5.5" width="0.3048" layer="21"/>
<wire x1="-5.5" y1="-5.5" x2="5.5" y2="-5.5" width="0.3048" layer="21"/>
<wire x1="5.5" y1="-5.5" x2="5.5" y2="-5" width="0.3048" layer="21"/>
<wire x1="-3" y1="5.5" x2="-3" y2="3.5" width="0.3048" layer="21"/>
<wire x1="-3" y1="3.5" x2="4" y2="3.5" width="0.3048" layer="21"/>
<wire x1="4" y1="3.5" x2="4" y2="5.5" width="0.3048" layer="21"/>
</package>
<package name="GPS-XX7X">
<smd name="1" x="-4.906" y="4.3775" dx="1.8" dy="0.8" layer="1" rot="R180"/>
<smd name="2" x="-4.906" y="3.2775" dx="1.8" dy="0.8" layer="1" rot="R180"/>
<smd name="3" x="-4.906" y="2.1775" dx="1.8" dy="0.8" layer="1" rot="R180"/>
<smd name="4" x="-4.906" y="1.0775" dx="1.8" dy="0.8" layer="1" rot="R180"/>
<smd name="5" x="-4.906" y="-0.0225" dx="1.8" dy="0.8" layer="1" rot="R180"/>
<smd name="6" x="-4.906" y="-1.1225" dx="1.8" dy="0.8" layer="1" rot="R180"/>
<smd name="7" x="-4.906" y="-2.2225" dx="1.8" dy="0.8" layer="1" rot="R180"/>
<smd name="8" x="-4.906" y="-3.3225" dx="1.8" dy="0.8" layer="1" rot="R180"/>
<smd name="9" x="-4.906" y="-4.4225" dx="1.8" dy="0.8" layer="1" rot="R180"/>
<smd name="18" x="5.094" y="4.3775" dx="1.8" dy="0.8" layer="1" rot="R180"/>
<smd name="17" x="5.094" y="3.2775" dx="1.8" dy="0.8" layer="1" rot="R180"/>
<smd name="16" x="5.094" y="2.1775" dx="1.8" dy="0.8" layer="1" rot="R180"/>
<smd name="15" x="5.094" y="1.0775" dx="1.8" dy="0.8" layer="1" rot="R180"/>
<smd name="14" x="5.094" y="-0.0225" dx="1.8" dy="0.8" layer="1" rot="R180"/>
<smd name="13" x="5.094" y="-1.1225" dx="1.8" dy="0.8" layer="1" rot="R180"/>
<smd name="12" x="5.094" y="-2.2225" dx="1.8" dy="0.8" layer="1" rot="R180"/>
<smd name="11" x="5.094" y="-3.3225" dx="1.8" dy="0.8" layer="1" rot="R180"/>
<smd name="10" x="5.094" y="-4.4225" dx="1.8" dy="0.8" layer="1" rot="R180"/>
<wire x1="-4.953" y1="5.08" x2="5.08" y2="5.08" width="0.254" layer="21"/>
<wire x1="-4.953" y1="-5.207" x2="5.08" y2="-5.207" width="0.254" layer="21"/>
<wire x1="-4.953" y1="5.08" x2="-4.953" y2="-5.207" width="0.127" layer="51"/>
<wire x1="-4.953" y1="-5.207" x2="5.08" y2="-5.207" width="0.127" layer="51"/>
<wire x1="5.08" y1="-5.207" x2="5.08" y2="5.08" width="0.127" layer="51"/>
<wire x1="5.08" y1="5.08" x2="-4.953" y2="5.08" width="0.127" layer="51"/>
<circle x="-3.175" y="4.318" radius="0.40160625" width="0.127" layer="21"/>
</package>
<package name="WIFI-ESP-11">
<smd name="1" x="-4.28" y="-8.82" dx="2.54" dy="1" layer="1" rot="R90" thermals="no"/>
<wire x1="-6.4" y1="-8.63" x2="-6.4" y2="10.57" width="0.3048" layer="51"/>
<wire x1="-6.4" y1="10.57" x2="6.3" y2="10.57" width="0.3048" layer="51"/>
<wire x1="6.3" y1="10.57" x2="6.3" y2="-8.63" width="0.3048" layer="51"/>
<wire x1="-5" y1="9.77" x2="-5" y2="8.27" width="0.127" layer="21"/>
<wire x1="-5" y1="8.27" x2="-4.5" y2="8.27" width="0.127" layer="21"/>
<wire x1="-4.5" y1="8.27" x2="4.5" y2="8.27" width="0.127" layer="21"/>
<wire x1="4.5" y1="8.27" x2="5" y2="8.27" width="0.127" layer="21"/>
<wire x1="5" y1="8.27" x2="5" y2="9.77" width="0.127" layer="21"/>
<circle x="-4.3" y="-6.63" radius="0.5" width="0.127" layer="21"/>
<text x="-6" y="12.54" size="1.4224" layer="21">&gt;NAME</text>
<wire x1="-6.4" y1="-8.63" x2="6.3" y2="-8.63" width="0.3048" layer="21"/>
<wire x1="-6.4" y1="-8.63" x2="-6.4" y2="10.57" width="0.3048" layer="21"/>
<wire x1="-6.4" y1="10.57" x2="6.3" y2="10.57" width="0.3048" layer="21"/>
<wire x1="6.3" y1="10.57" x2="6.3" y2="-8.63" width="0.3048" layer="21"/>
<wire x1="-5" y1="9.77" x2="-4.5" y2="9.77" width="0.127" layer="21"/>
<wire x1="-4.5" y1="9.77" x2="4.5" y2="9.77" width="0.127" layer="21"/>
<wire x1="4.5" y1="9.77" x2="5" y2="9.77" width="0.127" layer="21"/>
<wire x1="-4.5" y1="9.77" x2="-4.5" y2="8.27" width="0.127" layer="21"/>
<wire x1="4.5" y1="9.77" x2="4.5" y2="8.27" width="0.127" layer="21"/>
<smd name="2" x="-3.01" y="-8.82" dx="2.54" dy="1" layer="1" rot="R90" thermals="no"/>
<smd name="3" x="-1.74" y="-8.82" dx="2.54" dy="1" layer="1" rot="R90" thermals="no"/>
<smd name="4" x="-0.47" y="-8.82" dx="2.54" dy="1" layer="1" rot="R90" thermals="no"/>
<smd name="5" x="0.8" y="-8.82" dx="2.54" dy="1" layer="1" rot="R90" thermals="no"/>
<smd name="6" x="2.07" y="-8.82" dx="2.54" dy="1" layer="1" rot="R90" thermals="no"/>
<smd name="7" x="3.34" y="-8.82" dx="2.54" dy="1" layer="1" rot="R90" thermals="no"/>
<smd name="8" x="4.61" y="-8.82" dx="2.54" dy="1" layer="1" rot="R90" thermals="no"/>
</package>
<package name="RFM-2.4G">
<smd name="1" x="-4.08" y="-9.22" dx="2.54" dy="1" layer="1" rot="R90" thermals="no"/>
<wire x1="-5.7" y1="-9.03" x2="-5.7" y2="8.97" width="0.3048" layer="51"/>
<wire x1="-5.7" y1="8.97" x2="6.5" y2="8.97" width="0.3048" layer="51"/>
<wire x1="6.5" y1="8.97" x2="6.5" y2="-9.03" width="0.3048" layer="51"/>
<circle x="-4.1" y="-6.93" radius="0.5" width="0.127" layer="21"/>
<text x="-5.7" y="9.94" size="1.4224" layer="21">&gt;NAME</text>
<wire x1="-5.7" y1="-9.03" x2="6.5" y2="-9.03" width="0.3048" layer="21"/>
<wire x1="-5.7" y1="-9.03" x2="-5.7" y2="8.97" width="0.3048" layer="21"/>
<wire x1="-5.7" y1="8.97" x2="6.5" y2="8.97" width="0.3048" layer="21"/>
<wire x1="6.5" y1="8.97" x2="6.5" y2="-9.03" width="0.3048" layer="21"/>
<smd name="2" x="-2.81" y="-9.22" dx="2.54" dy="1" layer="1" rot="R90" thermals="no"/>
<smd name="3" x="-1.54" y="-9.22" dx="2.54" dy="1" layer="1" rot="R90" thermals="no"/>
<smd name="4" x="-0.27" y="-9.22" dx="2.54" dy="1" layer="1" rot="R90" thermals="no"/>
<smd name="5" x="1" y="-9.22" dx="2.54" dy="1" layer="1" rot="R90" thermals="no"/>
<smd name="6" x="2.27" y="-9.22" dx="2.54" dy="1" layer="1" rot="R90" thermals="no"/>
<smd name="7" x="3.54" y="-9.22" dx="2.54" dy="1" layer="1" rot="R90" thermals="no"/>
<smd name="8" x="4.81" y="-9.22" dx="2.54" dy="1" layer="1" rot="R90" thermals="no"/>
</package>
<package name="MDRF1">
<smd name="1" x="0.254" y="10.16" dx="2.35" dy="1" layer="1"/>
<smd name="2" x="0.254" y="8.89" dx="2.35" dy="1" layer="1"/>
<smd name="3" x="0.254" y="7.62" dx="2.35" dy="1" layer="1"/>
<smd name="4" x="0.254" y="6.35" dx="2.35" dy="1" layer="1"/>
<smd name="5" x="0.254" y="5.08" dx="2.35" dy="1" layer="1"/>
<smd name="6" x="0.254" y="3.81" dx="2.35" dy="1" layer="1"/>
<smd name="7" x="0.254" y="2.54" dx="2.35" dy="1" layer="1"/>
<smd name="8" x="0.254" y="1.27" dx="2.35" dy="1" layer="1"/>
<smd name="9" x="0.254" y="0" dx="2.35" dy="1" layer="1"/>
<wire x1="0" y1="11.119" x2="0" y2="-0.919" width="0.127" layer="51"/>
<wire x1="0" y1="11.119" x2="16" y2="11.119" width="0.127" layer="51"/>
<wire x1="16" y1="11.119" x2="16" y2="-0.919" width="0.127" layer="51"/>
<wire x1="16" y1="-0.919" x2="0" y2="-0.919" width="0.127" layer="51"/>
<smd name="10" x="15.748" y="0" dx="2.35" dy="1" layer="1"/>
<smd name="11" x="15.748" y="1.27" dx="2.35" dy="1" layer="1"/>
<smd name="12" x="15.748" y="2.54" dx="2.35" dy="1" layer="1"/>
<smd name="13" x="15.748" y="3.81" dx="2.35" dy="1" layer="1"/>
<smd name="14" x="15.748" y="5.08" dx="2.35" dy="1" layer="1"/>
<smd name="15" x="15.748" y="6.35" dx="2.35" dy="1" layer="1"/>
<smd name="16" x="15.748" y="7.62" dx="2.35" dy="1" layer="1"/>
<smd name="17" x="15.748" y="8.89" dx="2.35" dy="1" layer="1"/>
<smd name="18" x="15.748" y="10.16" dx="2.35" dy="1" layer="1"/>
<circle x="2.413" y="10.16" radius="0.179603125" width="0.4064" layer="51"/>
<wire x1="0" y1="11.049" x2="16.002" y2="11.049" width="0.3048" layer="21"/>
<wire x1="0" y1="-0.889" x2="16.002" y2="-0.889" width="0.3048" layer="21"/>
</package>
<package name="MDRF2">
<smd name="1" x="0.26" y="10.16" dx="2.35" dy="1" layer="1"/>
<smd name="2" x="0.26" y="8.89" dx="2.35" dy="1" layer="1"/>
<smd name="3" x="0.26" y="7.62" dx="2.35" dy="1" layer="1"/>
<smd name="4" x="0.26" y="6.35" dx="2.35" dy="1" layer="1"/>
<smd name="5" x="0.26" y="5.08" dx="2.35" dy="1" layer="1"/>
<smd name="6" x="0.26" y="3.81" dx="2.35" dy="1" layer="1"/>
<smd name="7" x="0.26" y="2.54" dx="2.35" dy="1" layer="1"/>
<smd name="8" x="0.26" y="1.27" dx="2.35" dy="1" layer="1"/>
<smd name="9" x="0.26" y="0" dx="2.35" dy="1" layer="1"/>
<wire x1="0" y1="11.119" x2="0" y2="-0.919" width="0.127" layer="51"/>
<wire x1="0" y1="11.119" x2="26" y2="11.119" width="0.127" layer="51"/>
<wire x1="26" y1="11.119" x2="26" y2="-0.919" width="0.127" layer="51"/>
<wire x1="26" y1="-0.919" x2="0" y2="-0.919" width="0.127" layer="51"/>
<smd name="10" x="25.72" y="0" dx="2.35" dy="1" layer="1"/>
<smd name="11" x="25.72" y="1.27" dx="2.35" dy="1" layer="1"/>
<smd name="12" x="25.72" y="2.54" dx="2.35" dy="1" layer="1"/>
<smd name="13" x="25.72" y="3.81" dx="2.35" dy="1" layer="1"/>
<smd name="14" x="25.72" y="5.08" dx="2.35" dy="1" layer="1"/>
<smd name="15" x="25.72" y="6.35" dx="2.35" dy="1" layer="1"/>
<smd name="16" x="25.72" y="7.62" dx="2.35" dy="1" layer="1"/>
<smd name="17" x="25.72" y="8.89" dx="2.35" dy="1" layer="1"/>
<smd name="18" x="25.72" y="10.16" dx="2.35" dy="1" layer="1"/>
<circle x="2.413" y="10.16" radius="0.179603125" width="0.4064" layer="51"/>
<wire x1="0" y1="11.049" x2="26.002" y2="11.049" width="0.3048" layer="21"/>
<wire x1="0" y1="-0.889" x2="26.002" y2="-0.889" width="0.3048" layer="21"/>
</package>
</packages>
<symbols>
<symbol name="CC3000">
<wire x1="-25.4" y1="30.48" x2="25.4" y2="30.48" width="0.254" layer="94"/>
<wire x1="25.4" y1="30.48" x2="25.4" y2="-30.48" width="0.254" layer="94"/>
<wire x1="25.4" y1="-30.48" x2="-25.4" y2="-30.48" width="0.254" layer="94"/>
<wire x1="-25.4" y1="-30.48" x2="-25.4" y2="30.48" width="0.254" layer="94"/>
<pin name="GND@1" x="-30.48" y="12.7" length="middle"/>
<pin name="RESERVED_1" x="-30.48" y="10.16" length="middle"/>
<pin name="NC" x="-30.48" y="7.62" length="middle"/>
<pin name="RESERVED_2" x="-30.48" y="5.08" length="middle"/>
<pin name="WL_EN2" x="-30.48" y="2.54" length="middle"/>
<pin name="WL_RS232_TX" x="-30.48" y="0" length="middle"/>
<pin name="WL_EN1" x="-30.48" y="-2.54" length="middle"/>
<pin name="WL_RS232_RX" x="-30.48" y="-5.08" length="middle"/>
<pin name="GND@9" x="-30.48" y="-7.62" length="middle"/>
<pin name="GND@10" x="-30.48" y="-10.16" length="middle"/>
<pin name="GND@11" x="-17.78" y="-35.56" length="middle" rot="R90"/>
<pin name="SPI_CS" x="-15.24" y="-35.56" length="middle" rot="R90"/>
<pin name="SPI_DOUT" x="-12.7" y="-35.56" length="middle" rot="R90"/>
<pin name="SPI_IRQ" x="-10.16" y="-35.56" length="middle" rot="R90"/>
<pin name="SPI_DIN" x="-7.62" y="-35.56" length="middle" rot="R90"/>
<pin name="GND@16" x="-5.08" y="-35.56" length="middle" rot="R90"/>
<pin name="SPI_CLK" x="-2.54" y="-35.56" length="middle" rot="R90"/>
<pin name="GND@18" x="0" y="-35.56" length="middle" rot="R90"/>
<pin name="VBAT_IN" x="30.48" y="-10.16" length="middle" rot="R180"/>
<pin name="GND@20" x="30.48" y="-7.62" length="middle" rot="R180"/>
<pin name="EXT_32K" x="30.48" y="-5.08" length="middle" rot="R180"/>
<pin name="GND@22" x="30.48" y="-2.54" length="middle" rot="R180"/>
<pin name="VIO_HOST" x="30.48" y="0" length="middle" rot="R180"/>
<pin name="RESERVED_3" x="30.48" y="2.54" length="middle" rot="R180"/>
<pin name="GND@25" x="30.48" y="5.08" length="middle" rot="R180"/>
<pin name="VBAT_SW_EN" x="30.48" y="7.62" length="middle" rot="R180"/>
<pin name="SDA_EEPROM" x="30.48" y="10.16" length="middle" rot="R180"/>
<pin name="SDA_CC3000" x="30.48" y="12.7" length="middle" rot="R180"/>
<pin name="SCL_EEPROM" x="0" y="35.56" length="middle" rot="R270"/>
<pin name="SCL_CC3000" x="-2.54" y="35.56" length="middle" rot="R270"/>
<pin name="GND@31" x="-5.08" y="35.56" length="middle" rot="R270"/>
<pin name="GND@32" x="-7.62" y="35.56" length="middle" rot="R270"/>
<pin name="GND@33" x="-10.16" y="35.56" length="middle" rot="R270"/>
<pin name="GND@34" x="-12.7" y="35.56" length="middle" rot="R270"/>
<pin name="RF_ANT" x="-15.24" y="35.56" length="middle" rot="R270"/>
<pin name="GND@36" x="-17.78" y="35.56" length="middle" rot="R270"/>
<pin name="GND@37" x="10.16" y="-35.56" length="middle" rot="R90"/>
<pin name="GND@38" x="12.7" y="-35.56" length="middle" rot="R90"/>
<pin name="GND@39" x="15.24" y="-35.56" length="middle" rot="R90"/>
<pin name="GND@40" x="17.78" y="-35.56" length="middle" rot="R90"/>
<pin name="GND@41" x="20.32" y="35.56" length="middle" rot="R270"/>
<pin name="GND@42" x="17.78" y="35.56" length="middle" rot="R270"/>
<pin name="GND@43" x="15.24" y="35.56" length="middle" rot="R270"/>
<pin name="GND@44" x="12.7" y="35.56" length="middle" rot="R270"/>
<pin name="GND@45" x="10.16" y="35.56" length="middle" rot="R270"/>
<pin name="GND@46" x="7.62" y="35.56" length="middle" rot="R270"/>
<text x="-27.94" y="31.75" size="1.778" layer="95">&gt;NAME</text>
<text x="-27.94" y="-33.02" size="1.778" layer="96">&gt;VALUE</text>
</symbol>
<symbol name="GR-10">
<wire x1="17.78" y1="22.86" x2="17.78" y2="-25.4" width="0.254" layer="94"/>
<wire x1="17.78" y1="-25.4" x2="-20.32" y2="-25.4" width="0.254" layer="94"/>
<wire x1="-20.32" y1="-25.4" x2="-20.32" y2="22.86" width="0.254" layer="94"/>
<wire x1="-20.32" y1="22.86" x2="17.78" y2="22.86" width="0.254" layer="94"/>
<text x="-20.066" y="23.622" size="1.27" layer="95">&gt;NAME</text>
<text x="-20.066" y="-27.686" size="1.27" layer="96">&gt;VALUE</text>
<pin name="FREF" x="-25.4" y="10.16" length="middle"/>
<pin name="GND@2" x="-7.62" y="-30.48" length="middle" direction="pwr" rot="R90"/>
<pin name="1.8V@3" x="-5.08" y="27.94" length="middle" direction="pwr" rot="R270"/>
<pin name="SB" x="22.86" y="12.7" length="middle" direction="in" rot="R180"/>
<pin name="RX1" x="22.86" y="-5.08" length="middle" direction="in" rot="R180"/>
<pin name="TX1" x="22.86" y="-7.62" length="middle" direction="out" rot="R180"/>
<pin name="RX0" x="22.86" y="0" length="middle" direction="in" rot="R180"/>
<pin name="TX0" x="22.86" y="-2.54" length="middle" direction="out" rot="R180"/>
<pin name="1PPS" x="22.86" y="-15.24" length="middle" direction="out" rot="R180"/>
<pin name="1.8V@10" x="-7.62" y="27.94" length="middle" direction="pwr" rot="R270"/>
<pin name="GND@11" x="-5.08" y="-30.48" length="middle" direction="pwr" rot="R90"/>
<pin name="GPIO_A11" x="-25.4" y="-10.16" length="middle"/>
<pin name="GPIO_A5" x="-25.4" y="-7.62" length="middle"/>
<pin name="GPIO_A6" x="-25.4" y="-5.08" length="middle"/>
<pin name="GPIO_A9" x="-25.4" y="-2.54" length="middle"/>
<pin name="APIO_A4" x="-25.4" y="0" length="middle"/>
<pin name="RTC_XIN" x="-25.4" y="2.54" length="middle"/>
<pin name="RTC_XOUT" x="-25.4" y="5.08" length="middle"/>
<pin name="GPIO_B19" x="-25.4" y="-15.24" length="middle"/>
<pin name="VALID_FIX" x="22.86" y="-12.7" length="middle" direction="out" rot="R180"/>
<pin name="1.8V@21" x="2.54" y="27.94" length="middle" direction="pwr" rot="R270"/>
<pin name="GPIO_B16" x="-25.4" y="-12.7" length="middle"/>
<pin name="RESET" x="22.86" y="10.16" length="middle" direction="in" rot="R180"/>
<pin name="GND@24" x="-2.54" y="-30.48" length="middle" direction="pwr" rot="R90"/>
<pin name="1.8VVCO" x="0" y="27.94" length="middle" direction="pwr" rot="R270"/>
<pin name="1.8VIF" x="-2.54" y="27.94" length="middle" direction="pwr" rot="R270"/>
<pin name="GND@27" x="0" y="-30.48" length="middle" direction="pwr" rot="R90"/>
<pin name="1.8VLNA" x="-10.16" y="27.94" length="middle" direction="pwr" rot="R270"/>
<pin name="GND@29" x="2.54" y="-30.48" length="middle" direction="pwr" rot="R90"/>
<pin name="ANT" x="-25.4" y="17.78" length="middle" direction="in"/>
<pin name="GND@31" x="5.08" y="-30.48" length="middle" direction="pwr" rot="R90"/>
<pin name="RFEN" x="-25.4" y="7.62" length="middle" direction="out"/>
<pin name="3V" x="7.62" y="27.94" length="middle" direction="pwr" rot="R270"/>
<pin name="1.8VRF" x="-12.7" y="27.94" length="middle" direction="pwr" rot="R270"/>
<pin name="TPI" x="22.86" y="5.08" length="middle" direction="in" rot="R180"/>
<pin name="TPQ" x="22.86" y="7.62" length="middle" direction="in" rot="R180"/>
</symbol>
<symbol name="NS73M">
<wire x1="-12.7" y1="10.16" x2="12.7" y2="10.16" width="0.254" layer="94"/>
<wire x1="12.7" y1="10.16" x2="12.7" y2="-12.7" width="0.254" layer="94"/>
<wire x1="12.7" y1="-12.7" x2="-12.7" y2="-12.7" width="0.254" layer="94"/>
<wire x1="-12.7" y1="-12.7" x2="-12.7" y2="10.16" width="0.254" layer="94"/>
<text x="-12.7" y="10.922" size="1.778" layer="95">&gt;NAME</text>
<text x="-12.7" y="-15.24" size="1.778" layer="96">&gt;VALUE</text>
<pin name="RFO" x="17.78" y="-7.62" length="middle" rot="R180"/>
<pin name="GND@14" x="17.78" y="-5.08" length="middle" rot="R180"/>
<pin name="RIN" x="17.78" y="-2.54" length="middle" rot="R180"/>
<pin name="LIN" x="17.78" y="0" length="middle" rot="R180"/>
<pin name="GND@11" x="17.78" y="2.54" length="middle" rot="R180"/>
<pin name="X1" x="17.78" y="5.08" length="middle" rot="R180"/>
<pin name="VCC" x="17.78" y="7.62" length="middle" rot="R180"/>
<pin name="GND@1" x="-17.78" y="-10.16" length="middle"/>
<pin name="VDRF" x="-17.78" y="-7.62" length="middle"/>
<pin name="TEB" x="-17.78" y="-5.08" length="middle"/>
<pin name="PWE" x="-17.78" y="-2.54" length="middle"/>
<pin name="CK" x="-17.78" y="0" length="middle"/>
<pin name="DA" x="-17.78" y="2.54" length="middle"/>
<pin name="LA" x="-17.78" y="5.08" length="middle"/>
<pin name="IIC" x="-17.78" y="7.62" length="middle"/>
</symbol>
<symbol name="RFM22">
<wire x1="-10.16" y1="15.24" x2="-10.16" y2="-17.78" width="0.254" layer="94"/>
<wire x1="-10.16" y1="-17.78" x2="10.16" y2="-17.78" width="0.254" layer="94"/>
<wire x1="10.16" y1="-17.78" x2="10.16" y2="15.24" width="0.254" layer="94"/>
<wire x1="10.16" y1="15.24" x2="-10.16" y2="15.24" width="0.254" layer="94"/>
<text x="-10.16" y="16.002" size="1.778" layer="95">&gt;NAME</text>
<text x="-10.16" y="-20.32" size="1.778" layer="96">&gt;VALUE</text>
<pin name="ANT" x="12.7" y="12.7" length="short" rot="R180"/>
<pin name="GND@1" x="-12.7" y="-15.24" length="short" direction="pwr"/>
<pin name="GND@2" x="-12.7" y="-12.7" length="short" direction="pwr"/>
<pin name="GND@3" x="-12.7" y="-10.16" length="short" direction="pwr"/>
<pin name="GPIO0" x="12.7" y="-10.16" length="short" rot="R180"/>
<pin name="GPIO1" x="12.7" y="-12.7" length="short" rot="R180"/>
<pin name="GPIO2" x="12.7" y="-15.24" length="short" rot="R180"/>
<pin name="NIRQ" x="-12.7" y="7.62" length="short" direction="out"/>
<pin name="NSEL" x="-12.7" y="5.08" length="short" direction="in"/>
<pin name="RXANT" x="12.7" y="-2.54" length="short" direction="in" rot="R180"/>
<pin name="SCLK" x="-12.7" y="2.54" length="short" direction="in"/>
<pin name="SDI" x="-12.7" y="0" length="short" direction="in"/>
<pin name="SDN" x="-12.7" y="-7.62" length="short" direction="in"/>
<pin name="SDO" x="-12.7" y="-2.54" length="short" direction="out"/>
<pin name="TXANT" x="12.7" y="-5.08" length="short" direction="in" rot="R180"/>
<pin name="VCC" x="-12.7" y="12.7" length="short"/>
</symbol>
<symbol name="RFM69">
<pin name="RESET" x="-15.24" y="-10.16" length="middle" direction="in"/>
<pin name="DIO0" x="15.24" y="10.16" length="middle" rot="R180"/>
<pin name="DIO1" x="15.24" y="7.62" length="middle" rot="R180"/>
<pin name="DIO2" x="15.24" y="5.08" length="middle" rot="R180"/>
<pin name="DIO3" x="15.24" y="2.54" length="middle" rot="R180"/>
<pin name="DIO5" x="15.24" y="0" length="middle" rot="R180"/>
<pin name="3.3V" x="-15.24" y="10.16" length="middle" direction="pwr"/>
<pin name="GND@1" x="15.24" y="-10.16" length="middle" direction="pwr" rot="R180"/>
<pin name="ANT" x="15.24" y="-7.62" length="middle" direction="pas" rot="R180"/>
<pin name="GND@2" x="15.24" y="-5.08" length="middle" direction="pwr" rot="R180"/>
<pin name="SCK" x="-15.24" y="0" length="middle" direction="in"/>
<pin name="MISO" x="-15.24" y="5.08" length="middle"/>
<pin name="MOSI" x="-15.24" y="2.54" length="middle" direction="in"/>
<pin name="NSS" x="-15.24" y="-2.54" length="middle" direction="in"/>
<wire x1="-10.16" y1="12.7" x2="-10.16" y2="-12.7" width="0.254" layer="94"/>
<wire x1="-10.16" y1="-12.7" x2="10.16" y2="-12.7" width="0.254" layer="94"/>
<wire x1="10.16" y1="-12.7" x2="10.16" y2="12.7" width="0.254" layer="94"/>
<wire x1="10.16" y1="12.7" x2="-10.16" y2="12.7" width="0.254" layer="94"/>
<text x="-10.16" y="13.97" size="1.778" layer="95" ratio="12">&gt;NAME</text>
<text x="-10.16" y="-15.875" size="1.778" layer="96" ratio="12">&gt;VALUE</text>
</symbol>
<symbol name="RFM69H">
<pin name="RESET" x="-15.24" y="-10.16" length="middle" direction="in"/>
<pin name="DIO0" x="15.24" y="12.7" length="middle" rot="R180"/>
<pin name="DIO1" x="15.24" y="10.16" length="middle" rot="R180"/>
<pin name="DIO2" x="15.24" y="7.62" length="middle" rot="R180"/>
<pin name="DIO3" x="15.24" y="5.08" length="middle" rot="R180"/>
<pin name="DIO4" x="15.24" y="2.54" length="middle" rot="R180"/>
<pin name="DIO5" x="15.24" y="0" length="middle" rot="R180"/>
<pin name="3.3V" x="-15.24" y="12.7" length="middle" direction="pwr"/>
<pin name="GND@1" x="15.24" y="-10.16" length="middle" direction="pwr" rot="R180"/>
<pin name="ANT" x="15.24" y="-7.62" length="middle" direction="pas" rot="R180"/>
<pin name="GND@2" x="15.24" y="-5.08" length="middle" direction="pwr" rot="R180"/>
<pin name="SCK" x="-15.24" y="0" length="middle" direction="in"/>
<pin name="MISO" x="-15.24" y="5.08" length="middle"/>
<pin name="MOSI" x="-15.24" y="2.54" length="middle" direction="in"/>
<pin name="NSS" x="-15.24" y="-2.54" length="middle" direction="in"/>
<wire x1="-10.16" y1="15.24" x2="-10.16" y2="-12.7" width="0.254" layer="94"/>
<wire x1="-10.16" y1="-12.7" x2="10.16" y2="-12.7" width="0.254" layer="94"/>
<wire x1="10.16" y1="-12.7" x2="10.16" y2="15.24" width="0.254" layer="94"/>
<wire x1="10.16" y1="15.24" x2="-10.16" y2="15.24" width="0.254" layer="94"/>
<text x="-10.16" y="16.51" size="1.778" layer="95" ratio="12">&gt;NAME</text>
<text x="-10.16" y="-15.875" size="1.778" layer="96" ratio="12">&gt;VALUE</text>
</symbol>
<symbol name="WI07-3">
<wire x1="-15.24" y1="10.16" x2="15.24" y2="10.16" width="0.254" layer="94"/>
<wire x1="15.24" y1="10.16" x2="15.24" y2="-10.16" width="0.254" layer="94"/>
<wire x1="15.24" y1="-10.16" x2="-15.24" y2="-10.16" width="0.254" layer="94"/>
<wire x1="-15.24" y1="-10.16" x2="-15.24" y2="10.16" width="0.254" layer="94"/>
<pin name="VCC" x="-17.78" y="7.62" length="short" direction="pwr"/>
<pin name="GPIO14" x="-17.78" y="5.08" length="short"/>
<pin name="GPIO12" x="-17.78" y="2.54" length="short"/>
<pin name="GPIO13" x="-17.78" y="0" length="short"/>
<pin name="GPIO15" x="-17.78" y="-2.54" length="short"/>
<pin name="GPIO2" x="-17.78" y="-5.08" length="short"/>
<pin name="GPIO0" x="-17.78" y="-7.62" length="short"/>
<pin name="ANT" x="17.78" y="7.62" length="short" direction="pas" rot="R180"/>
<pin name="CH-PD" x="17.78" y="5.08" length="short" direction="in" rot="R180"/>
<pin name="GPIO16" x="17.78" y="2.54" length="short" rot="R180"/>
<pin name="UART-RXD" x="17.78" y="0" length="short" direction="in" rot="R180"/>
<pin name="UART-TXD" x="17.78" y="-2.54" length="short" direction="out" rot="R180"/>
<pin name="NC" x="17.78" y="-5.08" length="short" direction="nc" rot="R180"/>
<pin name="GND" x="17.78" y="-7.62" length="short" direction="pwr" rot="R180"/>
<text x="-15.24" y="11.43" size="1.4224" layer="95">&gt;NAME</text>
<text x="-15.24" y="-12.7" size="1.4224" layer="96">&gt;VALUE</text>
</symbol>
<symbol name="FM1310">
<pin name="ANT" x="-17.78" y="10.16" length="short" direction="pas"/>
<pin name="GND" x="-17.78" y="5.08" length="short" direction="pwr"/>
<pin name="SEEK-DOWN" x="-17.78" y="0" length="short" direction="in"/>
<pin name="SEEK-UP" x="-17.78" y="-5.08" length="short" direction="in"/>
<pin name="VOL-DOWN" x="-17.78" y="-10.16" length="short" direction="in"/>
<pin name="L-OUT" x="17.78" y="10.16" length="short" direction="out" rot="R180"/>
<pin name="R-OUT" x="17.78" y="5.08" length="short" direction="out" rot="R180"/>
<pin name="VCC" x="17.78" y="0" length="short" direction="pwr" rot="R180"/>
<pin name="ON" x="17.78" y="-5.08" length="short" direction="in" rot="R180"/>
<pin name="VOL-UP" x="17.78" y="-10.16" length="short" direction="in" rot="R180"/>
<wire x1="-15.24" y1="12.7" x2="-15.24" y2="-12.7" width="0.254" layer="94"/>
<wire x1="-15.24" y1="-12.7" x2="15.24" y2="-12.7" width="0.254" layer="94"/>
<wire x1="15.24" y1="-12.7" x2="15.24" y2="12.7" width="0.254" layer="94"/>
<wire x1="15.24" y1="12.7" x2="-15.24" y2="12.7" width="0.254" layer="94"/>
<text x="-15.24" y="13.97" size="1.27" layer="95">&gt;NAME</text>
<text x="-15.24" y="-15.24" size="1.27" layer="96">&gt;VALUE</text>
</symbol>
<symbol name="QUECTEL-L7X">
<pin name="GND@1" x="-17.78" y="10.16" length="short" direction="pwr"/>
<pin name="RF-IN" x="-17.78" y="7.62" length="short" direction="pas"/>
<pin name="GND@2" x="-17.78" y="5.08" length="short" direction="pwr"/>
<pin name="ANT-ON" x="-17.78" y="2.54" length="short" direction="out"/>
<pin name="VCC-RF" x="-17.78" y="0" length="short" direction="pwr"/>
<pin name="NC@1" x="-17.78" y="-2.54" length="short" direction="nc"/>
<pin name="RES@0" x="-17.78" y="-5.08" length="short" direction="nc"/>
<pin name="RES@1" x="-17.78" y="-7.62" length="short" direction="nc"/>
<pin name="TIMER" x="-17.78" y="-10.16" length="short"/>
<pin name="RESET" x="17.78" y="10.16" length="short" direction="in" rot="R180"/>
<pin name="VCC" x="17.78" y="7.62" length="short" direction="pwr" rot="R180"/>
<pin name="NC" x="17.78" y="5.08" length="short" direction="nc" rot="R180"/>
<pin name="V-BCKP" x="17.78" y="2.54" length="short" direction="pwr" rot="R180"/>
<pin name="STBY" x="17.78" y="0" length="short" direction="in" rot="R180"/>
<pin name="1PPS" x="17.78" y="-2.54" length="short" direction="out" rot="R180"/>
<pin name="RXD1" x="17.78" y="-5.08" length="short" direction="in" rot="R180"/>
<pin name="TXD1" x="17.78" y="-7.62" length="short" direction="out" rot="R180"/>
<pin name="GND@0" x="17.78" y="-10.16" length="short" direction="pwr" rot="R180"/>
<wire x1="-15.24" y1="12.7" x2="-15.24" y2="-12.7" width="0.254" layer="94"/>
<wire x1="-15.24" y1="-12.7" x2="15.24" y2="-12.7" width="0.254" layer="94"/>
<wire x1="15.24" y1="-12.7" x2="15.24" y2="12.7" width="0.254" layer="94"/>
<wire x1="15.24" y1="12.7" x2="-15.24" y2="12.7" width="0.254" layer="94"/>
<text x="-15.24" y="13.97" size="1.27" layer="95">&gt;NAME</text>
<text x="-15.24" y="-15.24" size="1.27" layer="96">&gt;VALUE</text>
</symbol>
<symbol name="UBLOX-M7X">
<pin name="GND@1" x="-17.78" y="10.16" length="short" direction="pwr"/>
<pin name="RF-IN" x="-17.78" y="7.62" length="short" direction="pas"/>
<pin name="GND@2" x="-17.78" y="5.08" length="short" direction="pwr"/>
<pin name="ANT-ON" x="-17.78" y="2.54" length="short" direction="out"/>
<pin name="VCC-RF" x="-17.78" y="0" length="short" direction="pwr"/>
<pin name="RES@0" x="-17.78" y="-2.54" length="short" direction="nc"/>
<pin name="SDA" x="-17.78" y="-5.08" length="short"/>
<pin name="SCL" x="-17.78" y="-7.62" length="short" direction="in"/>
<pin name="RES@1" x="-17.78" y="-10.16" length="short" direction="nc"/>
<pin name="RESET" x="17.78" y="10.16" length="short" direction="in" rot="R180"/>
<pin name="VCC" x="17.78" y="7.62" length="short" direction="pwr" rot="R180"/>
<pin name="VCC-IO" x="17.78" y="5.08" length="short" direction="pwr" rot="R180"/>
<pin name="V-BCKP" x="17.78" y="2.54" length="short" direction="pwr" rot="R180"/>
<pin name="EXT-INT" x="17.78" y="0" length="short" direction="in" rot="R180"/>
<pin name="1PPS" x="17.78" y="-2.54" length="short" direction="out" rot="R180"/>
<pin name="RXD" x="17.78" y="-5.08" length="short" direction="in" rot="R180"/>
<pin name="TXD" x="17.78" y="-7.62" length="short" direction="out" rot="R180"/>
<pin name="GND@0" x="17.78" y="-10.16" length="short" direction="pwr" rot="R180"/>
<wire x1="-15.24" y1="12.7" x2="-15.24" y2="-12.7" width="0.254" layer="94"/>
<wire x1="-15.24" y1="-12.7" x2="15.24" y2="-12.7" width="0.254" layer="94"/>
<wire x1="15.24" y1="-12.7" x2="15.24" y2="12.7" width="0.254" layer="94"/>
<wire x1="15.24" y1="12.7" x2="-15.24" y2="12.7" width="0.254" layer="94"/>
<text x="-15.24" y="13.97" size="1.27" layer="95">&gt;NAME</text>
<text x="-15.24" y="-15.24" size="1.27" layer="96">&gt;VALUE</text>
</symbol>
<symbol name="WIFI-ESP-11">
<pin name="3V3" x="15.24" y="-7.62" length="middle" rot="R180"/>
<pin name="GPIO1" x="15.24" y="-5.08" length="middle" rot="R180"/>
<pin name="GPIO0" x="15.24" y="-2.54" length="middle" rot="R180"/>
<pin name="TXD" x="15.24" y="0" length="middle" rot="R180"/>
<pin name="RXD" x="15.24" y="2.54" length="middle" rot="R180"/>
<pin name="RST" x="15.24" y="5.08" length="middle" rot="R180"/>
<pin name="CH-EN" x="15.24" y="7.62" length="middle" rot="R180"/>
<pin name="GND" x="15.24" y="10.16" length="middle" rot="R180"/>
<wire x1="10.16" y1="12.7" x2="10.16" y2="-10.16" width="0.254" layer="94"/>
<wire x1="10.16" y1="-10.16" x2="-10.16" y2="-10.16" width="0.254" layer="94"/>
<wire x1="-10.16" y1="-10.16" x2="-10.16" y2="12.7" width="0.254" layer="94"/>
<wire x1="-10.16" y1="12.7" x2="10.16" y2="12.7" width="0.254" layer="94"/>
<wire x1="-10.16" y1="-10.16" x2="-15.24" y2="-10.16" width="0.254" layer="94"/>
<wire x1="-15.24" y1="-10.16" x2="-15.24" y2="12.7" width="0.254" layer="94"/>
<wire x1="-15.24" y1="12.7" x2="-10.16" y2="12.7" width="0.254" layer="94"/>
<text x="-15.24" y="15.24" size="1.27" layer="95">&gt;NAME</text>
</symbol>
<symbol name="RFM-2.4G">
<pin name="3V3" x="15.24" y="-7.62" length="middle" rot="R180"/>
<pin name="GND" x="15.24" y="-5.08" length="middle" rot="R180"/>
<pin name="CE" x="15.24" y="-2.54" length="middle" rot="R180"/>
<pin name="CSN" x="15.24" y="0" length="middle" rot="R180"/>
<pin name="SCK" x="15.24" y="2.54" length="middle" rot="R180"/>
<pin name="MOSI" x="15.24" y="5.08" length="middle" rot="R180"/>
<pin name="MISO" x="15.24" y="7.62" length="middle" rot="R180"/>
<pin name="IRQ" x="15.24" y="10.16" length="middle" rot="R180"/>
<wire x1="10.16" y1="12.7" x2="10.16" y2="-10.16" width="0.254" layer="94"/>
<wire x1="10.16" y1="-10.16" x2="-10.16" y2="-10.16" width="0.254" layer="94"/>
<wire x1="-10.16" y1="-10.16" x2="-10.16" y2="12.7" width="0.254" layer="94"/>
<wire x1="-10.16" y1="12.7" x2="10.16" y2="12.7" width="0.254" layer="94"/>
<wire x1="-10.16" y1="-10.16" x2="-15.24" y2="-10.16" width="0.254" layer="94"/>
<wire x1="-15.24" y1="-10.16" x2="-15.24" y2="12.7" width="0.254" layer="94"/>
<wire x1="-15.24" y1="12.7" x2="-10.16" y2="12.7" width="0.254" layer="94"/>
<text x="-15.24" y="15.24" size="1.27" layer="95">&gt;NAME</text>
</symbol>
<symbol name="MDRF-A">
<pin name="GND@0" x="-15.24" y="10.16" length="short" direction="pwr"/>
<pin name="VCC" x="-15.24" y="7.62" length="short" direction="pwr"/>
<pin name="IRQ" x="-15.24" y="5.08" length="short" direction="out"/>
<pin name="CS" x="-15.24" y="2.54" length="short" direction="in"/>
<pin name="SCK" x="-15.24" y="0" length="short" direction="in"/>
<pin name="MOSI" x="-15.24" y="-2.54" length="short" direction="in"/>
<pin name="MISO" x="-15.24" y="-5.08" length="short" direction="out"/>
<pin name="CE" x="-15.24" y="-7.62" length="short" direction="in"/>
<pin name="NC@0" x="-15.24" y="-10.16" length="short" direction="nc"/>
<pin name="GND@1" x="15.24" y="-10.16" length="short" direction="pwr" rot="R180"/>
<pin name="NC@1" x="15.24" y="-7.62" length="short" direction="pwr" rot="R180"/>
<pin name="GND@2" x="15.24" y="-5.08" length="short" direction="pwr" rot="R180"/>
<pin name="NC@2" x="15.24" y="-2.54" length="short" direction="pwr" rot="R180"/>
<pin name="NC@3" x="15.24" y="0" length="short" direction="pwr" rot="R180"/>
<pin name="NC@4" x="15.24" y="2.54" length="short" direction="pwr" rot="R180"/>
<pin name="GND@3" x="15.24" y="5.08" length="short" direction="pwr" rot="R180"/>
<pin name="ANT" x="15.24" y="7.62" length="short" direction="pas" rot="R180"/>
<pin name="GND@4" x="15.24" y="10.16" length="short" direction="pwr" rot="R180"/>
<wire x1="-12.7" y1="12.7" x2="12.7" y2="12.7" width="0.254" layer="94"/>
<wire x1="12.7" y1="12.7" x2="12.7" y2="-12.7" width="0.254" layer="94"/>
<wire x1="12.7" y1="-12.7" x2="-12.7" y2="-12.7" width="0.254" layer="94"/>
<wire x1="-12.7" y1="-12.7" x2="-12.7" y2="12.7" width="0.254" layer="94"/>
<text x="-12.7" y="15.24" size="1.9304" layer="95" ratio="12">&gt;NAME</text>
<text x="-12.7" y="-15.24" size="1.9304" layer="97" ratio="12">nRF24L01</text>
</symbol>
<symbol name="MDRF-B">
<pin name="GND@0" x="-15.24" y="10.16" length="short" direction="pwr"/>
<pin name="VCC" x="-15.24" y="7.62" length="short" direction="pwr"/>
<pin name="IRQ" x="-15.24" y="5.08" length="short" direction="out"/>
<pin name="CS" x="-15.24" y="2.54" length="short" direction="in"/>
<pin name="SCK" x="-15.24" y="0" length="short" direction="in"/>
<pin name="MOSI" x="-15.24" y="-2.54" length="short" direction="in"/>
<pin name="MISO" x="-15.24" y="-5.08" length="short" direction="out"/>
<pin name="MODE" x="-15.24" y="-7.62" length="short" direction="in"/>
<pin name="RST" x="-15.24" y="-10.16" length="short" direction="in"/>
<pin name="GND@1" x="15.24" y="-10.16" length="short" direction="pwr" rot="R180"/>
<pin name="NC@0" x="15.24" y="-7.62" length="short" direction="pwr" rot="R180"/>
<pin name="GND@2" x="15.24" y="-5.08" length="short" direction="pwr" rot="R180"/>
<pin name="NC@1" x="15.24" y="-2.54" length="short" direction="pwr" rot="R180"/>
<pin name="NC@2" x="15.24" y="0" length="short" direction="pwr" rot="R180"/>
<pin name="NC@3" x="15.24" y="2.54" length="short" direction="pwr" rot="R180"/>
<pin name="GND@3" x="15.24" y="5.08" length="short" direction="pwr" rot="R180"/>
<pin name="ANT" x="15.24" y="7.62" length="short" direction="pas" rot="R180"/>
<pin name="GND@4" x="15.24" y="10.16" length="short" direction="pwr" rot="R180"/>
<wire x1="-12.7" y1="12.7" x2="12.7" y2="12.7" width="0.254" layer="94"/>
<wire x1="12.7" y1="12.7" x2="12.7" y2="-12.7" width="0.254" layer="94"/>
<wire x1="12.7" y1="-12.7" x2="-12.7" y2="-12.7" width="0.254" layer="94"/>
<wire x1="-12.7" y1="-12.7" x2="-12.7" y2="12.7" width="0.254" layer="94"/>
<text x="-12.7" y="15.24" size="1.9304" layer="95" ratio="12">&gt;NAME</text>
<text x="-12.7" y="-15.24" size="1.9304" layer="97" ratio="12">CYRF9935</text>
</symbol>
</symbols>
<devicesets>
<deviceset name="WIFI-CC3000">
<description>TI CC3000 WiFi Module</description>
<gates>
<gate name="G$1" symbol="CC3000" x="0" y="0"/>
</gates>
<devices>
<device name="" package="QFN46-CC3000">
<connects>
<connect gate="G$1" pin="EXT_32K" pad="P$21"/>
<connect gate="G$1" pin="GND@1" pad="P$1"/>
<connect gate="G$1" pin="GND@10" pad="P$10"/>
<connect gate="G$1" pin="GND@11" pad="P$11"/>
<connect gate="G$1" pin="GND@16" pad="P$16"/>
<connect gate="G$1" pin="GND@18" pad="P$18"/>
<connect gate="G$1" pin="GND@20" pad="P$20"/>
<connect gate="G$1" pin="GND@22" pad="P$22"/>
<connect gate="G$1" pin="GND@25" pad="P$25"/>
<connect gate="G$1" pin="GND@31" pad="P$31"/>
<connect gate="G$1" pin="GND@32" pad="P$32"/>
<connect gate="G$1" pin="GND@33" pad="P$33"/>
<connect gate="G$1" pin="GND@34" pad="P$34"/>
<connect gate="G$1" pin="GND@36" pad="P$36"/>
<connect gate="G$1" pin="GND@37" pad="GND@37"/>
<connect gate="G$1" pin="GND@38" pad="GND@38"/>
<connect gate="G$1" pin="GND@39" pad="GND@39"/>
<connect gate="G$1" pin="GND@40" pad="GND@40"/>
<connect gate="G$1" pin="GND@41" pad="GND@41"/>
<connect gate="G$1" pin="GND@42" pad="GND@42"/>
<connect gate="G$1" pin="GND@43" pad="GND@43"/>
<connect gate="G$1" pin="GND@44" pad="GND@44"/>
<connect gate="G$1" pin="GND@45" pad="GND@45"/>
<connect gate="G$1" pin="GND@46" pad="GND@46"/>
<connect gate="G$1" pin="GND@9" pad="P$9"/>
<connect gate="G$1" pin="NC" pad="P$3"/>
<connect gate="G$1" pin="RESERVED_1" pad="P$2"/>
<connect gate="G$1" pin="RESERVED_2" pad="P$4"/>
<connect gate="G$1" pin="RESERVED_3" pad="P$24"/>
<connect gate="G$1" pin="RF_ANT" pad="P$35"/>
<connect gate="G$1" pin="SCL_CC3000" pad="P$30"/>
<connect gate="G$1" pin="SCL_EEPROM" pad="P$29"/>
<connect gate="G$1" pin="SDA_CC3000" pad="P$28"/>
<connect gate="G$1" pin="SDA_EEPROM" pad="P$27"/>
<connect gate="G$1" pin="SPI_CLK" pad="P$17"/>
<connect gate="G$1" pin="SPI_CS" pad="P$12"/>
<connect gate="G$1" pin="SPI_DIN" pad="P$15"/>
<connect gate="G$1" pin="SPI_DOUT" pad="P$13"/>
<connect gate="G$1" pin="SPI_IRQ" pad="P$14"/>
<connect gate="G$1" pin="VBAT_IN" pad="P$19"/>
<connect gate="G$1" pin="VBAT_SW_EN" pad="P$26"/>
<connect gate="G$1" pin="VIO_HOST" pad="P$23"/>
<connect gate="G$1" pin="WL_EN1" pad="P$7"/>
<connect gate="G$1" pin="WL_EN2" pad="P$5"/>
<connect gate="G$1" pin="WL_RS232_RX" pad="P$8"/>
<connect gate="G$1" pin="WL_RS232_TX" pad="P$6"/>
</connects>
<technologies>
<technology name=""/>
</technologies>
</device>
</devices>
</deviceset>
<deviceset name="GPS-GR-10">
<description>&lt;b&gt;GR-10 GPS Receiver Module&lt;/b&gt;
Proto layout and schematic for GR-10 GPS receiver. Spark Fun Electronics SKU : GPS-08291</description>
<gates>
<gate name="G$1" symbol="GR-10" x="0" y="0"/>
</gates>
<devices>
<device name="SMD" package="GR-10">
<connects>
<connect gate="G$1" pin="1.8V@10" pad="10"/>
<connect gate="G$1" pin="1.8V@21" pad="21"/>
<connect gate="G$1" pin="1.8V@3" pad="3"/>
<connect gate="G$1" pin="1.8VIF" pad="26"/>
<connect gate="G$1" pin="1.8VLNA" pad="28"/>
<connect gate="G$1" pin="1.8VRF" pad="34"/>
<connect gate="G$1" pin="1.8VVCO" pad="25"/>
<connect gate="G$1" pin="1PPS" pad="9"/>
<connect gate="G$1" pin="3V" pad="33"/>
<connect gate="G$1" pin="ANT" pad="30"/>
<connect gate="G$1" pin="APIO_A4" pad="16"/>
<connect gate="G$1" pin="FREF" pad="1"/>
<connect gate="G$1" pin="GND@11" pad="11"/>
<connect gate="G$1" pin="GND@2" pad="2"/>
<connect gate="G$1" pin="GND@24" pad="24"/>
<connect gate="G$1" pin="GND@27" pad="27"/>
<connect gate="G$1" pin="GND@29" pad="29"/>
<connect gate="G$1" pin="GND@31" pad="31"/>
<connect gate="G$1" pin="GPIO_A11" pad="12"/>
<connect gate="G$1" pin="GPIO_A5" pad="13"/>
<connect gate="G$1" pin="GPIO_A6" pad="14"/>
<connect gate="G$1" pin="GPIO_A9" pad="15"/>
<connect gate="G$1" pin="GPIO_B16" pad="22"/>
<connect gate="G$1" pin="GPIO_B19" pad="19"/>
<connect gate="G$1" pin="RESET" pad="23"/>
<connect gate="G$1" pin="RFEN" pad="32"/>
<connect gate="G$1" pin="RTC_XIN" pad="17"/>
<connect gate="G$1" pin="RTC_XOUT" pad="18"/>
<connect gate="G$1" pin="RX0" pad="7"/>
<connect gate="G$1" pin="RX1" pad="5"/>
<connect gate="G$1" pin="SB" pad="4"/>
<connect gate="G$1" pin="TPI" pad="35"/>
<connect gate="G$1" pin="TPQ" pad="36"/>
<connect gate="G$1" pin="TX0" pad="8"/>
<connect gate="G$1" pin="TX1" pad="6"/>
<connect gate="G$1" pin="VALID_FIX" pad="20"/>
</connects>
<technologies>
<technology name=""/>
</technologies>
</device>
</devices>
</deviceset>
<deviceset name="FM-NS73M" prefix="U">
<description>&lt;b&gt;FM Transmitter&lt;/b&gt;
2mW transmitter NS73M. Easy SPI interface. Digital tuning. SKU: WRL-08452</description>
<gates>
<gate name="G$1" symbol="NS73M" x="0" y="0"/>
</gates>
<devices>
<device name="SMD" package="NS73M">
<connects>
<connect gate="G$1" pin="CK" pad="5"/>
<connect gate="G$1" pin="DA" pad="6"/>
<connect gate="G$1" pin="GND@1" pad="1"/>
<connect gate="G$1" pin="GND@11" pad="11"/>
<connect gate="G$1" pin="GND@14" pad="14"/>
<connect gate="G$1" pin="IIC" pad="8"/>
<connect gate="G$1" pin="LA" pad="7"/>
<connect gate="G$1" pin="LIN" pad="12"/>
<connect gate="G$1" pin="PWE" pad="4"/>
<connect gate="G$1" pin="RFO" pad="15"/>
<connect gate="G$1" pin="RIN" pad="13"/>
<connect gate="G$1" pin="TEB" pad="3"/>
<connect gate="G$1" pin="VCC" pad="9"/>
<connect gate="G$1" pin="VDRF" pad="2"/>
<connect gate="G$1" pin="X1" pad="10"/>
</connects>
<technologies>
<technology name=""/>
</technologies>
</device>
</devices>
</deviceset>
<deviceset name="RFM22">
<description>The RFM22 is a low-power, low cost radio that is capable of operating in the 434MHz and 900MHz open bands. It's frequency is software defined and there are some very good libraries written for it.</description>
<gates>
<gate name="G$1" symbol="RFM22" x="0" y="0"/>
</gates>
<devices>
<device name="SMD" package="RFM22-S2">
<connects>
<connect gate="G$1" pin="ANT" pad="1"/>
<connect gate="G$1" pin="GND@1" pad="2"/>
<connect gate="G$1" pin="GND@2" pad="9"/>
<connect gate="G$1" pin="GND@3" pad="16"/>
<connect gate="G$1" pin="GPIO0" pad="6"/>
<connect gate="G$1" pin="GPIO1" pad="7"/>
<connect gate="G$1" pin="GPIO2" pad="8"/>
<connect gate="G$1" pin="NIRQ" pad="14"/>
<connect gate="G$1" pin="NSEL" pad="13"/>
<connect gate="G$1" pin="RXANT" pad="3"/>
<connect gate="G$1" pin="SCLK" pad="12"/>
<connect gate="G$1" pin="SDI" pad="11"/>
<connect gate="G$1" pin="SDN" pad="15"/>
<connect gate="G$1" pin="SDO" pad="10"/>
<connect gate="G$1" pin="TXANT" pad="4"/>
<connect gate="G$1" pin="VCC" pad="5"/>
</connects>
<technologies>
<technology name=""/>
</technologies>
</device>
</devices>
</deviceset>
<deviceset name="RFM69" prefix="U">
<gates>
<gate name="G$1" symbol="RFM69" x="0" y="0"/>
</gates>
<devices>
<device name="CW" package="RFM69CW-S2">
<connects>
<connect gate="G$1" pin="3.3V" pad="2"/>
<connect gate="G$1" pin="ANT" pad="1"/>
<connect gate="G$1" pin="DIO0" pad="9"/>
<connect gate="G$1" pin="DIO1" pad="11"/>
<connect gate="G$1" pin="DIO2" pad="10"/>
<connect gate="G$1" pin="DIO3" pad="4"/>
<connect gate="G$1" pin="DIO5" pad="12"/>
<connect gate="G$1" pin="GND@1" pad="3"/>
<connect gate="G$1" pin="GND@2" pad="14"/>
<connect gate="G$1" pin="MISO" pad="8"/>
<connect gate="G$1" pin="MOSI" pad="5"/>
<connect gate="G$1" pin="NSS" pad="7"/>
<connect gate="G$1" pin="RESET" pad="13"/>
<connect gate="G$1" pin="SCK" pad="6"/>
</connects>
<technologies>
<technology name=""/>
</technologies>
</device>
</devices>
</deviceset>
<deviceset name="RFM69H" prefix="U">
<gates>
<gate name="G$1" symbol="RFM69H" x="0" y="-2.54"/>
</gates>
<devices>
<device name="CW" package="RFM69HCW-S2">
<connects>
<connect gate="G$1" pin="3.3V" pad="13"/>
<connect gate="G$1" pin="ANT" pad="9"/>
<connect gate="G$1" pin="DIO0" pad="14"/>
<connect gate="G$1" pin="DIO1" pad="15"/>
<connect gate="G$1" pin="DIO2" pad="16"/>
<connect gate="G$1" pin="DIO3" pad="11"/>
<connect gate="G$1" pin="DIO4" pad="12"/>
<connect gate="G$1" pin="DIO5" pad="7"/>
<connect gate="G$1" pin="GND@1" pad="1"/>
<connect gate="G$1" pin="GND@2" pad="8 10"/>
<connect gate="G$1" pin="MISO" pad="2"/>
<connect gate="G$1" pin="MOSI" pad="3"/>
<connect gate="G$1" pin="NSS" pad="5"/>
<connect gate="G$1" pin="RESET" pad="6"/>
<connect gate="G$1" pin="SCK" pad="4"/>
</connects>
<technologies>
<technology name=""/>
</technologies>
</device>
<device name="W" package="RFM69W-S2">
<connects>
<connect gate="G$1" pin="3.3V" pad="8"/>
<connect gate="G$1" pin="ANT" pad="10"/>
<connect gate="G$1" pin="DIO0" pad="2"/>
<connect gate="G$1" pin="DIO1" pad="3"/>
<connect gate="G$1" pin="DIO2" pad="4"/>
<connect gate="G$1" pin="DIO3" pad="5"/>
<connect gate="G$1" pin="DIO4" pad="6"/>
<connect gate="G$1" pin="DIO5" pad="7"/>
<connect gate="G$1" pin="GND@1" pad="9"/>
<connect gate="G$1" pin="GND@2" pad="11"/>
<connect gate="G$1" pin="MISO" pad="13"/>
<connect gate="G$1" pin="MOSI" pad="14"/>
<connect gate="G$1" pin="NSS" pad="15"/>
<connect gate="G$1" pin="RESET" pad="1"/>
<connect gate="G$1" pin="SCK" pad="12"/>
</connects>
<technologies>
<technology name=""/>
</technologies>
</device>
</devices>
</deviceset>
<deviceset name="WIFI-ESP8266" prefix="WIFI">
<gates>
<gate name="G$1" symbol="WI07-3" x="0" y="0"/>
</gates>
<devices>
<device name="-WI07-3" package="WI07-3">
<connects>
<connect gate="G$1" pin="ANT" pad="7"/>
<connect gate="G$1" pin="CH-PD" pad="6"/>
<connect gate="G$1" pin="GND" pad="1"/>
<connect gate="G$1" pin="GPIO0" pad="14"/>
<connect gate="G$1" pin="GPIO12" pad="10"/>
<connect gate="G$1" pin="GPIO13" pad="11"/>
<connect gate="G$1" pin="GPIO14" pad="9"/>
<connect gate="G$1" pin="GPIO15" pad="12"/>
<connect gate="G$1" pin="GPIO16" pad="5"/>
<connect gate="G$1" pin="GPIO2" pad="13"/>
<connect gate="G$1" pin="NC" pad="2"/>
<connect gate="G$1" pin="UART-RXD" pad="4"/>
<connect gate="G$1" pin="UART-TXD" pad="3"/>
<connect gate="G$1" pin="VCC" pad="8"/>
</connects>
<technologies>
<technology name=""/>
</technologies>
</device>
</devices>
</deviceset>
<deviceset name="FM-AR1310" prefix="U">
<gates>
<gate name="G$1" symbol="FM1310" x="0" y="0"/>
</gates>
<devices>
<device name="" package="FM1310">
<connects>
<connect gate="G$1" pin="ANT" pad="1"/>
<connect gate="G$1" pin="GND" pad="2"/>
<connect gate="G$1" pin="L-OUT" pad="10"/>
<connect gate="G$1" pin="ON" pad="7"/>
<connect gate="G$1" pin="R-OUT" pad="9"/>
<connect gate="G$1" pin="SEEK-DOWN" pad="3"/>
<connect gate="G$1" pin="SEEK-UP" pad="4"/>
<connect gate="G$1" pin="VCC" pad="8"/>
<connect gate="G$1" pin="VOL-DOWN" pad="5"/>
<connect gate="G$1" pin="VOL-UP" pad="6"/>
</connects>
<technologies>
<technology name=""/>
</technologies>
</device>
</devices>
</deviceset>
<deviceset name="GPS-QL7X" prefix="GPS">
<gates>
<gate name="G$1" symbol="QUECTEL-L7X" x="0" y="0"/>
</gates>
<devices>
<device name="" package="GPS-XX7X">
<connects>
<connect gate="G$1" pin="1PPS" pad="4"/>
<connect gate="G$1" pin="ANT-ON" pad="13"/>
<connect gate="G$1" pin="GND@0" pad="1"/>
<connect gate="G$1" pin="GND@1" pad="10"/>
<connect gate="G$1" pin="GND@2" pad="12"/>
<connect gate="G$1" pin="NC" pad="7"/>
<connect gate="G$1" pin="NC@1" pad="15"/>
<connect gate="G$1" pin="RES@0" pad="16"/>
<connect gate="G$1" pin="RES@1" pad="17"/>
<connect gate="G$1" pin="RESET" pad="9"/>
<connect gate="G$1" pin="RF-IN" pad="11"/>
<connect gate="G$1" pin="RXD1" pad="3"/>
<connect gate="G$1" pin="STBY" pad="5"/>
<connect gate="G$1" pin="TIMER" pad="18"/>
<connect gate="G$1" pin="TXD1" pad="2"/>
<connect gate="G$1" pin="V-BCKP" pad="6"/>
<connect gate="G$1" pin="VCC" pad="8"/>
<connect gate="G$1" pin="VCC-RF" pad="14"/>
</connects>
<technologies>
<technology name=""/>
</technologies>
</device>
</devices>
</deviceset>
<deviceset name="GPS-UM7X">
<gates>
<gate name="G$1" symbol="UBLOX-M7X" x="0" y="0"/>
</gates>
<devices>
<device name="" package="GPS-XX7X">
<connects>
<connect gate="G$1" pin="1PPS" pad="4"/>
<connect gate="G$1" pin="ANT-ON" pad="13"/>
<connect gate="G$1" pin="EXT-INT" pad="5"/>
<connect gate="G$1" pin="GND@0" pad="1"/>
<connect gate="G$1" pin="GND@1" pad="10"/>
<connect gate="G$1" pin="GND@2" pad="12"/>
<connect gate="G$1" pin="RES@0" pad="15"/>
<connect gate="G$1" pin="RES@1" pad="18"/>
<connect gate="G$1" pin="RESET" pad="9"/>
<connect gate="G$1" pin="RF-IN" pad="11"/>
<connect gate="G$1" pin="RXD" pad="3"/>
<connect gate="G$1" pin="SCL" pad="17"/>
<connect gate="G$1" pin="SDA" pad="16"/>
<connect gate="G$1" pin="TXD" pad="2"/>
<connect gate="G$1" pin="V-BCKP" pad="6"/>
<connect gate="G$1" pin="VCC" pad="8"/>
<connect gate="G$1" pin="VCC-IO" pad="7"/>
<connect gate="G$1" pin="VCC-RF" pad="14"/>
</connects>
<technologies>
<technology name=""/>
</technologies>
</device>
</devices>
</deviceset>
<deviceset name="RFM-2.4G" prefix="RF">
<gates>
<gate name="G$1" symbol="RFM-2.4G" x="0" y="0"/>
</gates>
<devices>
<device name="" package="RFM-2.4G">
<connects>
<connect gate="G$1" pin="3V3" pad="1"/>
<connect gate="G$1" pin="CE" pad="3"/>
<connect gate="G$1" pin="CSN" pad="4"/>
<connect gate="G$1" pin="GND" pad="2"/>
<connect gate="G$1" pin="IRQ" pad="8"/>
<connect gate="G$1" pin="MISO" pad="7"/>
<connect gate="G$1" pin="MOSI" pad="6"/>
<connect gate="G$1" pin="SCK" pad="5"/>
</connects>
<technologies>
<technology name=""/>
</technologies>
</device>
</devices>
</deviceset>
<deviceset name="WIFI-ESP-11" prefix="WIFI">
<gates>
<gate name="G$1" symbol="WIFI-ESP-11" x="0" y="0"/>
</gates>
<devices>
<device name="" package="WIFI-ESP-11">
<connects>
<connect gate="G$1" pin="3V3" pad="1"/>
<connect gate="G$1" pin="CH-EN" pad="7"/>
<connect gate="G$1" pin="GND" pad="8"/>
<connect gate="G$1" pin="GPIO0" pad="3"/>
<connect gate="G$1" pin="GPIO1" pad="2"/>
<connect gate="G$1" pin="RST" pad="6"/>
<connect gate="G$1" pin="RXD" pad="5"/>
<connect gate="G$1" pin="TXD" pad="4"/>
</connects>
<technologies>
<technology name=""/>
</technologies>
</device>
</devices>
</deviceset>
<deviceset name="MD-NRF24L01" prefix="MD">
<gates>
<gate name="G$1" symbol="MDRF-A" x="0" y="0"/>
</gates>
<devices>
<device name="" package="MDRF1">
<connects>
<connect gate="G$1" pin="ANT" pad="17"/>
<connect gate="G$1" pin="CE" pad="8"/>
<connect gate="G$1" pin="CS" pad="4"/>
<connect gate="G$1" pin="GND@0" pad="1"/>
<connect gate="G$1" pin="GND@1" pad="10"/>
<connect gate="G$1" pin="GND@2" pad="12"/>
<connect gate="G$1" pin="GND@3" pad="16"/>
<connect gate="G$1" pin="GND@4" pad="18"/>
<connect gate="G$1" pin="IRQ" pad="3"/>
<connect gate="G$1" pin="MISO" pad="7"/>
<connect gate="G$1" pin="MOSI" pad="6"/>
<connect gate="G$1" pin="NC@0" pad="9"/>
<connect gate="G$1" pin="NC@1" pad="11"/>
<connect gate="G$1" pin="NC@2" pad="13"/>
<connect gate="G$1" pin="NC@3" pad="14"/>
<connect gate="G$1" pin="NC@4" pad="15"/>
<connect gate="G$1" pin="SCK" pad="5"/>
<connect gate="G$1" pin="VCC" pad="2"/>
</connects>
<technologies>
<technology name=""/>
</technologies>
</device>
<device name="PA" package="MDRF2">
<connects>
<connect gate="G$1" pin="ANT" pad="17"/>
<connect gate="G$1" pin="CE" pad="8"/>
<connect gate="G$1" pin="CS" pad="4"/>
<connect gate="G$1" pin="GND@0" pad="1"/>
<connect gate="G$1" pin="GND@1" pad="10"/>
<connect gate="G$1" pin="GND@2" pad="12"/>
<connect gate="G$1" pin="GND@3" pad="16"/>
<connect gate="G$1" pin="GND@4" pad="18"/>
<connect gate="G$1" pin="IRQ" pad="3"/>
<connect gate="G$1" pin="MISO" pad="7"/>
<connect gate="G$1" pin="MOSI" pad="6"/>
<connect gate="G$1" pin="NC@0" pad="9"/>
<connect gate="G$1" pin="NC@1" pad="11"/>
<connect gate="G$1" pin="NC@2" pad="13"/>
<connect gate="G$1" pin="NC@3" pad="14"/>
<connect gate="G$1" pin="NC@4" pad="15"/>
<connect gate="G$1" pin="SCK" pad="5"/>
<connect gate="G$1" pin="VCC" pad="2"/>
</connects>
<technologies>
<technology name=""/>
</technologies>
</device>
</devices>
</deviceset>
<deviceset name="MD-CYRF9935" prefix="MD">
<gates>
<gate name="G$1" symbol="MDRF-B" x="0" y="0"/>
</gates>
<devices>
<device name="" package="MDRF1">
<connects>
<connect gate="G$1" pin="ANT" pad="17"/>
<connect gate="G$1" pin="CS" pad="4"/>
<connect gate="G$1" pin="GND@0" pad="1"/>
<connect gate="G$1" pin="GND@1" pad="10"/>
<connect gate="G$1" pin="GND@2" pad="12"/>
<connect gate="G$1" pin="GND@3" pad="16"/>
<connect gate="G$1" pin="GND@4" pad="18"/>
<connect gate="G$1" pin="IRQ" pad="3"/>
<connect gate="G$1" pin="MISO" pad="7"/>
<connect gate="G$1" pin="MODE" pad="8"/>
<connect gate="G$1" pin="MOSI" pad="6"/>
<connect gate="G$1" pin="NC@0" pad="11"/>
<connect gate="G$1" pin="NC@1" pad="13"/>
<connect gate="G$1" pin="NC@2" pad="14"/>
<connect gate="G$1" pin="NC@3" pad="15"/>
<connect gate="G$1" pin="RST" pad="9"/>
<connect gate="G$1" pin="SCK" pad="5"/>
<connect gate="G$1" pin="VCC" pad="2"/>
</connects>
<technologies>
<technology name=""/>
</technologies>
</device>
<device name="PA" package="MDRF2">
<connects>
<connect gate="G$1" pin="ANT" pad="17"/>
<connect gate="G$1" pin="CS" pad="4"/>
<connect gate="G$1" pin="GND@0" pad="1"/>
<connect gate="G$1" pin="GND@1" pad="10"/>
<connect gate="G$1" pin="GND@2" pad="12"/>
<connect gate="G$1" pin="GND@3" pad="16"/>
<connect gate="G$1" pin="GND@4" pad="18"/>
<connect gate="G$1" pin="IRQ" pad="3"/>
<connect gate="G$1" pin="MISO" pad="7"/>
<connect gate="G$1" pin="MODE" pad="8"/>
<connect gate="G$1" pin="MOSI" pad="6"/>
<connect gate="G$1" pin="NC@0" pad="11"/>
<connect gate="G$1" pin="NC@1" pad="13"/>
<connect gate="G$1" pin="NC@2" pad="14"/>
<connect gate="G$1" pin="NC@3" pad="15"/>
<connect gate="G$1" pin="RST" pad="9"/>
<connect gate="G$1" pin="SCK" pad="5"/>
<connect gate="G$1" pin="VCC" pad="2"/>
</connects>
<technologies>
<technology name=""/>
</technologies>
</device>
</devices>
</deviceset>
</devicesets>
</library>
</drawing>
</eagle>
