<?xml version="1.0" encoding="utf-8"?>
<!DOCTYPE eagle SYSTEM "eagle.dtd">
<eagle version="7.1.0">
<drawing>
<settings>
<setting alwaysvectorfont="no"/>
<setting verticaltext="up"/>
</settings>
<grid distance="0.1" unitdist="inch" unit="inch" style="lines" multiple="1" display="no" altdistance="0.01" altunitdist="inch" altunit="inch"/>
<layers>
<layer number="1" name="Top" color="4" fill="1" visible="yes" active="yes"/>
<layer number="16" name="Bottom" color="1" fill="1" visible="yes" active="yes"/>
<layer number="17" name="Pads" color="2" fill="1" visible="yes" active="yes"/>
<layer number="18" name="Vias" color="2" fill="1" visible="yes" active="yes"/>
<layer number="19" name="Unrouted" color="6" fill="1" visible="yes" active="yes"/>
<layer number="20" name="Dimension" color="15" fill="1" visible="yes" active="yes"/>
<layer number="21" name="tPlace" color="7" fill="1" visible="yes" active="yes"/>
<layer number="22" name="bPlace" color="7" fill="1" visible="yes" active="yes"/>
<layer number="23" name="tOrigins" color="15" fill="1" visible="yes" active="yes"/>
<layer number="24" name="bOrigins" color="15" fill="1" visible="yes" active="yes"/>
<layer number="25" name="tNames" color="7" fill="1" visible="yes" active="yes"/>
<layer number="26" name="bNames" color="7" fill="1" visible="yes" active="yes"/>
<layer number="27" name="tValues" color="7" fill="1" visible="yes" active="yes"/>
<layer number="28" name="bValues" color="7" fill="1" visible="yes" active="yes"/>
<layer number="29" name="tStop" color="7" fill="3" visible="no" active="yes"/>
<layer number="30" name="bStop" color="7" fill="6" visible="no" active="yes"/>
<layer number="31" name="tCream" color="7" fill="4" visible="no" active="yes"/>
<layer number="32" name="bCream" color="7" fill="5" visible="no" active="yes"/>
<layer number="33" name="tFinish" color="6" fill="3" visible="no" active="yes"/>
<layer number="34" name="bFinish" color="6" fill="6" visible="no" active="yes"/>
<layer number="35" name="tGlue" color="7" fill="4" visible="no" active="yes"/>
<layer number="36" name="bGlue" color="7" fill="5" visible="no" active="yes"/>
<layer number="37" name="tTest" color="7" fill="1" visible="no" active="yes"/>
<layer number="38" name="bTest" color="7" fill="1" visible="no" active="yes"/>
<layer number="39" name="tKeepout" color="4" fill="11" visible="yes" active="yes"/>
<layer number="40" name="bKeepout" color="1" fill="11" visible="yes" active="yes"/>
<layer number="41" name="tRestrict" color="4" fill="10" visible="yes" active="yes"/>
<layer number="42" name="bRestrict" color="1" fill="10" visible="yes" active="yes"/>
<layer number="43" name="vRestrict" color="2" fill="10" visible="yes" active="yes"/>
<layer number="44" name="Drills" color="7" fill="1" visible="no" active="yes"/>
<layer number="45" name="Holes" color="7" fill="1" visible="no" active="yes"/>
<layer number="46" name="Milling" color="3" fill="1" visible="no" active="yes"/>
<layer number="47" name="Measures" color="7" fill="1" visible="no" active="yes"/>
<layer number="48" name="Document" color="7" fill="1" visible="yes" active="yes"/>
<layer number="49" name="Reference" color="7" fill="1" visible="yes" active="yes"/>
<layer number="50" name="dxf" color="7" fill="1" visible="no" active="no"/>
<layer number="51" name="tDocu" color="7" fill="1" visible="yes" active="yes"/>
<layer number="52" name="bDocu" color="7" fill="1" visible="yes" active="yes"/>
<layer number="53" name="tGND_GNDA" color="7" fill="9" visible="no" active="no"/>
<layer number="54" name="bGND_GNDA" color="1" fill="9" visible="no" active="no"/>
<layer number="56" name="wert" color="7" fill="1" visible="no" active="no"/>
<layer number="57" name="tCAD" color="7" fill="1" visible="no" active="no"/>
<layer number="90" name="Modules" color="5" fill="1" visible="yes" active="yes"/>
<layer number="91" name="Nets" color="2" fill="1" visible="yes" active="yes"/>
<layer number="92" name="Busses" color="1" fill="1" visible="yes" active="yes"/>
<layer number="93" name="Pins" color="2" fill="1" visible="yes" active="yes"/>
<layer number="94" name="Symbols" color="4" fill="1" visible="yes" active="yes"/>
<layer number="95" name="Names" color="7" fill="1" visible="yes" active="yes"/>
<layer number="96" name="Values" color="7" fill="1" visible="yes" active="yes"/>
<layer number="97" name="Info" color="7" fill="1" visible="yes" active="yes"/>
<layer number="98" name="Guide" color="6" fill="1" visible="yes" active="yes"/>
<layer number="99" name="SpiceOrder" color="7" fill="1" visible="no" active="no"/>
<layer number="100" name="Muster" color="7" fill="1" visible="no" active="no"/>
<layer number="101" name="Patch_Top" color="12" fill="4" visible="yes" active="yes"/>
<layer number="102" name="Vscore" color="7" fill="1" visible="yes" active="yes"/>
<layer number="103" name="fp3" color="7" fill="1" visible="no" active="yes"/>
<layer number="104" name="Name" color="7" fill="1" visible="yes" active="yes"/>
<layer number="105" name="Beschreib" color="9" fill="1" visible="yes" active="yes"/>
<layer number="106" name="BGA-Top" color="4" fill="1" visible="yes" active="yes"/>
<layer number="107" name="BD-Top" color="5" fill="1" visible="yes" active="yes"/>
<layer number="108" name="fp8" color="7" fill="1" visible="no" active="yes"/>
<layer number="109" name="fp9" color="7" fill="1" visible="no" active="yes"/>
<layer number="110" name="fp0" color="7" fill="1" visible="no" active="yes"/>
<layer number="111" name="LPC17xx" color="7" fill="1" visible="yes" active="yes"/>
<layer number="112" name="tSilk" color="7" fill="1" visible="yes" active="yes"/>
<layer number="113" name="IDFDebug" color="4" fill="1" visible="yes" active="yes"/>
<layer number="116" name="Patch_BOT" color="9" fill="4" visible="yes" active="yes"/>
<layer number="121" name="_tsilk" color="7" fill="1" visible="yes" active="yes"/>
<layer number="122" name="_bsilk" color="7" fill="1" visible="yes" active="yes"/>
<layer number="123" name="tTestmark" color="7" fill="1" visible="no" active="yes"/>
<layer number="124" name="bTestmark" color="7" fill="1" visible="no" active="yes"/>
<layer number="125" name="_tNames" color="7" fill="1" visible="yes" active="yes"/>
<layer number="126" name="_bNames" color="7" fill="1" visible="yes" active="yes"/>
<layer number="127" name="_tValues" color="7" fill="1" visible="yes" active="yes"/>
<layer number="128" name="_bValues" color="7" fill="1" visible="yes" active="yes"/>
<layer number="131" name="tAdjust" color="7" fill="1" visible="no" active="yes"/>
<layer number="132" name="bAdjust" color="7" fill="1" visible="no" active="yes"/>
<layer number="144" name="Drill_legend" color="7" fill="1" visible="yes" active="yes"/>
<layer number="150" name="Notes" color="7" fill="1" visible="no" active="yes"/>
<layer number="151" name="HeatSink" color="7" fill="1" visible="yes" active="yes"/>
<layer number="152" name="_bDocu" color="7" fill="1" visible="yes" active="yes"/>
<layer number="153" name="FabDoc1" color="6" fill="1" visible="no" active="no"/>
<layer number="154" name="FabDoc2" color="2" fill="1" visible="no" active="no"/>
<layer number="155" name="FabDoc3" color="7" fill="15" visible="no" active="no"/>
<layer number="199" name="Contour" color="7" fill="1" visible="yes" active="yes"/>
<layer number="200" name="200bmp" color="1" fill="10" visible="yes" active="yes"/>
<layer number="201" name="201bmp" color="2" fill="1" visible="no" active="no"/>
<layer number="202" name="202bmp" color="3" fill="1" visible="no" active="no"/>
<layer number="203" name="203bmp" color="4" fill="10" visible="yes" active="yes"/>
<layer number="204" name="204bmp" color="5" fill="10" visible="yes" active="yes"/>
<layer number="205" name="205bmp" color="6" fill="10" visible="yes" active="yes"/>
<layer number="206" name="206bmp" color="7" fill="10" visible="yes" active="yes"/>
<layer number="207" name="207bmp" color="8" fill="10" visible="yes" active="yes"/>
<layer number="208" name="208bmp" color="9" fill="10" visible="yes" active="yes"/>
<layer number="209" name="209bmp" color="7" fill="1" visible="no" active="yes"/>
<layer number="210" name="210bmp" color="7" fill="1" visible="no" active="yes"/>
<layer number="211" name="211bmp" color="7" fill="1" visible="yes" active="yes"/>
<layer number="212" name="212bmp" color="7" fill="1" visible="yes" active="yes"/>
<layer number="213" name="213bmp" color="7" fill="1" visible="yes" active="yes"/>
<layer number="214" name="214bmp" color="7" fill="1" visible="yes" active="yes"/>
<layer number="215" name="215bmp" color="7" fill="1" visible="yes" active="yes"/>
<layer number="216" name="216bmp" color="7" fill="1" visible="yes" active="yes"/>
<layer number="217" name="217bmp" color="18" fill="1" visible="no" active="no"/>
<layer number="218" name="218bmp" color="19" fill="1" visible="no" active="no"/>
<layer number="219" name="219bmp" color="20" fill="1" visible="no" active="no"/>
<layer number="220" name="220bmp" color="21" fill="1" visible="no" active="no"/>
<layer number="221" name="221bmp" color="22" fill="1" visible="no" active="no"/>
<layer number="222" name="222bmp" color="23" fill="1" visible="no" active="no"/>
<layer number="223" name="223bmp" color="24" fill="1" visible="no" active="no"/>
<layer number="224" name="224bmp" color="25" fill="1" visible="no" active="no"/>
<layer number="248" name="Housing" color="7" fill="1" visible="yes" active="yes"/>
<layer number="249" name="Edge" color="7" fill="1" visible="yes" active="yes"/>
<layer number="250" name="Descript" color="7" fill="1" visible="no" active="no"/>
<layer number="251" name="SMDround" color="7" fill="1" visible="no" active="no"/>
<layer number="254" name="cooling" color="7" fill="1" visible="yes" active="yes"/>
</layers>
<library>
<packages>
<package name="DFN-6">
<wire x1="1" y1="0.8" x2="1" y2="-0.8" width="0.127" layer="51"/>
<wire x1="1" y1="-0.8" x2="-1" y2="-0.8" width="0.127" layer="21"/>
<wire x1="-1" y1="-0.8" x2="-1" y2="0.8" width="0.127" layer="51"/>
<wire x1="-1" y1="0.8" x2="1" y2="0.8" width="0.127" layer="21"/>
<circle x="-1.6" y="0.5" radius="0.1" width="0.127" layer="21"/>
<smd name="1" x="-0.9875" y="0.5" dx="0.28" dy="0.7" layer="1" rot="R270"/>
<smd name="2" x="-0.9875" y="0" dx="0.28" dy="0.7" layer="1" rot="R270"/>
<smd name="3" x="-0.9875" y="-0.5" dx="0.28" dy="0.7" layer="1" rot="R270"/>
<smd name="4" x="0.9875" y="-0.5" dx="0.28" dy="0.7" layer="1" rot="R270"/>
<smd name="5" x="0.9875" y="0" dx="0.28" dy="0.7" layer="1" rot="R270"/>
<smd name="6" x="0.9875" y="0.5" dx="0.28" dy="0.7" layer="1" rot="R270"/>
<smd name="P$1" x="0" y="0" dx="1.1" dy="0.7" layer="1" rot="R270" cream="no"/>
<rectangle x1="-0.55" y1="0.1" x2="-0.3" y2="0.35" layer="31"/>
<rectangle x1="0.3" y1="0.1" x2="0.55" y2="0.35" layer="31" rot="R270"/>
<rectangle x1="0.3" y1="-0.35" x2="0.55" y2="-0.1" layer="31" rot="R180"/>
<rectangle x1="-0.55" y1="-0.35" x2="-0.3" y2="-0.1" layer="31" rot="R90"/>
<rectangle x1="-0.15" y1="-0.35" x2="0.15" y2="-0.1" layer="31" rot="R180"/>
<rectangle x1="-0.15" y1="0.1" x2="0.15" y2="0.35" layer="31"/>
<text x="-1.6" y="1.4" size="1.016" layer="25" font="vector" ratio="16">&gt;NAME</text>
<wire x1="-0.7" y1="0.8" x2="-0.7" y2="-0.8" width="0.1" layer="51"/>
<wire x1="1" y1="0.8" x2="-1" y2="0.8" width="0.127" layer="51"/>
<wire x1="1" y1="-0.8" x2="-1" y2="-0.8" width="0.127" layer="51"/>
</package>
<package name="QFN16-3X3MM">
<description>3mm x 3mm QFN 16 pin</description>
<smd name="5" x="-0.75" y="-1.475" dx="0.85" dy="0.28" layer="1" roundness="100" rot="R90" cream="no"/>
<smd name="6" x="-0.25" y="-1.475" dx="0.85" dy="0.28" layer="1" roundness="100" rot="R90" cream="no"/>
<smd name="7" x="0.25" y="-1.475" dx="0.85" dy="0.28" layer="1" roundness="100" rot="R90" cream="no"/>
<smd name="8" x="0.75" y="-1.475" dx="0.85" dy="0.28" layer="1" roundness="100" rot="R90" cream="no"/>
<smd name="9" x="1.475" y="-0.75" dx="0.85" dy="0.28" layer="1" roundness="100" rot="R180" cream="no"/>
<smd name="10" x="1.475" y="-0.25" dx="0.85" dy="0.28" layer="1" roundness="100" rot="R180" cream="no"/>
<smd name="11" x="1.475" y="0.25" dx="0.85" dy="0.28" layer="1" roundness="100" rot="R180" cream="no"/>
<smd name="12" x="1.475" y="0.75" dx="0.85" dy="0.28" layer="1" roundness="100" rot="R180" cream="no"/>
<smd name="13" x="0.75" y="1.475" dx="0.85" dy="0.28" layer="1" roundness="100" rot="R270" cream="no"/>
<smd name="14" x="0.25" y="1.475" dx="0.85" dy="0.28" layer="1" roundness="100" rot="R270" cream="no"/>
<smd name="15" x="-0.25" y="1.475" dx="0.85" dy="0.28" layer="1" roundness="100" rot="R270" cream="no"/>
<smd name="16" x="-0.75" y="1.475" dx="0.85" dy="0.28" layer="1" roundness="100" rot="R270" cream="no"/>
<smd name="1" x="-1.475" y="0.75" dx="0.85" dy="0.28" layer="1" roundness="100" cream="no"/>
<smd name="2" x="-1.475" y="0.25" dx="0.85" dy="0.28" layer="1" roundness="100" cream="no"/>
<smd name="3" x="-1.475" y="-0.25" dx="0.85" dy="0.28" layer="1" roundness="100" cream="no"/>
<smd name="4" x="-1.475" y="-0.75" dx="0.85" dy="0.28" layer="1" roundness="100" cream="no"/>
<text x="-1.54" y="2.159" size="1.016" layer="25" font="vector" ratio="16">&gt;NAME</text>
<wire x1="1.5" y1="1.5" x2="-1.5" y2="1.5" width="0.1524" layer="51"/>
<wire x1="-1.5" y1="1.5" x2="-1.5" y2="-1.5" width="0.1524" layer="51"/>
<wire x1="-1.5" y1="-1.5" x2="1.5" y2="-1.5" width="0.1524" layer="51"/>
<wire x1="1.5" y1="-1.5" x2="1.5" y2="1.5" width="0.1524" layer="51"/>
<wire x1="-1.6" y1="1.1" x2="-1.1" y2="1.6" width="0.2032" layer="21"/>
<wire x1="1.1" y1="1.6" x2="1.6" y2="1.6" width="0.2032" layer="21"/>
<wire x1="1.6" y1="1.6" x2="1.6" y2="1.1" width="0.2032" layer="21"/>
<wire x1="1.6" y1="-1.1" x2="1.6" y2="-1.6" width="0.2032" layer="21"/>
<wire x1="1.6" y1="-1.6" x2="1.1" y2="-1.6" width="0.2032" layer="21"/>
<wire x1="-1.1" y1="-1.6" x2="-1.6" y2="-1.6" width="0.2032" layer="21"/>
<wire x1="-1.6" y1="-1.6" x2="-1.6" y2="-1.1" width="0.2032" layer="21"/>
<smd name="EXT" x="0" y="0" dx="1.6" dy="1.6" layer="1" cream="no"/>
<rectangle x1="-0.6" y1="0.15" x2="-0.15" y2="0.6" layer="31"/>
<rectangle x1="0.15" y1="0.15" x2="0.6" y2="0.6" layer="31"/>
<rectangle x1="0.15" y1="-0.6" x2="0.6" y2="-0.15" layer="31"/>
<rectangle x1="-0.6" y1="-0.6" x2="-0.15" y2="-0.15" layer="31"/>
<wire x1="-1.8" y1="0.75" x2="-1.15" y2="0.75" width="0.2032" layer="31"/>
<wire x1="-1.8" y1="-0.25" x2="-1.15" y2="-0.25" width="0.2032" layer="31"/>
<wire x1="-0.75" y1="-1.8" x2="-0.75" y2="-1.15" width="0.2032" layer="31"/>
<wire x1="0.25" y1="-1.8" x2="0.25" y2="-1.15" width="0.2032" layer="31"/>
<wire x1="1.8" y1="-0.75" x2="1.15" y2="-0.75" width="0.2032" layer="31"/>
<wire x1="1.8" y1="0.25" x2="1.15" y2="0.25" width="0.2032" layer="31"/>
<wire x1="0.75" y1="1.8" x2="0.75" y2="1.15" width="0.2032" layer="31"/>
<wire x1="-0.25" y1="1.8" x2="-0.25" y2="1.15" width="0.2032" layer="31"/>
<wire x1="0.25" y1="1.8" x2="0.25" y2="1.15" width="0.2032" layer="31"/>
<wire x1="-0.75" y1="1.8" x2="-0.75" y2="1.15" width="0.2032" layer="31"/>
<wire x1="-1.8" y1="0.25" x2="-1.15" y2="0.25" width="0.2032" layer="31"/>
<wire x1="-1.8" y1="-0.75" x2="-1.15" y2="-0.75" width="0.2032" layer="31"/>
<wire x1="-0.25" y1="-1.8" x2="-0.25" y2="-1.15" width="0.2032" layer="31"/>
<wire x1="0.75" y1="-1.8" x2="0.75" y2="-1.15" width="0.2032" layer="31"/>
<wire x1="1.8" y1="-0.25" x2="1.15" y2="-0.25" width="0.2032" layer="31"/>
<wire x1="1.8" y1="0.75" x2="1.15" y2="0.75" width="0.2032" layer="31"/>
</package>
<package name="LGA-8">
<smd name="1" x="-1.25" y="1.9" dx="1.27" dy="0.7" layer="1"/>
<smd name="2" x="-1.25" y="0.65" dx="1.27" dy="0.7" layer="1"/>
<smd name="3" x="-1.25" y="-0.6" dx="1.27" dy="0.7" layer="1"/>
<smd name="4" x="-1.25" y="-1.85" dx="1.27" dy="0.7" layer="1"/>
<smd name="5" x="1.25" y="-1.85" dx="1.27" dy="0.7" layer="1"/>
<smd name="6" x="1.25" y="-0.6" dx="1.27" dy="0.7" layer="1"/>
<smd name="7" x="1.25" y="0.65" dx="1.27" dy="0.7" layer="1"/>
<smd name="8" x="1.25" y="1.9" dx="1.27" dy="0.7" layer="1"/>
<wire x1="-1.5" y1="2.4" x2="1.5" y2="2.4" width="0.127" layer="51"/>
<wire x1="1.5" y1="2.4" x2="1.5" y2="-2.4" width="0.127" layer="51"/>
<wire x1="1.5" y1="-2.4" x2="-1.5" y2="-2.4" width="0.127" layer="51"/>
<wire x1="-1.5" y1="-2.4" x2="-1.5" y2="2.4" width="0.127" layer="51"/>
<text x="-2.1" y="3.3" size="1.016" layer="25" font="vector" ratio="16">&gt;NAME</text>
<wire x1="-1.5" y1="2.5" x2="1.5" y2="2.5" width="0.2" layer="21"/>
<wire x1="-1.5" y1="-2.5" x2="1.5" y2="-2.5" width="0.2" layer="21"/>
<circle x="-2.3" y="1.9" radius="0.14141875" width="0.2" layer="21"/>
</package>
<package name="QFN10-2X2MM">
<smd name="1" x="-1.05" y="0.75" dx="1" dy="0.3" layer="1"/>
<smd name="3" x="-1.05" y="-0.25" dx="1" dy="0.3" layer="1"/>
<smd name="2" x="-1.05" y="0.25" dx="1" dy="0.3" layer="1"/>
<smd name="4" x="-1.05" y="-0.75" dx="1" dy="0.3" layer="1"/>
<smd name="9" x="1.05" y="0.75" dx="1" dy="0.3" layer="1"/>
<smd name="8" x="1.05" y="0.25" dx="1" dy="0.3" layer="1"/>
<smd name="7" x="1.05" y="-0.25" dx="1" dy="0.3" layer="1"/>
<smd name="6" x="1.05" y="-0.75" dx="1" dy="0.3" layer="1"/>
<smd name="5" x="0" y="-1.05" dx="1" dy="0.3" layer="1" rot="R90"/>
<smd name="10" x="0" y="1.05" dx="1" dy="0.3" layer="1" rot="R90"/>
<wire x1="-0.3" y1="1.2" x2="-1.2" y2="1.2" width="0.2" layer="21"/>
<wire x1="-1.2" y1="1.2" x2="-1.2" y2="1" width="0.2" layer="21"/>
<wire x1="0.3" y1="1.2" x2="1.2" y2="1.2" width="0.2" layer="21"/>
<wire x1="1.2" y1="1.2" x2="1.2" y2="1" width="0.2" layer="21"/>
<wire x1="-0.3" y1="-1.2" x2="-1.2" y2="-1.2" width="0.2" layer="21"/>
<wire x1="-1.2" y1="-1.2" x2="-1.2" y2="-1" width="0.2" layer="21"/>
<wire x1="0.3" y1="-1.2" x2="1.2" y2="-1.2" width="0.2" layer="21"/>
<wire x1="1.2" y1="-1.2" x2="1.2" y2="-1" width="0.2" layer="21"/>
<circle x="-2.1" y="0.75" radius="0.14141875" width="0.2" layer="21"/>
<text x="-2.1" y="2" size="1.016" layer="25" font="vector" ratio="16">&gt;NAME</text>
</package>
<package name="QFN24">
<smd name="1" x="-1.9" y="1.5" dx="1" dy="0.3" layer="1"/>
<smd name="2" x="-1.9" y="1" dx="1" dy="0.3" layer="1"/>
<smd name="3" x="-1.9" y="0.5" dx="1" dy="0.3" layer="1"/>
<smd name="4" x="-1.9" y="0" dx="1" dy="0.3" layer="1"/>
<smd name="5" x="-1.9" y="-0.5" dx="1" dy="0.3" layer="1"/>
<smd name="6" x="-1.9" y="-1" dx="1" dy="0.3" layer="1"/>
<smd name="7" x="-1.9" y="-1.5" dx="1" dy="0.3" layer="1"/>
<smd name="8" x="-1" y="-1.9" dx="1.1" dy="0.3" layer="1" rot="R90"/>
<smd name="9" x="-0.5" y="-1.9" dx="1.1" dy="0.3" layer="1" rot="R90"/>
<smd name="10" x="0" y="-1.9" dx="1.1" dy="0.3" layer="1" rot="R90"/>
<smd name="11" x="0.5" y="-1.9" dx="1.1" dy="0.3" layer="1" rot="R90"/>
<smd name="12" x="1" y="-1.9" dx="1.1" dy="0.3" layer="1" rot="R90"/>
<smd name="13" x="1.9" y="-1.5" dx="1" dy="0.3" layer="1"/>
<smd name="14" x="1.9" y="-1" dx="1" dy="0.3" layer="1"/>
<smd name="15" x="1.9" y="-0.5" dx="1" dy="0.3" layer="1"/>
<smd name="16" x="1.9" y="0" dx="1" dy="0.3" layer="1"/>
<smd name="17" x="1.9" y="0.5" dx="1" dy="0.3" layer="1"/>
<smd name="18" x="1.9" y="1" dx="1" dy="0.3" layer="1"/>
<smd name="19" x="1.9" y="1.5" dx="1" dy="0.3" layer="1"/>
<smd name="20" x="1" y="1.9" dx="1.1" dy="0.3" layer="1" rot="R90"/>
<smd name="21" x="0.5" y="1.9" dx="1.1" dy="0.3" layer="1" rot="R90"/>
<smd name="22" x="0" y="1.9" dx="1.1" dy="0.3" layer="1" rot="R90"/>
<smd name="23" x="-0.5" y="1.9" dx="1.1" dy="0.3" layer="1" rot="R90"/>
<smd name="24" x="-1" y="1.9" dx="1.1" dy="0.3" layer="1" rot="R90"/>
<wire x1="-1.3" y1="2.1" x2="-2.1" y2="2.1" width="0.2" layer="21"/>
<wire x1="-2.1" y1="2.1" x2="-2.1" y2="1.8" width="0.2" layer="21"/>
<wire x1="1.3" y1="2.1" x2="2.1" y2="2.1" width="0.2" layer="21"/>
<wire x1="2.1" y1="2.1" x2="2.1" y2="1.8" width="0.2" layer="21"/>
<wire x1="-2.1" y1="-1.8" x2="-2.1" y2="-2.1" width="0.2" layer="21"/>
<wire x1="-2.1" y1="-2.1" x2="-1.3" y2="-2.1" width="0.2" layer="21"/>
<wire x1="1.3" y1="-2.1" x2="2.1" y2="-2.1" width="0.2" layer="21"/>
<wire x1="2.1" y1="-2.1" x2="2.1" y2="-1.8" width="0.2" layer="21"/>
<circle x="-2.7" y="1.5" radius="0.1" width="0.127" layer="21"/>
<wire x1="-2" y1="2" x2="2" y2="2" width="0.127" layer="51"/>
<wire x1="2" y1="2" x2="2" y2="-2" width="0.127" layer="51"/>
<wire x1="2" y1="-2" x2="-2" y2="-2" width="0.127" layer="51"/>
<wire x1="-2" y1="-2" x2="-2" y2="2" width="0.127" layer="51"/>
<text x="-2" y="3.1" size="1.016" layer="25" font="vector" ratio="16">&gt;NAME</text>
</package>
<package name="QFN16-FX">
<smd name="1" x="-1.4" y="1" dx="1" dy="0.3" layer="1"/>
<smd name="2" x="-1.4" y="0.5" dx="1" dy="0.3" layer="1"/>
<smd name="3" x="-1.4" y="0" dx="1" dy="0.3" layer="1"/>
<smd name="4" x="-1.4" y="-0.5" dx="1" dy="0.3" layer="1"/>
<smd name="5" x="-1.4" y="-1" dx="1" dy="0.3" layer="1"/>
<smd name="6" x="-0.5" y="-1.4" dx="1" dy="0.3" layer="1" rot="R90"/>
<smd name="7" x="0" y="-1.4" dx="1" dy="0.3" layer="1" rot="R90"/>
<smd name="8" x="0.5" y="-1.4" dx="1" dy="0.3" layer="1" rot="R90"/>
<smd name="9" x="1.4" y="-1" dx="1" dy="0.3" layer="1" rot="R180"/>
<smd name="10" x="1.4" y="-0.5" dx="1" dy="0.3" layer="1" rot="R180"/>
<smd name="11" x="1.4" y="0" dx="1" dy="0.3" layer="1" rot="R180"/>
<smd name="12" x="1.4" y="0.5" dx="1" dy="0.3" layer="1" rot="R180"/>
<smd name="13" x="1.4" y="1" dx="1" dy="0.3" layer="1" rot="R180"/>
<smd name="14" x="0.5" y="1.4" dx="1" dy="0.3" layer="1" rot="R270"/>
<smd name="15" x="0" y="1.4" dx="1" dy="0.3" layer="1" rot="R270"/>
<smd name="16" x="-0.5" y="1.4" dx="1" dy="0.3" layer="1" rot="R270"/>
<wire x1="-0.8" y1="1.6" x2="-1.6" y2="1.6" width="0.2" layer="21"/>
<wire x1="-1.6" y1="1.6" x2="-1.6" y2="1.3" width="0.2" layer="21"/>
<wire x1="0.8" y1="1.6" x2="1.6" y2="1.6" width="0.2" layer="21"/>
<wire x1="1.6" y1="1.6" x2="1.6" y2="1.3" width="0.2" layer="21"/>
<wire x1="-0.8" y1="-1.6" x2="-1.6" y2="-1.6" width="0.2" layer="21"/>
<wire x1="-1.6" y1="-1.6" x2="-1.6" y2="-1.3" width="0.2" layer="21"/>
<wire x1="0.8" y1="-1.6" x2="1.6" y2="-1.6" width="0.2" layer="21"/>
<wire x1="1.6" y1="-1.6" x2="1.6" y2="-1.3" width="0.2" layer="21"/>
<circle x="-2.2" y="1" radius="0.1" width="0.15" layer="21"/>
<wire x1="-1.5" y1="1.5" x2="1.5" y2="1.5" width="0.127" layer="51"/>
<wire x1="1.5" y1="1.5" x2="1.5" y2="-1.5" width="0.127" layer="51"/>
<wire x1="1.5" y1="-1.5" x2="-1.5" y2="-1.5" width="0.127" layer="51"/>
<wire x1="-1.5" y1="-1.5" x2="-1.5" y2="1.5" width="0.127" layer="51"/>
<text x="-2.2" y="2.3" size="1.016" layer="51" font="vector" ratio="16">&gt;NAME</text>
</package>
<package name="DFN6_3X3">
<smd name="1" x="-1" y="-1.6" dx="1.2" dy="0.65" layer="1" rot="R90"/>
<smd name="2" x="0" y="-1.6" dx="1.2" dy="0.65" layer="1" rot="R90"/>
<smd name="3" x="1" y="-1.6" dx="1.2" dy="0.65" layer="1" rot="R90"/>
<smd name="4" x="1" y="1.6" dx="1.2" dy="0.65" layer="1" rot="R90"/>
<smd name="5" x="0" y="1.6" dx="1.2" dy="0.65" layer="1" rot="R90"/>
<smd name="6" x="-1" y="1.6" dx="1.2" dy="0.65" layer="1" rot="R90"/>
<wire x1="-1.5" y1="1.5" x2="-1.5" y2="-1.5" width="0.127" layer="21"/>
<wire x1="1.5" y1="1.5" x2="1.5" y2="-1.5" width="0.127" layer="21"/>
<wire x1="-1.5" y1="1.5" x2="1.5" y2="1.5" width="0.127" layer="51"/>
<wire x1="1.5" y1="1.5" x2="1.5" y2="-1.5" width="0.127" layer="51"/>
<wire x1="1.5" y1="-1.5" x2="-1.5" y2="-1.5" width="0.127" layer="51"/>
<wire x1="-1.5" y1="-1.5" x2="-1.5" y2="1.5" width="0.127" layer="51"/>
<smd name="SH" x="0" y="0" dx="2.4" dy="1.5" layer="1"/>
<wire x1="-1.5" y1="1.5" x2="-1.6" y2="1.5" width="0.127" layer="21"/>
<wire x1="-1.6" y1="1.5" x2="-1.6" y2="-1.5" width="0.127" layer="21"/>
<wire x1="-1.6" y1="-1.5" x2="-1.5" y2="-1.5" width="0.127" layer="21"/>
</package>
</packages>
<symbols>
<symbol name="SI1132">
<pin name="SDA" x="-12.7" y="2.54" length="short"/>
<pin name="SCL" x="-12.7" y="0" length="short"/>
<pin name="VDD@0" x="12.7" y="-5.08" length="short" direction="pwr" rot="R180"/>
<pin name="INT" x="-12.7" y="-2.54" length="short" direction="out"/>
<pin name="VDD@1" x="12.7" y="-2.54" length="short" direction="pwr" rot="R180"/>
<pin name="VDD@2" x="12.7" y="0" length="short" direction="pwr" rot="R180"/>
<pin name="GND" x="-12.7" y="-5.08" length="short" direction="pwr"/>
<pin name="VDD@3" x="12.7" y="2.54" length="short" direction="pwr" rot="R180"/>
<wire x1="-10.16" y1="5.08" x2="-10.16" y2="-7.62" width="0.254" layer="94"/>
<wire x1="-10.16" y1="-7.62" x2="10.16" y2="-7.62" width="0.254" layer="94"/>
<wire x1="10.16" y1="-7.62" x2="10.16" y2="5.08" width="0.254" layer="94"/>
<wire x1="10.16" y1="5.08" x2="-10.16" y2="5.08" width="0.254" layer="94"/>
<text x="-10.16" y="7.62" size="1.778" layer="95">&gt;NAME</text>
<text x="-10.16" y="-12.7" size="1.778" layer="96">&gt;VALUE</text>
</symbol>
<symbol name="SHT2X">
<pin name="SDA" x="-12.7" y="5.08" length="short"/>
<pin name="VSS" x="-12.7" y="0" length="short" direction="pwr"/>
<pin name="NC@0" x="-12.7" y="-5.08" length="short" direction="nc"/>
<pin name="SCL" x="12.7" y="5.08" length="short" rot="R180"/>
<pin name="VDD" x="12.7" y="0" length="short" direction="pwr" rot="R180"/>
<pin name="NC@1" x="12.7" y="-5.08" length="short" direction="nc" rot="R180"/>
<wire x1="-10.16" y1="7.62" x2="-10.16" y2="-7.62" width="0.254" layer="94"/>
<wire x1="-10.16" y1="-7.62" x2="10.16" y2="-7.62" width="0.254" layer="94"/>
<wire x1="10.16" y1="-7.62" x2="10.16" y2="7.62" width="0.254" layer="94"/>
<wire x1="10.16" y1="7.62" x2="-10.16" y2="7.62" width="0.254" layer="94"/>
<text x="-10.16" y="10.16" size="1.778" layer="95">&gt;NAME</text>
<text x="-10.16" y="-12.7" size="1.778" layer="96">&gt;VALUE</text>
</symbol>
<symbol name="MPL3115">
<pin name="VDD" x="-10.16" y="5.08" length="short" direction="pwr"/>
<pin name="CAP" x="-10.16" y="2.54" length="short" direction="pwr"/>
<pin name="GND" x="-10.16" y="-2.54" length="short" direction="pwr"/>
<pin name="VIO" x="-10.16" y="-5.08" length="short" direction="in"/>
<pin name="INT2" x="10.16" y="-5.08" length="short" direction="out" rot="R180"/>
<pin name="INT1" x="10.16" y="-2.54" length="short" direction="out" rot="R180"/>
<pin name="SDA" x="10.16" y="2.54" length="short" rot="R180"/>
<pin name="SCL" x="10.16" y="5.08" length="short" rot="R180"/>
<wire x1="-7.62" y1="7.62" x2="-7.62" y2="-7.62" width="0.254" layer="94"/>
<wire x1="-7.62" y1="-7.62" x2="7.62" y2="-7.62" width="0.254" layer="94"/>
<wire x1="7.62" y1="-7.62" x2="7.62" y2="7.62" width="0.254" layer="94"/>
<wire x1="7.62" y1="7.62" x2="-7.62" y2="7.62" width="0.254" layer="94"/>
<text x="-7.62" y="10.16" size="1.778" layer="95">&gt;NAME</text>
<text x="-7.62" y="-12.7" size="1.778" layer="96">&gt;VALUE</text>
</symbol>
<symbol name="PCAL6408">
<pin name="!RESET" x="-12.7" y="0" length="short" direction="in"/>
<pin name="P0" x="12.7" y="7.62" length="short" rot="R180"/>
<pin name="P1" x="12.7" y="5.08" length="short" rot="R180"/>
<pin name="P2" x="12.7" y="2.54" length="short" rot="R180"/>
<pin name="P3" x="12.7" y="0" length="short" rot="R180"/>
<pin name="P4" x="12.7" y="-2.54" length="short" rot="R180"/>
<pin name="P5" x="12.7" y="-5.08" length="short" rot="R180"/>
<pin name="P6" x="12.7" y="-7.62" length="short" rot="R180"/>
<pin name="P7" x="12.7" y="-10.16" length="short" rot="R180"/>
<pin name="!INT" x="-12.7" y="-2.54" length="short" direction="out"/>
<pin name="SCL" x="-12.7" y="-7.62" length="short"/>
<pin name="SDA" x="-12.7" y="-5.08" length="short"/>
<pin name="ADDR" x="-12.7" y="2.54" length="short" direction="in"/>
<pin name="VDD0" x="-12.7" y="7.62" length="short" direction="pwr"/>
<pin name="VDD1" x="-12.7" y="5.08" length="short" direction="pwr"/>
<pin name="VSS" x="-12.7" y="-10.16" length="short" direction="pwr"/>
<wire x1="-10.16" y1="10.16" x2="-10.16" y2="-12.7" width="0.254" layer="94"/>
<wire x1="-10.16" y1="-12.7" x2="10.16" y2="-12.7" width="0.254" layer="94"/>
<wire x1="10.16" y1="-12.7" x2="10.16" y2="10.16" width="0.254" layer="94"/>
<wire x1="10.16" y1="10.16" x2="-10.16" y2="10.16" width="0.254" layer="94"/>
<text x="-10.16" y="12.7" size="1.778" layer="95">&gt;NAME</text>
<text x="-10.16" y="-17.78" size="1.778" layer="96">&gt;VALUE</text>
</symbol>
<symbol name="FXAS21002">
<pin name="SDA" x="-12.7" y="7.62" length="short"/>
<pin name="SCL" x="-12.7" y="5.08" length="short"/>
<pin name="RST" x="-12.7" y="2.54" length="short" direction="in"/>
<pin name="INT1" x="-12.7" y="0" length="short" direction="out"/>
<pin name="INT2" x="-12.7" y="-2.54" length="short" direction="out"/>
<pin name="I2C/SPI" x="12.7" y="-5.08" length="short" direction="in" rot="R180"/>
<pin name="VIO" x="12.7" y="7.62" length="short" direction="pwr" rot="R180"/>
<pin name="SPI-CS" x="12.7" y="5.08" length="short" rot="R180"/>
<pin name="VREG" x="12.7" y="0" length="short" direction="pwr" rot="R180"/>
<pin name="VDD" x="12.7" y="2.54" length="short" direction="pwr" rot="R180"/>
<pin name="SA0" x="12.7" y="-2.54" length="short" direction="in" rot="R180"/>
<pin name="GND" x="-12.7" y="-5.08" length="short" direction="pwr"/>
<wire x1="-10.16" y1="10.16" x2="-10.16" y2="-7.62" width="0.254" layer="94"/>
<wire x1="-10.16" y1="-7.62" x2="10.16" y2="-7.62" width="0.254" layer="94"/>
<wire x1="10.16" y1="-7.62" x2="10.16" y2="10.16" width="0.254" layer="94"/>
<wire x1="10.16" y1="10.16" x2="-10.16" y2="10.16" width="0.254" layer="94"/>
<text x="-10.16" y="12.7" size="1.778" layer="95">&gt;NAME</text>
<text x="-10.16" y="-12.7" size="1.778" layer="96">&gt;VALUE</text>
</symbol>
<symbol name="FXOS8700">
<pin name="VDDIO" x="15.24" y="10.16" length="short" direction="pwr" rot="R180"/>
<pin name="BYP" x="15.24" y="2.54" length="short" direction="pas" rot="R180"/>
<pin name="RES@0" x="15.24" y="-5.08" length="short" direction="pas" rot="R180"/>
<pin name="SCL/SCLK" x="-15.24" y="5.08" length="short"/>
<pin name="GND@0" x="15.24" y="-7.62" length="short" direction="pwr" rot="R180"/>
<pin name="SDA/MOSI" x="-15.24" y="2.54" length="short"/>
<pin name="SA0/MISO" x="-15.24" y="-2.54" length="short"/>
<pin name="CRST" x="15.24" y="5.08" length="short" direction="pas" rot="R180"/>
<pin name="INT2" x="-15.24" y="10.16" length="short" direction="out"/>
<pin name="SA1/CS_B" x="-15.24" y="-5.08" length="short"/>
<pin name="INT1" x="-15.24" y="12.7" length="short" direction="out"/>
<pin name="GND@1" x="15.24" y="-10.16" length="short" direction="pwr" rot="R180"/>
<pin name="RES@1" x="15.24" y="-2.54" length="short" rot="R180"/>
<pin name="VDD" x="15.24" y="12.7" length="short" direction="pwr" rot="R180"/>
<pin name="RST" x="-15.24" y="-10.16" length="short" direction="in"/>
<wire x1="-12.7" y1="15.24" x2="-12.7" y2="-12.7" width="0.254" layer="94"/>
<wire x1="-12.7" y1="-12.7" x2="12.7" y2="-12.7" width="0.254" layer="94"/>
<wire x1="12.7" y1="-12.7" x2="12.7" y2="15.24" width="0.254" layer="94"/>
<wire x1="12.7" y1="15.24" x2="-12.7" y2="15.24" width="0.254" layer="94"/>
<text x="-12.7" y="17.78" size="1.778" layer="95">&gt;NAME</text>
<text x="-12.7" y="-17.78" size="1.778" layer="96">&gt;VALUE</text>
</symbol>
</symbols>
<devicesets>
<deviceset name="FXOS8700" prefix="U">
<gates>
<gate name="G$1" symbol="FXOS8700" x="0" y="0"/>
</gates>
<devices>
<device name="" package="QFN16-FX">
<connects>
<connect gate="G$1" pin="BYP" pad="2"/>
<connect gate="G$1" pin="CRST" pad="8"/>
<connect gate="G$1" pin="GND@0" pad="5"/>
<connect gate="G$1" pin="GND@1" pad="12"/>
<connect gate="G$1" pin="INT1" pad="11"/>
<connect gate="G$1" pin="INT2" pad="9"/>
<connect gate="G$1" pin="RES@0" pad="3"/>
<connect gate="G$1" pin="RES@1" pad="13"/>
<connect gate="G$1" pin="RST" pad="16"/>
<connect gate="G$1" pin="SA0/MISO" pad="7"/>
<connect gate="G$1" pin="SA1/CS_B" pad="10"/>
<connect gate="G$1" pin="SCL/SCLK" pad="4"/>
<connect gate="G$1" pin="SDA/MOSI" pad="6"/>
<connect gate="G$1" pin="VDD" pad="14"/>
<connect gate="G$1" pin="VDDIO" pad="1"/>
</connects>
<technologies>
<technology name=""/>
</technologies>
</device>
</devices>
</deviceset>
<deviceset name="FXAS21002" prefix="U">
<gates>
<gate name="G$1" symbol="FXAS21002" x="0" y="0"/>
</gates>
<devices>
<device name="" package="QFN24">
<connects>
<connect gate="G$1" pin="GND" pad="1 5 6 7 9 10 14 19 20 21 22 23 24"/>
<connect gate="G$1" pin="I2C/SPI" pad="8"/>
<connect gate="G$1" pin="INT1" pad="3"/>
<connect gate="G$1" pin="INT2" pad="2"/>
<connect gate="G$1" pin="RST" pad="4"/>
<connect gate="G$1" pin="SA0" pad="13"/>
<connect gate="G$1" pin="SCL" pad="11"/>
<connect gate="G$1" pin="SDA" pad="12"/>
<connect gate="G$1" pin="SPI-CS" pad="17"/>
<connect gate="G$1" pin="VDD" pad="15"/>
<connect gate="G$1" pin="VIO" pad="18"/>
<connect gate="G$1" pin="VREG" pad="16"/>
</connects>
<technologies>
<technology name=""/>
</technologies>
</device>
</devices>
</deviceset>
<deviceset name="MPL3115" prefix="U">
<gates>
<gate name="G$1" symbol="MPL3115" x="0" y="0"/>
</gates>
<devices>
<device name="" package="LGA-8">
<connects>
<connect gate="G$1" pin="CAP" pad="2"/>
<connect gate="G$1" pin="GND" pad="3"/>
<connect gate="G$1" pin="INT1" pad="6"/>
<connect gate="G$1" pin="INT2" pad="5"/>
<connect gate="G$1" pin="SCL" pad="8"/>
<connect gate="G$1" pin="SDA" pad="7"/>
<connect gate="G$1" pin="VDD" pad="1"/>
<connect gate="G$1" pin="VIO" pad="4"/>
</connects>
<technologies>
<technology name=""/>
</technologies>
</device>
</devices>
</deviceset>
<deviceset name="PCAL6408" prefix="U">
<gates>
<gate name="G$1" symbol="PCAL6408" x="0" y="0"/>
</gates>
<devices>
<device name="" package="QFN16-3X3MM">
<connects>
<connect gate="G$1" pin="!INT" pad="11"/>
<connect gate="G$1" pin="!RESET" pad="1"/>
<connect gate="G$1" pin="ADDR" pad="16"/>
<connect gate="G$1" pin="P0" pad="2"/>
<connect gate="G$1" pin="P1" pad="3"/>
<connect gate="G$1" pin="P2" pad="4"/>
<connect gate="G$1" pin="P3" pad="5"/>
<connect gate="G$1" pin="P4" pad="7"/>
<connect gate="G$1" pin="P5" pad="8"/>
<connect gate="G$1" pin="P6" pad="9"/>
<connect gate="G$1" pin="P7" pad="10"/>
<connect gate="G$1" pin="SCL" pad="12"/>
<connect gate="G$1" pin="SDA" pad="13"/>
<connect gate="G$1" pin="VDD0" pad="14"/>
<connect gate="G$1" pin="VDD1" pad="15"/>
<connect gate="G$1" pin="VSS" pad="6 EXT"/>
</connects>
<technologies>
<technology name=""/>
</technologies>
</device>
</devices>
</deviceset>
<deviceset name="SHT2X" prefix="U">
<gates>
<gate name="G$1" symbol="SHT2X" x="0" y="0"/>
</gates>
<devices>
<device name="" package="DFN6_3X3">
<connects>
<connect gate="G$1" pin="NC@0" pad="3"/>
<connect gate="G$1" pin="NC@1" pad="4"/>
<connect gate="G$1" pin="SCL" pad="6"/>
<connect gate="G$1" pin="SDA" pad="1"/>
<connect gate="G$1" pin="VDD" pad="5"/>
<connect gate="G$1" pin="VSS" pad="2"/>
</connects>
<technologies>
<technology name=""/>
</technologies>
</device>
</devices>
</deviceset>
<deviceset name="SI1132" prefix="U">
<gates>
<gate name="G$1" symbol="SI1132" x="0" y="0"/>
</gates>
<devices>
<device name="" package="QFN10-2X2MM">
<connects>
<connect gate="G$1" pin="GND" pad="8"/>
<connect gate="G$1" pin="INT" pad="4"/>
<connect gate="G$1" pin="SCL" pad="2"/>
<connect gate="G$1" pin="SDA" pad="1"/>
<connect gate="G$1" pin="VDD@0" pad="3"/>
<connect gate="G$1" pin="VDD@1" pad="6"/>
<connect gate="G$1" pin="VDD@2" pad="7"/>
<connect gate="G$1" pin="VDD@3" pad="9"/>
</connects>
<technologies>
<technology name=""/>
</technologies>
</device>
</devices>
</deviceset>
</devicesets>
</library>
</drawing>
</eagle>
