<?xml version="1.0" encoding="utf-8"?>
<!DOCTYPE eagle SYSTEM "eagle.dtd">
<eagle version="7.1.0">
<drawing>
<settings>
<setting alwaysvectorfont="no"/>
<setting verticaltext="up"/>
</settings>
<grid distance="0.05" unitdist="inch" unit="inch" style="lines" multiple="1" display="no" altdistance="0.01" altunitdist="inch" altunit="inch"/>
<layers>
<layer number="1" name="Top" color="4" fill="1" visible="no" active="no"/>
<layer number="16" name="Bottom" color="1" fill="1" visible="no" active="no"/>
<layer number="17" name="Pads" color="2" fill="1" visible="no" active="no"/>
<layer number="18" name="Vias" color="2" fill="1" visible="no" active="no"/>
<layer number="19" name="Unrouted" color="6" fill="1" visible="no" active="no"/>
<layer number="20" name="Dimension" color="15" fill="1" visible="no" active="no"/>
<layer number="21" name="tPlace" color="7" fill="1" visible="no" active="no"/>
<layer number="22" name="bPlace" color="7" fill="1" visible="no" active="no"/>
<layer number="23" name="tOrigins" color="15" fill="1" visible="no" active="no"/>
<layer number="24" name="bOrigins" color="15" fill="1" visible="no" active="no"/>
<layer number="25" name="tNames" color="7" fill="1" visible="no" active="no"/>
<layer number="26" name="bNames" color="7" fill="1" visible="no" active="no"/>
<layer number="27" name="tValues" color="7" fill="1" visible="no" active="no"/>
<layer number="28" name="bValues" color="7" fill="1" visible="no" active="no"/>
<layer number="29" name="tStop" color="7" fill="3" visible="no" active="no"/>
<layer number="30" name="bStop" color="7" fill="6" visible="no" active="no"/>
<layer number="31" name="tCream" color="7" fill="4" visible="no" active="no"/>
<layer number="32" name="bCream" color="7" fill="5" visible="no" active="no"/>
<layer number="33" name="tFinish" color="6" fill="3" visible="no" active="no"/>
<layer number="34" name="bFinish" color="6" fill="6" visible="no" active="no"/>
<layer number="35" name="tGlue" color="7" fill="4" visible="no" active="no"/>
<layer number="36" name="bGlue" color="7" fill="5" visible="no" active="no"/>
<layer number="37" name="tTest" color="7" fill="1" visible="no" active="no"/>
<layer number="38" name="bTest" color="7" fill="1" visible="no" active="no"/>
<layer number="39" name="tKeepout" color="4" fill="11" visible="no" active="no"/>
<layer number="40" name="bKeepout" color="1" fill="11" visible="no" active="no"/>
<layer number="41" name="tRestrict" color="4" fill="10" visible="no" active="no"/>
<layer number="42" name="bRestrict" color="1" fill="10" visible="no" active="no"/>
<layer number="43" name="vRestrict" color="2" fill="10" visible="no" active="no"/>
<layer number="44" name="Drills" color="7" fill="1" visible="no" active="no"/>
<layer number="45" name="Holes" color="7" fill="1" visible="no" active="no"/>
<layer number="46" name="Milling" color="3" fill="1" visible="no" active="no"/>
<layer number="47" name="Measures" color="7" fill="1" visible="no" active="no"/>
<layer number="48" name="Document" color="7" fill="1" visible="no" active="no"/>
<layer number="49" name="Reference" color="7" fill="1" visible="no" active="no"/>
<layer number="50" name="dxf" color="7" fill="1" visible="no" active="no"/>
<layer number="51" name="tDocu" color="7" fill="1" visible="no" active="no"/>
<layer number="52" name="bDocu" color="7" fill="1" visible="no" active="no"/>
<layer number="53" name="tGND_GNDA" color="7" fill="9" visible="no" active="no"/>
<layer number="54" name="bGND_GNDA" color="1" fill="9" visible="no" active="no"/>
<layer number="56" name="wert" color="7" fill="1" visible="no" active="no"/>
<layer number="57" name="tCAD" color="7" fill="1" visible="no" active="no"/>
<layer number="90" name="Modules" color="5" fill="1" visible="yes" active="yes"/>
<layer number="91" name="Nets" color="2" fill="1" visible="yes" active="yes"/>
<layer number="92" name="Busses" color="1" fill="1" visible="yes" active="yes"/>
<layer number="93" name="Pins" color="2" fill="1" visible="no" active="yes"/>
<layer number="94" name="Symbols" color="4" fill="1" visible="yes" active="yes"/>
<layer number="95" name="Names" color="7" fill="1" visible="yes" active="yes"/>
<layer number="96" name="Values" color="7" fill="1" visible="yes" active="yes"/>
<layer number="97" name="Info" color="7" fill="1" visible="yes" active="yes"/>
<layer number="98" name="Guide" color="6" fill="1" visible="yes" active="yes"/>
<layer number="99" name="SpiceOrder" color="7" fill="1" visible="no" active="no"/>
<layer number="100" name="Muster" color="7" fill="1" visible="no" active="no"/>
<layer number="101" name="Patch_Top" color="12" fill="4" visible="yes" active="yes"/>
<layer number="102" name="Vscore" color="7" fill="1" visible="yes" active="yes"/>
<layer number="103" name="tMap" color="7" fill="1" visible="yes" active="yes"/>
<layer number="104" name="Name" color="16" fill="1" visible="yes" active="yes"/>
<layer number="105" name="tPlate" color="7" fill="1" visible="yes" active="yes"/>
<layer number="106" name="bPlate" color="7" fill="1" visible="yes" active="yes"/>
<layer number="107" name="Crop" color="7" fill="1" visible="yes" active="yes"/>
<layer number="108" name="tplace-old" color="10" fill="1" visible="yes" active="yes"/>
<layer number="109" name="ref-old" color="11" fill="1" visible="yes" active="yes"/>
<layer number="110" name="fp0" color="7" fill="1" visible="yes" active="yes"/>
<layer number="111" name="LPC17xx" color="7" fill="1" visible="yes" active="yes"/>
<layer number="112" name="tSilk" color="7" fill="1" visible="yes" active="yes"/>
<layer number="113" name="IDFDebug" color="4" fill="1" visible="yes" active="yes"/>
<layer number="116" name="Patch_BOT" color="9" fill="4" visible="yes" active="yes"/>
<layer number="121" name="_tsilk" color="7" fill="1" visible="yes" active="yes"/>
<layer number="122" name="_bsilk" color="7" fill="1" visible="yes" active="yes"/>
<layer number="123" name="tTestmark" color="7" fill="1" visible="yes" active="yes"/>
<layer number="124" name="bTestmark" color="7" fill="1" visible="yes" active="yes"/>
<layer number="125" name="_tNames" color="7" fill="1" visible="yes" active="yes"/>
<layer number="126" name="_bNames" color="7" fill="1" visible="yes" active="yes"/>
<layer number="127" name="_tValues" color="7" fill="1" visible="yes" active="yes"/>
<layer number="128" name="_bValues" color="7" fill="1" visible="yes" active="yes"/>
<layer number="131" name="tAdjust" color="7" fill="1" visible="yes" active="yes"/>
<layer number="132" name="bAdjust" color="7" fill="1" visible="yes" active="yes"/>
<layer number="144" name="Drill_legend" color="7" fill="1" visible="yes" active="yes"/>
<layer number="150" name="Notes" color="7" fill="1" visible="yes" active="yes"/>
<layer number="151" name="HeatSink" color="7" fill="1" visible="yes" active="yes"/>
<layer number="152" name="_bDocu" color="7" fill="1" visible="yes" active="yes"/>
<layer number="153" name="FabDoc1" color="7" fill="1" visible="yes" active="yes"/>
<layer number="154" name="FabDoc2" color="7" fill="1" visible="yes" active="yes"/>
<layer number="155" name="FabDoc3" color="7" fill="1" visible="yes" active="yes"/>
<layer number="199" name="Contour" color="7" fill="1" visible="yes" active="yes"/>
<layer number="200" name="200bmp" color="1" fill="10" visible="yes" active="yes"/>
<layer number="201" name="201bmp" color="2" fill="10" visible="yes" active="yes"/>
<layer number="202" name="202bmp" color="3" fill="10" visible="yes" active="yes"/>
<layer number="203" name="203bmp" color="4" fill="10" visible="yes" active="yes"/>
<layer number="204" name="204bmp" color="5" fill="10" visible="yes" active="yes"/>
<layer number="205" name="205bmp" color="6" fill="10" visible="yes" active="yes"/>
<layer number="206" name="206bmp" color="7" fill="10" visible="yes" active="yes"/>
<layer number="207" name="207bmp" color="8" fill="10" visible="yes" active="yes"/>
<layer number="208" name="208bmp" color="9" fill="10" visible="yes" active="yes"/>
<layer number="209" name="209bmp" color="7" fill="1" visible="yes" active="yes"/>
<layer number="210" name="210bmp" color="7" fill="1" visible="yes" active="yes"/>
<layer number="211" name="211bmp" color="7" fill="1" visible="yes" active="yes"/>
<layer number="212" name="212bmp" color="7" fill="1" visible="yes" active="yes"/>
<layer number="213" name="213bmp" color="7" fill="1" visible="yes" active="yes"/>
<layer number="214" name="214bmp" color="7" fill="1" visible="yes" active="yes"/>
<layer number="215" name="215bmp" color="7" fill="1" visible="yes" active="yes"/>
<layer number="216" name="216bmp" color="7" fill="1" visible="yes" active="yes"/>
<layer number="217" name="217bmp" color="18" fill="1" visible="no" active="no"/>
<layer number="218" name="218bmp" color="19" fill="1" visible="no" active="no"/>
<layer number="219" name="219bmp" color="20" fill="1" visible="no" active="no"/>
<layer number="220" name="220bmp" color="21" fill="1" visible="no" active="no"/>
<layer number="221" name="221bmp" color="22" fill="1" visible="no" active="no"/>
<layer number="222" name="222bmp" color="23" fill="1" visible="no" active="no"/>
<layer number="223" name="223bmp" color="24" fill="1" visible="no" active="no"/>
<layer number="224" name="224bmp" color="25" fill="1" visible="no" active="no"/>
<layer number="231" name="Eagle3D_PG1" color="14" fill="1" visible="yes" active="yes"/>
<layer number="232" name="Eagle3D_PG2" color="14" fill="2" visible="yes" active="yes"/>
<layer number="233" name="Eagle3D_PG3" color="14" fill="4" visible="yes" active="yes"/>
<layer number="248" name="Housing" color="7" fill="1" visible="yes" active="yes"/>
<layer number="249" name="Edge" color="7" fill="1" visible="yes" active="yes"/>
<layer number="250" name="Descript" color="3" fill="1" visible="no" active="no"/>
<layer number="251" name="SMDround" color="12" fill="11" visible="no" active="no"/>
<layer number="254" name="cooling" color="7" fill="1" visible="yes" active="yes"/>
</layers>
<schematic xreflabel="%F%N/%S.%C%R" xrefpart="/%S.%C%R">
<libraries>
<library name="atomx_Common">
<packages>
</packages>
<symbols>
<symbol name="FR-A4L">
<rectangle x1="178.7652" y1="0" x2="179.3748" y2="20.32" layer="94"/>
<rectangle x1="225.7552" y1="-26.67" x2="226.3648" y2="67.31" layer="94" rot="R90"/>
<wire x1="225.29" y1="-0.1" x2="225.29" y2="5.08" width="0.1016" layer="94"/>
<wire x1="225.29" y1="5.08" x2="273.05" y2="5.08" width="0.1016" layer="94"/>
<wire x1="225.29" y1="5.08" x2="179.07" y2="5.08" width="0.1016" layer="94"/>
<wire x1="179.07" y1="10.16" x2="225.29" y2="10.16" width="0.1016" layer="94"/>
<wire x1="225.29" y1="10.16" x2="273.05" y2="10.16" width="0.1016" layer="94"/>
<wire x1="179.07" y1="15.24" x2="273.05" y2="15.24" width="0.1016" layer="94"/>
<wire x1="225.29" y1="5.08" x2="225.29" y2="10.16" width="0.1016" layer="94"/>
<wire x1="179.07" y1="19.05" x2="179.07" y2="20.32" width="0.6096" layer="94"/>
<wire x1="179.07" y1="20.32" x2="180.34" y2="20.32" width="0.6096" layer="94"/>
<text x="181.61" y="11.43" size="2.54" layer="94" font="vector">&gt;DRAWING_NAME</text>
<text x="181.61" y="6.35" size="2.286" layer="94" font="vector">&gt;LAST_DATE_TIME</text>
<text x="195.58" y="1.27" size="2.54" layer="94" font="vector">&gt;SHEET</text>
<text x="181.61" y="1.27" size="2.54" layer="94" font="vector">Sheet:</text>
<text x="181.61" y="16.51" size="2.54" layer="94" font="vector">&gt;CNAME</text>
<text x="226.16" y="1.27" size="2.54" layer="94" font="vector">Rev:</text>
<text x="226.26" y="6.35" size="2.54" layer="94" font="vector">&gt;DESIGNER</text>
<text x="234.92" y="1.17" size="2.54" layer="94" font="vector">&gt;CREVISION</text>
<frame x1="-3.81" y1="-3.81" x2="276.86" y2="182.88" columns="8" rows="5" layer="94"/>
</symbol>
</symbols>
<devicesets>
<deviceset name="FRAME-A4L" prefix="FRAME">
<description>&lt;b&gt;Schematic Frame-European Format&lt;/b&gt;
&lt;br&gt;&lt;br&gt;
Standard A4 size frame in Landscape</description>
<gates>
<gate name="G$1" symbol="FR-A4L" x="0" y="0"/>
</gates>
<devices>
<device name="">
<technologies>
<technology name=""/>
</technologies>
</device>
</devices>
</deviceset>
</devicesets>
</library>
<library name="atomx_Connectors">
<packages>
<package name="2X16_SMD_EDGE">
<smd name="2" x="-15" y="1" dx="2.2" dy="1.2" layer="1" rot="R90"/>
<smd name="4" x="-13" y="1" dx="2.2" dy="1.2" layer="1" rot="R90"/>
<smd name="6" x="-11" y="1" dx="2.2" dy="1.2" layer="1" rot="R90"/>
<smd name="8" x="-9" y="1" dx="2.2" dy="1.2" layer="1" rot="R90"/>
<smd name="10" x="-7" y="1" dx="2.2" dy="1.2" layer="1" rot="R90"/>
<smd name="12" x="-5" y="1" dx="2.2" dy="1.2" layer="1" rot="R90"/>
<smd name="14" x="-3" y="1" dx="2.2" dy="1.2" layer="1" rot="R90"/>
<smd name="16" x="-1" y="1" dx="2.2" dy="1.2" layer="1" rot="R90"/>
<smd name="18" x="1" y="1" dx="2.2" dy="1.2" layer="1" rot="R90"/>
<smd name="20" x="3" y="1" dx="2.2" dy="1.2" layer="1" rot="R90"/>
<smd name="22" x="5" y="1" dx="2.2" dy="1.2" layer="1" rot="R90"/>
<smd name="24" x="7" y="1" dx="2.2" dy="1.2" layer="1" rot="R90"/>
<smd name="26" x="9" y="1" dx="2.2" dy="1.2" layer="1" rot="R90"/>
<smd name="28" x="11" y="1" dx="2.2" dy="1.2" layer="1" rot="R90"/>
<smd name="30" x="13" y="1" dx="2.2" dy="1.2" layer="1" rot="R90"/>
<smd name="32" x="15" y="1" dx="2.2" dy="1.2" layer="1" rot="R90"/>
<smd name="1" x="-15" y="1" dx="2.2" dy="1.2" layer="16" rot="R90"/>
<smd name="3" x="-13" y="1" dx="2.2" dy="1.2" layer="16" rot="R90"/>
<smd name="5" x="-11" y="1" dx="2.2" dy="1.2" layer="16" rot="R90"/>
<smd name="7" x="-9" y="1" dx="2.2" dy="1.2" layer="16" rot="R90"/>
<smd name="9" x="-7" y="1" dx="2.2" dy="1.2" layer="16" rot="R90"/>
<smd name="11" x="-5" y="1" dx="2.2" dy="1.2" layer="16" rot="R90"/>
<smd name="13" x="-3" y="1" dx="2.2" dy="1.2" layer="16" rot="R90"/>
<smd name="15" x="-1" y="1" dx="2.2" dy="1.2" layer="16" rot="R90"/>
<smd name="17" x="1" y="1" dx="2.2" dy="1.2" layer="16" rot="R90"/>
<smd name="19" x="3" y="1" dx="2.2" dy="1.2" layer="16" rot="R90"/>
<smd name="21" x="5" y="1" dx="2.2" dy="1.2" layer="16" rot="R90"/>
<smd name="23" x="7" y="1" dx="2.2" dy="1.2" layer="16" rot="R90"/>
<smd name="25" x="9" y="1" dx="2.2" dy="1.2" layer="16" rot="R90"/>
<smd name="27" x="11" y="1" dx="2.2" dy="1.2" layer="16" rot="R90"/>
<smd name="29" x="13" y="1" dx="2.2" dy="1.2" layer="16" rot="R90"/>
<smd name="31" x="15" y="1" dx="2.2" dy="1.2" layer="16" rot="R90"/>
<wire x1="-16.5" y1="-0.5" x2="16.5" y2="-0.5" width="0.127" layer="51"/>
<wire x1="16.5" y1="-0.5" x2="16.5" y2="-4.5" width="0.127" layer="51"/>
<wire x1="16.5" y1="-4.5" x2="-16.5" y2="-4.5" width="0.127" layer="51"/>
<wire x1="-16.5" y1="-4.5" x2="-16.5" y2="-0.5" width="0.127" layer="51"/>
<polygon width="0.127" layer="51">
<vertex x="-15.3" y="-0.5"/>
<vertex x="-15.3" y="1.5"/>
<vertex x="-14.7" y="1.5"/>
<vertex x="-14.7" y="-0.5"/>
</polygon>
<polygon width="0.127" layer="51">
<vertex x="-13.3" y="-0.5"/>
<vertex x="-13.3" y="1.5"/>
<vertex x="-12.7" y="1.5"/>
<vertex x="-12.7" y="-0.5"/>
</polygon>
<polygon width="0.127" layer="51">
<vertex x="-11.3" y="-0.5"/>
<vertex x="-11.3" y="1.5"/>
<vertex x="-10.7" y="1.5"/>
<vertex x="-10.7" y="-0.5"/>
</polygon>
<polygon width="0.127" layer="51">
<vertex x="-9.3" y="-0.5"/>
<vertex x="-9.3" y="1.5"/>
<vertex x="-8.7" y="1.5"/>
<vertex x="-8.7" y="-0.5"/>
</polygon>
<polygon width="0.127" layer="51">
<vertex x="-7.3" y="-0.5"/>
<vertex x="-7.3" y="1.5"/>
<vertex x="-6.7" y="1.5"/>
<vertex x="-6.7" y="-0.5"/>
</polygon>
<polygon width="0.127" layer="51">
<vertex x="-5.3" y="-0.5"/>
<vertex x="-5.3" y="1.5"/>
<vertex x="-4.7" y="1.5"/>
<vertex x="-4.7" y="-0.5"/>
</polygon>
<polygon width="0.127" layer="51">
<vertex x="-3.3" y="-0.5"/>
<vertex x="-3.3" y="1.5"/>
<vertex x="-2.7" y="1.5"/>
<vertex x="-2.7" y="-0.5"/>
</polygon>
<polygon width="0.127" layer="51">
<vertex x="-1.3" y="-0.5"/>
<vertex x="-1.3" y="1.5"/>
<vertex x="-0.7" y="1.5"/>
<vertex x="-0.7" y="-0.5"/>
</polygon>
<polygon width="0.127" layer="51">
<vertex x="0.7" y="-0.5"/>
<vertex x="0.7" y="1.5"/>
<vertex x="1.3" y="1.5"/>
<vertex x="1.3" y="-0.5"/>
</polygon>
<polygon width="0.127" layer="51">
<vertex x="2.7" y="-0.5"/>
<vertex x="2.7" y="1.5"/>
<vertex x="3.3" y="1.5"/>
<vertex x="3.3" y="-0.5"/>
</polygon>
<polygon width="0.127" layer="51">
<vertex x="4.7" y="-0.5"/>
<vertex x="4.7" y="1.5"/>
<vertex x="5.3" y="1.5"/>
<vertex x="5.3" y="-0.5"/>
</polygon>
<polygon width="0.127" layer="51">
<vertex x="6.7" y="-0.5"/>
<vertex x="6.7" y="1.5"/>
<vertex x="7.3" y="1.5"/>
<vertex x="7.3" y="-0.5"/>
</polygon>
<polygon width="0.127" layer="51">
<vertex x="8.7" y="-0.5"/>
<vertex x="8.7" y="1.5"/>
<vertex x="9.3" y="1.5"/>
<vertex x="9.3" y="-0.5"/>
</polygon>
<polygon width="0.127" layer="51">
<vertex x="10.7" y="-0.5"/>
<vertex x="10.7" y="1.5"/>
<vertex x="11.3" y="1.5"/>
<vertex x="11.3" y="-0.5"/>
</polygon>
<polygon width="0.127" layer="51">
<vertex x="12.7" y="-0.5"/>
<vertex x="12.7" y="1.5"/>
<vertex x="13.3" y="1.5"/>
<vertex x="13.3" y="-0.5"/>
</polygon>
<polygon width="0.127" layer="51">
<vertex x="14.7" y="-0.5"/>
<vertex x="14.7" y="1.5"/>
<vertex x="15.3" y="1.5"/>
<vertex x="15.3" y="-0.5"/>
</polygon>
<circle x="-15" y="2.8" radius="0.22360625" width="0.254" layer="51"/>
</package>
<package name="2X17">
<wire x1="16.51" y1="-0.635" x2="15.875" y2="-1.27" width="0.2032" layer="21"/>
<wire x1="13.97" y1="-0.635" x2="13.335" y2="-1.27" width="0.2032" layer="21"/>
<wire x1="13.335" y1="-1.27" x2="12.065" y2="-1.27" width="0.2032" layer="21"/>
<wire x1="12.065" y1="-1.27" x2="11.43" y2="-0.635" width="0.2032" layer="21"/>
<wire x1="13.97" y1="-0.635" x2="14.605" y2="-1.27" width="0.2032" layer="21"/>
<wire x1="15.875" y1="-1.27" x2="14.605" y2="-1.27" width="0.2032" layer="21"/>
<wire x1="8.89" y1="-0.635" x2="8.255" y2="-1.27" width="0.2032" layer="21"/>
<wire x1="11.43" y1="-0.635" x2="10.795" y2="-1.27" width="0.2032" layer="21"/>
<wire x1="10.795" y1="-1.27" x2="9.525" y2="-1.27" width="0.2032" layer="21"/>
<wire x1="9.525" y1="-1.27" x2="8.89" y2="-0.635" width="0.2032" layer="21"/>
<wire x1="6.35" y1="-0.635" x2="5.715" y2="-1.27" width="0.2032" layer="21"/>
<wire x1="5.715" y1="-1.27" x2="4.445" y2="-1.27" width="0.2032" layer="21"/>
<wire x1="4.445" y1="-1.27" x2="3.81" y2="-0.635" width="0.2032" layer="21"/>
<wire x1="6.35" y1="-0.635" x2="6.985" y2="-1.27" width="0.2032" layer="21"/>
<wire x1="8.255" y1="-1.27" x2="6.985" y2="-1.27" width="0.2032" layer="21"/>
<wire x1="1.27" y1="-0.635" x2="0.635" y2="-1.27" width="0.2032" layer="21"/>
<wire x1="3.81" y1="-0.635" x2="3.175" y2="-1.27" width="0.2032" layer="21"/>
<wire x1="3.175" y1="-1.27" x2="1.905" y2="-1.27" width="0.2032" layer="21"/>
<wire x1="1.905" y1="-1.27" x2="1.27" y2="-0.635" width="0.2032" layer="21"/>
<wire x1="-1.27" y1="0.635" x2="-1.27" y2="-0.635" width="0.2032" layer="21"/>
<wire x1="-0.635" y1="1.27" x2="-1.27" y2="0.635" width="0.2032" layer="21"/>
<wire x1="-1.27" y1="-0.635" x2="-0.635" y2="-1.27" width="0.2032" layer="21"/>
<wire x1="0.635" y1="-1.27" x2="-0.635" y2="-1.27" width="0.2032" layer="21"/>
<wire x1="41.275" y1="1.27" x2="41.91" y2="0.635" width="0.2032" layer="21"/>
<wire x1="41.91" y1="-0.635" x2="41.275" y2="-1.27" width="0.2032" layer="21"/>
<wire x1="41.275" y1="-1.27" x2="40.005" y2="-1.27" width="0.2032" layer="21"/>
<wire x1="40.005" y1="-1.27" x2="39.37" y2="-0.635" width="0.2032" layer="21"/>
<wire x1="41.91" y1="-0.635" x2="41.91" y2="0.635" width="0.2032" layer="21"/>
<wire x1="26.67" y1="-0.635" x2="26.035" y2="-1.27" width="0.2032" layer="21"/>
<wire x1="28.575" y1="-1.27" x2="27.305" y2="-1.27" width="0.2032" layer="21"/>
<wire x1="27.305" y1="-1.27" x2="26.67" y2="-0.635" width="0.2032" layer="21"/>
<wire x1="24.13" y1="-0.635" x2="23.495" y2="-1.27" width="0.2032" layer="21"/>
<wire x1="23.495" y1="-1.27" x2="22.225" y2="-1.27" width="0.2032" layer="21"/>
<wire x1="22.225" y1="-1.27" x2="21.59" y2="-0.635" width="0.2032" layer="21"/>
<wire x1="24.13" y1="-0.635" x2="24.765" y2="-1.27" width="0.2032" layer="21"/>
<wire x1="26.035" y1="-1.27" x2="24.765" y2="-1.27" width="0.2032" layer="21"/>
<wire x1="19.05" y1="-0.635" x2="18.415" y2="-1.27" width="0.2032" layer="21"/>
<wire x1="21.59" y1="-0.635" x2="20.955" y2="-1.27" width="0.2032" layer="21"/>
<wire x1="20.955" y1="-1.27" x2="19.685" y2="-1.27" width="0.2032" layer="21"/>
<wire x1="19.685" y1="-1.27" x2="19.05" y2="-0.635" width="0.2032" layer="21"/>
<wire x1="16.51" y1="-0.635" x2="17.145" y2="-1.27" width="0.2032" layer="21"/>
<wire x1="18.415" y1="-1.27" x2="17.145" y2="-1.27" width="0.2032" layer="21"/>
<pad name="1" x="0" y="0" drill="1.016" diameter="1.651" rot="R90"/>
<pad name="3" x="2.54" y="0" drill="1.016" diameter="1.651" rot="R90"/>
<pad name="5" x="5.08" y="0" drill="1.016" diameter="1.651" rot="R90"/>
<pad name="7" x="7.62" y="0" drill="1.016" diameter="1.651" rot="R90"/>
<pad name="9" x="10.16" y="0" drill="1.016" diameter="1.651" rot="R90"/>
<pad name="11" x="12.7" y="0" drill="1.016" diameter="1.651" rot="R90"/>
<pad name="13" x="15.24" y="0" drill="1.016" diameter="1.651" rot="R90"/>
<pad name="15" x="17.78" y="0" drill="1.016" diameter="1.651" rot="R90"/>
<pad name="17" x="20.32" y="0" drill="1.016" diameter="1.651" rot="R90"/>
<pad name="19" x="22.86" y="0" drill="1.016" diameter="1.651" rot="R90"/>
<pad name="21" x="25.4" y="0" drill="1.016" diameter="1.651" rot="R90"/>
<pad name="23" x="27.94" y="0" drill="1.016" diameter="1.651" rot="R90"/>
<pad name="33" x="40.64" y="0" drill="1.016" diameter="1.651" rot="R90"/>
<text x="-1.3462" y="4.3688" size="1.27" layer="25" ratio="10">&gt;NAME</text>
<text x="-1.27" y="-3.175" size="1.27" layer="27">&gt;VALUE</text>
<rectangle x1="14.986" y1="-0.254" x2="15.494" y2="0.254" layer="51"/>
<rectangle x1="12.446" y1="-0.254" x2="12.954" y2="0.254" layer="51"/>
<rectangle x1="9.906" y1="-0.254" x2="10.414" y2="0.254" layer="51"/>
<rectangle x1="7.366" y1="-0.254" x2="7.874" y2="0.254" layer="51"/>
<rectangle x1="4.826" y1="-0.254" x2="5.334" y2="0.254" layer="51"/>
<rectangle x1="2.286" y1="-0.254" x2="2.794" y2="0.254" layer="51"/>
<rectangle x1="-0.254" y1="-0.254" x2="0.254" y2="0.254" layer="51"/>
<rectangle x1="40.386" y1="-0.254" x2="40.894" y2="0.254" layer="51"/>
<rectangle x1="27.686" y1="-0.254" x2="28.194" y2="0.254" layer="51"/>
<rectangle x1="25.146" y1="-0.254" x2="25.654" y2="0.254" layer="51"/>
<rectangle x1="22.606" y1="-0.254" x2="23.114" y2="0.254" layer="51"/>
<rectangle x1="20.066" y1="-0.254" x2="20.574" y2="0.254" layer="51"/>
<rectangle x1="17.526" y1="-0.254" x2="18.034" y2="0.254" layer="51"/>
<wire x1="14.605" y1="3.81" x2="15.875" y2="3.81" width="0.2032" layer="21"/>
<wire x1="15.875" y1="3.81" x2="16.51" y2="3.175" width="0.2032" layer="21"/>
<wire x1="11.43" y1="3.175" x2="12.065" y2="3.81" width="0.2032" layer="21"/>
<wire x1="12.065" y1="3.81" x2="13.335" y2="3.81" width="0.2032" layer="21"/>
<wire x1="13.335" y1="3.81" x2="13.97" y2="3.175" width="0.2032" layer="21"/>
<wire x1="14.605" y1="3.81" x2="13.97" y2="3.175" width="0.2032" layer="21"/>
<wire x1="6.985" y1="3.81" x2="8.255" y2="3.81" width="0.2032" layer="21"/>
<wire x1="8.255" y1="3.81" x2="8.89" y2="3.175" width="0.2032" layer="21"/>
<wire x1="8.89" y1="3.175" x2="9.525" y2="3.81" width="0.2032" layer="21"/>
<wire x1="9.525" y1="3.81" x2="10.795" y2="3.81" width="0.2032" layer="21"/>
<wire x1="10.795" y1="3.81" x2="11.43" y2="3.175" width="0.2032" layer="21"/>
<wire x1="3.81" y1="3.175" x2="4.445" y2="3.81" width="0.2032" layer="21"/>
<wire x1="4.445" y1="3.81" x2="5.715" y2="3.81" width="0.2032" layer="21"/>
<wire x1="5.715" y1="3.81" x2="6.35" y2="3.175" width="0.2032" layer="21"/>
<wire x1="6.985" y1="3.81" x2="6.35" y2="3.175" width="0.2032" layer="21"/>
<wire x1="-0.635" y1="3.81" x2="0.635" y2="3.81" width="0.2032" layer="21"/>
<wire x1="0.635" y1="3.81" x2="1.27" y2="3.175" width="0.2032" layer="21"/>
<wire x1="1.27" y1="3.175" x2="1.905" y2="3.81" width="0.2032" layer="21"/>
<wire x1="1.905" y1="3.81" x2="3.175" y2="3.81" width="0.2032" layer="21"/>
<wire x1="3.175" y1="3.81" x2="3.81" y2="3.175" width="0.2032" layer="21"/>
<wire x1="-1.27" y1="3.175" x2="-1.27" y2="1.905" width="0.2032" layer="21"/>
<wire x1="-0.635" y1="3.81" x2="-1.27" y2="3.175" width="0.2032" layer="21"/>
<wire x1="-1.27" y1="1.905" x2="-0.635" y2="1.27" width="0.2032" layer="21"/>
<wire x1="39.37" y1="3.175" x2="40.005" y2="3.81" width="0.2032" layer="21"/>
<wire x1="40.005" y1="3.81" x2="41.275" y2="3.81" width="0.2032" layer="21"/>
<wire x1="41.275" y1="3.81" x2="41.91" y2="3.175" width="0.2032" layer="21"/>
<wire x1="41.91" y1="1.905" x2="41.275" y2="1.27" width="0.2032" layer="21"/>
<wire x1="41.91" y1="1.905" x2="41.91" y2="3.175" width="0.2032" layer="21"/>
<wire x1="24.765" y1="3.81" x2="26.035" y2="3.81" width="0.2032" layer="21"/>
<wire x1="26.035" y1="3.81" x2="26.67" y2="3.175" width="0.2032" layer="21"/>
<wire x1="26.67" y1="3.175" x2="27.305" y2="3.81" width="0.2032" layer="21"/>
<wire x1="27.305" y1="3.81" x2="28.575" y2="3.81" width="0.2032" layer="21"/>
<wire x1="21.59" y1="3.175" x2="22.225" y2="3.81" width="0.2032" layer="21"/>
<wire x1="22.225" y1="3.81" x2="23.495" y2="3.81" width="0.2032" layer="21"/>
<wire x1="23.495" y1="3.81" x2="24.13" y2="3.175" width="0.2032" layer="21"/>
<wire x1="24.765" y1="3.81" x2="24.13" y2="3.175" width="0.2032" layer="21"/>
<wire x1="17.145" y1="3.81" x2="18.415" y2="3.81" width="0.2032" layer="21"/>
<wire x1="18.415" y1="3.81" x2="19.05" y2="3.175" width="0.2032" layer="21"/>
<wire x1="19.05" y1="3.175" x2="19.685" y2="3.81" width="0.2032" layer="21"/>
<wire x1="19.685" y1="3.81" x2="20.955" y2="3.81" width="0.2032" layer="21"/>
<wire x1="20.955" y1="3.81" x2="21.59" y2="3.175" width="0.2032" layer="21"/>
<wire x1="17.145" y1="3.81" x2="16.51" y2="3.175" width="0.2032" layer="21"/>
<pad name="34" x="40.64" y="2.54" drill="1.016" diameter="1.651" rot="R270"/>
<pad name="24" x="27.94" y="2.54" drill="1.016" diameter="1.651" rot="R270"/>
<pad name="22" x="25.4" y="2.54" drill="1.016" diameter="1.651" rot="R270"/>
<pad name="20" x="22.86" y="2.54" drill="1.016" diameter="1.651" rot="R270"/>
<pad name="18" x="20.32" y="2.54" drill="1.016" diameter="1.651" rot="R270"/>
<pad name="16" x="17.78" y="2.54" drill="1.016" diameter="1.651" rot="R270"/>
<pad name="14" x="15.24" y="2.54" drill="1.016" diameter="1.651" rot="R270"/>
<pad name="12" x="12.7" y="2.54" drill="1.016" diameter="1.651" rot="R270"/>
<pad name="10" x="10.16" y="2.54" drill="1.016" diameter="1.651" rot="R270"/>
<pad name="8" x="7.62" y="2.54" drill="1.016" diameter="1.651" rot="R270"/>
<pad name="6" x="5.08" y="2.54" drill="1.016" diameter="1.651" rot="R270"/>
<pad name="4" x="2.54" y="2.54" drill="1.016" diameter="1.651" rot="R270"/>
<pad name="2" x="0" y="2.54" drill="1.016" diameter="1.651" rot="R270"/>
<rectangle x1="14.986" y1="2.286" x2="15.494" y2="2.794" layer="51" rot="R180"/>
<rectangle x1="17.526" y1="2.286" x2="18.034" y2="2.794" layer="51" rot="R180"/>
<rectangle x1="20.066" y1="2.286" x2="20.574" y2="2.794" layer="51" rot="R180"/>
<rectangle x1="22.606" y1="2.286" x2="23.114" y2="2.794" layer="51" rot="R180"/>
<rectangle x1="25.146" y1="2.286" x2="25.654" y2="2.794" layer="51" rot="R180"/>
<rectangle x1="27.686" y1="2.286" x2="28.194" y2="2.794" layer="51" rot="R180"/>
<rectangle x1="40.386" y1="2.286" x2="40.894" y2="2.794" layer="51" rot="R180"/>
<rectangle x1="-0.254" y1="2.286" x2="0.254" y2="2.794" layer="51" rot="R180"/>
<rectangle x1="2.286" y1="2.286" x2="2.794" y2="2.794" layer="51" rot="R180"/>
<rectangle x1="4.826" y1="2.286" x2="5.334" y2="2.794" layer="51" rot="R180"/>
<rectangle x1="7.366" y1="2.286" x2="7.874" y2="2.794" layer="51" rot="R180"/>
<rectangle x1="9.906" y1="2.286" x2="10.414" y2="2.794" layer="51" rot="R180"/>
<rectangle x1="12.446" y1="2.286" x2="12.954" y2="2.794" layer="51" rot="R180"/>
<wire x1="1.27" y1="3.175" x2="1.27" y2="-0.635" width="0.2032" layer="21"/>
<wire x1="3.81" y1="3.175" x2="3.81" y2="-0.635" width="0.2032" layer="21"/>
<wire x1="6.35" y1="3.175" x2="6.35" y2="-0.635" width="0.2032" layer="21"/>
<wire x1="8.89" y1="3.175" x2="8.89" y2="-0.635" width="0.2032" layer="21"/>
<wire x1="11.43" y1="3.175" x2="11.43" y2="-0.635" width="0.2032" layer="21"/>
<wire x1="13.97" y1="3.175" x2="13.97" y2="-0.635" width="0.2032" layer="21"/>
<wire x1="16.51" y1="3.175" x2="16.51" y2="-0.635" width="0.2032" layer="21"/>
<wire x1="19.05" y1="3.175" x2="19.05" y2="-0.635" width="0.2032" layer="21"/>
<wire x1="21.59" y1="3.175" x2="21.59" y2="-0.635" width="0.2032" layer="21"/>
<wire x1="24.13" y1="3.175" x2="24.13" y2="-0.635" width="0.2032" layer="21"/>
<wire x1="26.67" y1="3.175" x2="26.67" y2="-0.635" width="0.2032" layer="21"/>
<wire x1="39.37" y1="3.175" x2="39.37" y2="-0.635" width="0.2032" layer="21"/>
<wire x1="29.21" y1="-0.635" x2="28.575" y2="-1.27" width="0.2032" layer="21"/>
<wire x1="31.115" y1="-1.27" x2="29.845" y2="-1.27" width="0.2032" layer="21"/>
<wire x1="29.845" y1="-1.27" x2="29.21" y2="-0.635" width="0.2032" layer="21"/>
<pad name="25" x="30.48" y="0" drill="1.016" diameter="1.651" rot="R90"/>
<rectangle x1="30.226" y1="-0.254" x2="30.734" y2="0.254" layer="51"/>
<wire x1="28.575" y1="3.81" x2="29.21" y2="3.175" width="0.2032" layer="21"/>
<wire x1="29.21" y1="3.175" x2="29.845" y2="3.81" width="0.2032" layer="21"/>
<wire x1="29.845" y1="3.81" x2="31.115" y2="3.81" width="0.2032" layer="21"/>
<pad name="26" x="30.48" y="2.54" drill="1.016" diameter="1.651" rot="R270"/>
<rectangle x1="30.226" y1="2.286" x2="30.734" y2="2.794" layer="51" rot="R180"/>
<wire x1="29.21" y1="3.175" x2="29.21" y2="-0.635" width="0.2032" layer="21"/>
<wire x1="31.75" y1="-0.635" x2="31.115" y2="-1.27" width="0.2032" layer="21"/>
<wire x1="33.655" y1="-1.27" x2="32.385" y2="-1.27" width="0.2032" layer="21"/>
<wire x1="32.385" y1="-1.27" x2="31.75" y2="-0.635" width="0.2032" layer="21"/>
<pad name="27" x="33.02" y="0" drill="1.016" diameter="1.651" rot="R90"/>
<rectangle x1="32.766" y1="-0.254" x2="33.274" y2="0.254" layer="51"/>
<wire x1="31.115" y1="3.81" x2="31.75" y2="3.175" width="0.2032" layer="21"/>
<wire x1="31.75" y1="3.175" x2="32.385" y2="3.81" width="0.2032" layer="21"/>
<wire x1="32.385" y1="3.81" x2="33.655" y2="3.81" width="0.2032" layer="21"/>
<pad name="28" x="33.02" y="2.54" drill="1.016" diameter="1.651" rot="R270"/>
<rectangle x1="32.766" y1="2.286" x2="33.274" y2="2.794" layer="51" rot="R180"/>
<wire x1="31.75" y1="3.175" x2="31.75" y2="-0.635" width="0.2032" layer="21"/>
<wire x1="34.29" y1="-0.635" x2="33.655" y2="-1.27" width="0.2032" layer="21"/>
<wire x1="36.195" y1="-1.27" x2="34.925" y2="-1.27" width="0.2032" layer="21"/>
<wire x1="34.925" y1="-1.27" x2="34.29" y2="-0.635" width="0.2032" layer="21"/>
<pad name="29" x="35.56" y="0" drill="1.016" diameter="1.651" rot="R90"/>
<rectangle x1="35.306" y1="-0.254" x2="35.814" y2="0.254" layer="51"/>
<wire x1="33.655" y1="3.81" x2="34.29" y2="3.175" width="0.2032" layer="21"/>
<wire x1="34.29" y1="3.175" x2="34.925" y2="3.81" width="0.2032" layer="21"/>
<wire x1="34.925" y1="3.81" x2="36.195" y2="3.81" width="0.2032" layer="21"/>
<pad name="30" x="35.56" y="2.54" drill="1.016" diameter="1.651" rot="R270"/>
<rectangle x1="35.306" y1="2.286" x2="35.814" y2="2.794" layer="51" rot="R180"/>
<wire x1="34.29" y1="3.175" x2="34.29" y2="-0.635" width="0.2032" layer="21"/>
<wire x1="36.83" y1="-0.635" x2="36.195" y2="-1.27" width="0.2032" layer="21"/>
<wire x1="38.735" y1="-1.27" x2="37.465" y2="-1.27" width="0.2032" layer="21"/>
<wire x1="37.465" y1="-1.27" x2="36.83" y2="-0.635" width="0.2032" layer="21"/>
<pad name="31" x="38.1" y="0" drill="1.016" diameter="1.651" rot="R90"/>
<rectangle x1="37.846" y1="-0.254" x2="38.354" y2="0.254" layer="51"/>
<wire x1="36.195" y1="3.81" x2="36.83" y2="3.175" width="0.2032" layer="21"/>
<wire x1="36.83" y1="3.175" x2="37.465" y2="3.81" width="0.2032" layer="21"/>
<wire x1="37.465" y1="3.81" x2="38.735" y2="3.81" width="0.2032" layer="21"/>
<pad name="32" x="38.1" y="2.54" drill="1.016" diameter="1.651" rot="R270"/>
<rectangle x1="37.846" y1="2.286" x2="38.354" y2="2.794" layer="51" rot="R180"/>
<wire x1="36.83" y1="3.175" x2="36.83" y2="-0.635" width="0.2032" layer="21"/>
<wire x1="38.735" y1="3.81" x2="39.37" y2="3.175" width="0.2032" layer="21"/>
<wire x1="39.37" y1="-0.635" x2="38.735" y2="-1.27" width="0.2032" layer="21"/>
</package>
</packages>
<symbols>
<symbol name="M16X2">
<wire x1="1.27" y1="-7.62" x2="2.54" y2="-7.62" width="0.6096" layer="94"/>
<wire x1="1.27" y1="-10.16" x2="2.54" y2="-10.16" width="0.6096" layer="94"/>
<wire x1="1.27" y1="-12.7" x2="2.54" y2="-12.7" width="0.6096" layer="94"/>
<wire x1="3.81" y1="-22.86" x2="3.81" y2="20.32" width="0.4064" layer="94"/>
<wire x1="1.27" y1="-2.54" x2="2.54" y2="-2.54" width="0.6096" layer="94"/>
<wire x1="1.27" y1="-5.08" x2="2.54" y2="-5.08" width="0.6096" layer="94"/>
<wire x1="1.27" y1="0" x2="2.54" y2="0" width="0.6096" layer="94"/>
<wire x1="1.27" y1="2.54" x2="2.54" y2="2.54" width="0.6096" layer="94"/>
<wire x1="1.27" y1="5.08" x2="2.54" y2="5.08" width="0.6096" layer="94"/>
<wire x1="1.27" y1="7.62" x2="2.54" y2="7.62" width="0.6096" layer="94"/>
<wire x1="1.27" y1="10.16" x2="2.54" y2="10.16" width="0.6096" layer="94"/>
<wire x1="1.27" y1="12.7" x2="2.54" y2="12.7" width="0.6096" layer="94"/>
<wire x1="1.27" y1="15.24" x2="2.54" y2="15.24" width="0.6096" layer="94"/>
<wire x1="1.27" y1="17.78" x2="2.54" y2="17.78" width="0.6096" layer="94"/>
<text x="-5.08" y="-25.4" size="1.778" layer="96">&gt;VALUE</text>
<text x="-5.08" y="21.082" size="1.778" layer="95">&gt;NAME</text>
<pin name="26" x="7.62" y="-12.7" visible="pad" length="middle" direction="pas" swaplevel="1" rot="R180"/>
<pin name="24" x="7.62" y="-10.16" visible="pad" length="middle" direction="pas" swaplevel="1" rot="R180"/>
<pin name="22" x="7.62" y="-7.62" visible="pad" length="middle" direction="pas" swaplevel="1" rot="R180"/>
<pin name="20" x="7.62" y="-5.08" visible="pad" length="middle" direction="pas" swaplevel="1" rot="R180"/>
<pin name="18" x="7.62" y="-2.54" visible="pad" length="middle" direction="pas" swaplevel="1" rot="R180"/>
<pin name="16" x="7.62" y="0" visible="pad" length="middle" direction="pas" swaplevel="1" rot="R180"/>
<pin name="14" x="7.62" y="2.54" visible="pad" length="middle" direction="pas" swaplevel="1" rot="R180"/>
<pin name="12" x="7.62" y="5.08" visible="pad" length="middle" direction="pas" swaplevel="1" rot="R180"/>
<pin name="10" x="7.62" y="7.62" visible="pad" length="middle" direction="pas" swaplevel="1" rot="R180"/>
<pin name="8" x="7.62" y="10.16" visible="pad" length="middle" direction="pas" swaplevel="1" rot="R180"/>
<pin name="6" x="7.62" y="12.7" visible="pad" length="middle" direction="pas" swaplevel="1" rot="R180"/>
<pin name="4" x="7.62" y="15.24" visible="pad" length="middle" direction="pas" swaplevel="1" rot="R180"/>
<pin name="2" x="7.62" y="17.78" visible="pad" length="middle" direction="pas" swaplevel="1" rot="R180"/>
<wire x1="-3.81" y1="20.32" x2="3.81" y2="20.32" width="0.4064" layer="94"/>
<wire x1="-1.27" y1="12.7" x2="-2.54" y2="12.7" width="0.6096" layer="94"/>
<wire x1="-1.27" y1="15.24" x2="-2.54" y2="15.24" width="0.6096" layer="94"/>
<wire x1="-1.27" y1="17.78" x2="-2.54" y2="17.78" width="0.6096" layer="94"/>
<wire x1="-3.81" y1="20.32" x2="-3.81" y2="-22.86" width="0.4064" layer="94"/>
<wire x1="3.81" y1="-22.86" x2="-3.81" y2="-22.86" width="0.4064" layer="94"/>
<wire x1="-1.27" y1="7.62" x2="-2.54" y2="7.62" width="0.6096" layer="94"/>
<wire x1="-1.27" y1="10.16" x2="-2.54" y2="10.16" width="0.6096" layer="94"/>
<wire x1="-1.27" y1="5.08" x2="-2.54" y2="5.08" width="0.6096" layer="94"/>
<wire x1="-1.27" y1="2.54" x2="-2.54" y2="2.54" width="0.6096" layer="94"/>
<wire x1="-1.27" y1="0" x2="-2.54" y2="0" width="0.6096" layer="94"/>
<wire x1="-1.27" y1="-2.54" x2="-2.54" y2="-2.54" width="0.6096" layer="94"/>
<wire x1="-1.27" y1="-5.08" x2="-2.54" y2="-5.08" width="0.6096" layer="94"/>
<wire x1="-1.27" y1="-7.62" x2="-2.54" y2="-7.62" width="0.6096" layer="94"/>
<wire x1="-1.27" y1="-10.16" x2="-2.54" y2="-10.16" width="0.6096" layer="94"/>
<wire x1="-1.27" y1="-12.7" x2="-2.54" y2="-12.7" width="0.6096" layer="94"/>
<pin name="1" x="-7.62" y="17.78" visible="pad" length="middle" direction="pas" swaplevel="1"/>
<pin name="3" x="-7.62" y="15.24" visible="pad" length="middle" direction="pas" swaplevel="1"/>
<pin name="5" x="-7.62" y="12.7" visible="pad" length="middle" direction="pas" swaplevel="1"/>
<pin name="7" x="-7.62" y="10.16" visible="pad" length="middle" direction="pas" swaplevel="1"/>
<pin name="9" x="-7.62" y="7.62" visible="pad" length="middle" direction="pas" swaplevel="1"/>
<pin name="11" x="-7.62" y="5.08" visible="pad" length="middle" direction="pas" swaplevel="1"/>
<pin name="13" x="-7.62" y="2.54" visible="pad" length="middle" direction="pas" swaplevel="1"/>
<pin name="15" x="-7.62" y="0" visible="pad" length="middle" direction="pas" swaplevel="1"/>
<pin name="17" x="-7.62" y="-2.54" visible="pad" length="middle" direction="pas" swaplevel="1"/>
<pin name="19" x="-7.62" y="-5.08" visible="pad" length="middle" direction="pas" swaplevel="1"/>
<pin name="21" x="-7.62" y="-7.62" visible="pad" length="middle" direction="pas" swaplevel="1"/>
<pin name="23" x="-7.62" y="-10.16" visible="pad" length="middle" direction="pas" swaplevel="1"/>
<pin name="25" x="-7.62" y="-12.7" visible="pad" length="middle" direction="pas" swaplevel="1"/>
<pin name="27" x="-7.62" y="-15.24" visible="pad" length="middle" direction="pas" swaplevel="1"/>
<pin name="29" x="-7.62" y="-17.78" visible="pad" length="middle" direction="pas" swaplevel="1"/>
<pin name="31" x="-7.62" y="-20.32" visible="pad" length="middle" direction="pas" swaplevel="1"/>
<pin name="28" x="7.62" y="-15.24" visible="pad" length="middle" direction="pas" swaplevel="1" rot="R180"/>
<pin name="30" x="7.62" y="-17.78" visible="pad" length="middle" direction="pas" swaplevel="1" rot="R180"/>
<pin name="32" x="7.62" y="-20.32" visible="pad" length="middle" direction="pas" swaplevel="1" rot="R180"/>
<wire x1="-1.27" y1="-15.24" x2="-2.54" y2="-15.24" width="0.6096" layer="94"/>
<wire x1="-1.27" y1="-17.78" x2="-2.54" y2="-17.78" width="0.6096" layer="94"/>
<wire x1="-1.27" y1="-20.32" x2="-2.54" y2="-20.32" width="0.6096" layer="94"/>
<wire x1="1.27" y1="-15.24" x2="2.54" y2="-15.24" width="0.6096" layer="94"/>
<wire x1="1.27" y1="-17.78" x2="2.54" y2="-17.78" width="0.6096" layer="94"/>
<wire x1="1.27" y1="-20.32" x2="2.54" y2="-20.32" width="0.6096" layer="94"/>
</symbol>
<symbol name="M17X2">
<wire x1="1.27" y1="-5.08" x2="2.54" y2="-5.08" width="0.6096" layer="94"/>
<wire x1="1.27" y1="-7.62" x2="2.54" y2="-7.62" width="0.6096" layer="94"/>
<wire x1="1.27" y1="-10.16" x2="2.54" y2="-10.16" width="0.6096" layer="94"/>
<wire x1="3.81" y1="-21.59" x2="3.81" y2="22.86" width="0.4064" layer="94"/>
<wire x1="1.27" y1="0" x2="2.54" y2="0" width="0.6096" layer="94"/>
<wire x1="1.27" y1="-2.54" x2="2.54" y2="-2.54" width="0.6096" layer="94"/>
<wire x1="1.27" y1="2.54" x2="2.54" y2="2.54" width="0.6096" layer="94"/>
<wire x1="1.27" y1="5.08" x2="2.54" y2="5.08" width="0.6096" layer="94"/>
<wire x1="1.27" y1="7.62" x2="2.54" y2="7.62" width="0.6096" layer="94"/>
<wire x1="1.27" y1="10.16" x2="2.54" y2="10.16" width="0.6096" layer="94"/>
<wire x1="1.27" y1="12.7" x2="2.54" y2="12.7" width="0.6096" layer="94"/>
<wire x1="1.27" y1="15.24" x2="2.54" y2="15.24" width="0.6096" layer="94"/>
<wire x1="1.27" y1="17.78" x2="2.54" y2="17.78" width="0.6096" layer="94"/>
<wire x1="1.27" y1="20.32" x2="2.54" y2="20.32" width="0.6096" layer="94"/>
<text x="-5.08" y="-24.13" size="1.778" layer="96">&gt;VALUE</text>
<text x="-5.08" y="23.622" size="1.778" layer="95">&gt;NAME</text>
<pin name="26" x="7.62" y="-10.16" visible="pad" length="middle" direction="pas" swaplevel="1" rot="R180"/>
<pin name="24" x="7.62" y="-7.62" visible="pad" length="middle" direction="pas" swaplevel="1" rot="R180"/>
<pin name="22" x="7.62" y="-5.08" visible="pad" length="middle" direction="pas" swaplevel="1" rot="R180"/>
<pin name="20" x="7.62" y="-2.54" visible="pad" length="middle" direction="pas" swaplevel="1" rot="R180"/>
<pin name="18" x="7.62" y="0" visible="pad" length="middle" direction="pas" swaplevel="1" rot="R180"/>
<pin name="16" x="7.62" y="2.54" visible="pad" length="middle" direction="pas" swaplevel="1" rot="R180"/>
<pin name="14" x="7.62" y="5.08" visible="pad" length="middle" direction="pas" swaplevel="1" rot="R180"/>
<pin name="12" x="7.62" y="7.62" visible="pad" length="middle" direction="pas" swaplevel="1" rot="R180"/>
<pin name="10" x="7.62" y="10.16" visible="pad" length="middle" direction="pas" swaplevel="1" rot="R180"/>
<pin name="8" x="7.62" y="12.7" visible="pad" length="middle" direction="pas" swaplevel="1" rot="R180"/>
<pin name="6" x="7.62" y="15.24" visible="pad" length="middle" direction="pas" swaplevel="1" rot="R180"/>
<pin name="4" x="7.62" y="17.78" visible="pad" length="middle" direction="pas" swaplevel="1" rot="R180"/>
<pin name="2" x="7.62" y="20.32" visible="pad" length="middle" direction="pas" swaplevel="1" rot="R180"/>
<wire x1="-3.81" y1="22.86" x2="3.81" y2="22.86" width="0.4064" layer="94"/>
<wire x1="-1.27" y1="15.24" x2="-2.54" y2="15.24" width="0.6096" layer="94"/>
<wire x1="-1.27" y1="17.78" x2="-2.54" y2="17.78" width="0.6096" layer="94"/>
<wire x1="-1.27" y1="20.32" x2="-2.54" y2="20.32" width="0.6096" layer="94"/>
<wire x1="-3.81" y1="22.86" x2="-3.81" y2="-21.59" width="0.4064" layer="94"/>
<wire x1="3.81" y1="-21.59" x2="-3.81" y2="-21.59" width="0.4064" layer="94"/>
<wire x1="-1.27" y1="10.16" x2="-2.54" y2="10.16" width="0.6096" layer="94"/>
<wire x1="-1.27" y1="12.7" x2="-2.54" y2="12.7" width="0.6096" layer="94"/>
<wire x1="-1.27" y1="7.62" x2="-2.54" y2="7.62" width="0.6096" layer="94"/>
<wire x1="-1.27" y1="5.08" x2="-2.54" y2="5.08" width="0.6096" layer="94"/>
<wire x1="-1.27" y1="2.54" x2="-2.54" y2="2.54" width="0.6096" layer="94"/>
<wire x1="-1.27" y1="0" x2="-2.54" y2="0" width="0.6096" layer="94"/>
<wire x1="-1.27" y1="-2.54" x2="-2.54" y2="-2.54" width="0.6096" layer="94"/>
<wire x1="-1.27" y1="-5.08" x2="-2.54" y2="-5.08" width="0.6096" layer="94"/>
<wire x1="-1.27" y1="-7.62" x2="-2.54" y2="-7.62" width="0.6096" layer="94"/>
<wire x1="-1.27" y1="-10.16" x2="-2.54" y2="-10.16" width="0.6096" layer="94"/>
<pin name="1" x="-7.62" y="20.32" visible="pad" length="middle" direction="pas" swaplevel="1"/>
<pin name="3" x="-7.62" y="17.78" visible="pad" length="middle" direction="pas" swaplevel="1"/>
<pin name="5" x="-7.62" y="15.24" visible="pad" length="middle" direction="pas" swaplevel="1"/>
<pin name="7" x="-7.62" y="12.7" visible="pad" length="middle" direction="pas" swaplevel="1"/>
<pin name="9" x="-7.62" y="10.16" visible="pad" length="middle" direction="pas" swaplevel="1"/>
<pin name="11" x="-7.62" y="7.62" visible="pad" length="middle" direction="pas" swaplevel="1"/>
<pin name="13" x="-7.62" y="5.08" visible="pad" length="middle" direction="pas" swaplevel="1"/>
<pin name="15" x="-7.62" y="2.54" visible="pad" length="middle" direction="pas" swaplevel="1"/>
<pin name="17" x="-7.62" y="0" visible="pad" length="middle" direction="pas" swaplevel="1"/>
<pin name="19" x="-7.62" y="-2.54" visible="pad" length="middle" direction="pas" swaplevel="1"/>
<pin name="21" x="-7.62" y="-5.08" visible="pad" length="middle" direction="pas" swaplevel="1"/>
<pin name="23" x="-7.62" y="-7.62" visible="pad" length="middle" direction="pas" swaplevel="1"/>
<pin name="25" x="-7.62" y="-10.16" visible="pad" length="middle" direction="pas" swaplevel="1"/>
<pin name="27" x="-7.62" y="-12.7" visible="pad" length="middle" direction="pas" swaplevel="1"/>
<pin name="29" x="-7.62" y="-15.24" visible="pad" length="middle" direction="pas" swaplevel="1"/>
<pin name="31" x="-7.62" y="-17.78" visible="pad" length="middle" direction="pas" swaplevel="1"/>
<pin name="28" x="7.62" y="-12.7" visible="pad" length="middle" direction="pas" swaplevel="1" rot="R180"/>
<pin name="30" x="7.62" y="-15.24" visible="pad" length="middle" direction="pas" swaplevel="1" rot="R180"/>
<pin name="32" x="7.62" y="-17.78" visible="pad" length="middle" direction="pas" swaplevel="1" rot="R180"/>
<wire x1="-1.27" y1="-12.7" x2="-2.54" y2="-12.7" width="0.6096" layer="94"/>
<wire x1="-1.27" y1="-15.24" x2="-2.54" y2="-15.24" width="0.6096" layer="94"/>
<wire x1="-1.27" y1="-17.78" x2="-2.54" y2="-17.78" width="0.6096" layer="94"/>
<wire x1="1.27" y1="-12.7" x2="2.54" y2="-12.7" width="0.6096" layer="94"/>
<wire x1="1.27" y1="-15.24" x2="2.54" y2="-15.24" width="0.6096" layer="94"/>
<wire x1="1.27" y1="-17.78" x2="2.54" y2="-17.78" width="0.6096" layer="94"/>
<pin name="33" x="-7.62" y="-20.32" visible="pad" length="middle" direction="pas" swaplevel="1"/>
<pin name="34" x="7.62" y="-20.32" visible="pad" length="middle" direction="pas" swaplevel="1" rot="R180"/>
<wire x1="-1.27" y1="-20.32" x2="-2.54" y2="-20.32" width="0.6096" layer="94"/>
<wire x1="1.27" y1="-20.32" x2="2.54" y2="-20.32" width="0.6096" layer="94"/>
</symbol>
</symbols>
<devicesets>
<deviceset name="M16X2" prefix="JP">
<gates>
<gate name="G$1" symbol="M16X2" x="0" y="0"/>
</gates>
<devices>
<device name="" package="2X16_SMD_EDGE">
<connects>
<connect gate="G$1" pin="1" pad="1"/>
<connect gate="G$1" pin="10" pad="10"/>
<connect gate="G$1" pin="11" pad="11"/>
<connect gate="G$1" pin="12" pad="12"/>
<connect gate="G$1" pin="13" pad="13"/>
<connect gate="G$1" pin="14" pad="14"/>
<connect gate="G$1" pin="15" pad="15"/>
<connect gate="G$1" pin="16" pad="16"/>
<connect gate="G$1" pin="17" pad="17"/>
<connect gate="G$1" pin="18" pad="18"/>
<connect gate="G$1" pin="19" pad="19"/>
<connect gate="G$1" pin="2" pad="2"/>
<connect gate="G$1" pin="20" pad="20"/>
<connect gate="G$1" pin="21" pad="21"/>
<connect gate="G$1" pin="22" pad="22"/>
<connect gate="G$1" pin="23" pad="23"/>
<connect gate="G$1" pin="24" pad="24"/>
<connect gate="G$1" pin="25" pad="25"/>
<connect gate="G$1" pin="26" pad="26"/>
<connect gate="G$1" pin="27" pad="27"/>
<connect gate="G$1" pin="28" pad="28"/>
<connect gate="G$1" pin="29" pad="29"/>
<connect gate="G$1" pin="3" pad="3"/>
<connect gate="G$1" pin="30" pad="30"/>
<connect gate="G$1" pin="31" pad="31"/>
<connect gate="G$1" pin="32" pad="32"/>
<connect gate="G$1" pin="4" pad="4"/>
<connect gate="G$1" pin="5" pad="5"/>
<connect gate="G$1" pin="6" pad="6"/>
<connect gate="G$1" pin="7" pad="7"/>
<connect gate="G$1" pin="8" pad="8"/>
<connect gate="G$1" pin="9" pad="9"/>
</connects>
<technologies>
<technology name=""/>
</technologies>
</device>
</devices>
</deviceset>
<deviceset name="M17X2" prefix="J">
<gates>
<gate name="G$1" symbol="M17X2" x="0" y="0"/>
</gates>
<devices>
<device name="" package="2X17">
<connects>
<connect gate="G$1" pin="1" pad="1"/>
<connect gate="G$1" pin="10" pad="10"/>
<connect gate="G$1" pin="11" pad="11"/>
<connect gate="G$1" pin="12" pad="12"/>
<connect gate="G$1" pin="13" pad="13"/>
<connect gate="G$1" pin="14" pad="14"/>
<connect gate="G$1" pin="15" pad="15"/>
<connect gate="G$1" pin="16" pad="16"/>
<connect gate="G$1" pin="17" pad="17"/>
<connect gate="G$1" pin="18" pad="18"/>
<connect gate="G$1" pin="19" pad="19"/>
<connect gate="G$1" pin="2" pad="2"/>
<connect gate="G$1" pin="20" pad="20"/>
<connect gate="G$1" pin="21" pad="21"/>
<connect gate="G$1" pin="22" pad="22"/>
<connect gate="G$1" pin="23" pad="23"/>
<connect gate="G$1" pin="24" pad="24"/>
<connect gate="G$1" pin="25" pad="25"/>
<connect gate="G$1" pin="26" pad="26"/>
<connect gate="G$1" pin="27" pad="27"/>
<connect gate="G$1" pin="28" pad="28"/>
<connect gate="G$1" pin="29" pad="29"/>
<connect gate="G$1" pin="3" pad="3"/>
<connect gate="G$1" pin="30" pad="30"/>
<connect gate="G$1" pin="31" pad="31"/>
<connect gate="G$1" pin="32" pad="32"/>
<connect gate="G$1" pin="33" pad="33"/>
<connect gate="G$1" pin="34" pad="34"/>
<connect gate="G$1" pin="4" pad="4"/>
<connect gate="G$1" pin="5" pad="5"/>
<connect gate="G$1" pin="6" pad="6"/>
<connect gate="G$1" pin="7" pad="7"/>
<connect gate="G$1" pin="8" pad="8"/>
<connect gate="G$1" pin="9" pad="9"/>
</connects>
<technologies>
<technology name=""/>
</technologies>
</device>
</devices>
</deviceset>
</devicesets>
</library>
</libraries>
<attributes>
<attribute name="CNAME" value="EasyBoard Nano"/>
<attribute name="CREVISION" value="0.1"/>
<attribute name="DESIGNER" value="Martin Olejar"/>
</attributes>
<variantdefs>
</variantdefs>
<classes>
<class number="0" name="default" width="0" drill="0">
</class>
</classes>
<parts>
<part name="FRAME1" library="atomx_Common" deviceset="FRAME-A4L" device=""/>
<part name="JP1" library="atomx_Connectors" deviceset="M16X2" device=""/>
<part name="J1" library="atomx_Connectors" deviceset="M17X2" device=""/>
</parts>
<sheets>
<sheet>
<plain>
</plain>
<instances>
<instance part="FRAME1" gate="G$1" x="0" y="0"/>
<instance part="JP1" gate="G$1" x="49.53" y="97.79"/>
<instance part="J1" gate="G$1" x="106.68" y="96.52"/>
</instances>
<busses>
</busses>
<nets>
<net name="GND" class="0">
<segment>
<pinref part="JP1" gate="G$1" pin="29"/>
<wire x1="41.91" y1="80.01" x2="30.48" y2="80.01" width="0.1524" layer="91"/>
<label x="30.48" y="80.01" size="1.778" layer="95"/>
</segment>
<segment>
<pinref part="JP1" gate="G$1" pin="30"/>
<wire x1="57.15" y1="80.01" x2="67.31" y2="80.01" width="0.1524" layer="91"/>
<label x="60.96" y="80.01" size="1.778" layer="95"/>
</segment>
<segment>
<pinref part="JP1" gate="G$1" pin="8"/>
<wire x1="57.15" y1="107.95" x2="67.31" y2="107.95" width="0.1524" layer="91"/>
<label x="60.96" y="107.95" size="1.778" layer="95"/>
</segment>
<segment>
<pinref part="JP1" gate="G$1" pin="7"/>
<wire x1="41.91" y1="107.95" x2="30.48" y2="107.95" width="0.1524" layer="91"/>
<label x="30.48" y="107.95" size="1.778" layer="95"/>
</segment>
<segment>
<pinref part="JP1" gate="G$1" pin="3"/>
<wire x1="41.91" y1="113.03" x2="30.48" y2="113.03" width="0.1524" layer="91"/>
<label x="30.48" y="113.03" size="1.778" layer="95"/>
</segment>
<segment>
<pinref part="JP1" gate="G$1" pin="4"/>
<wire x1="57.15" y1="113.03" x2="67.31" y2="113.03" width="0.1524" layer="91"/>
<label x="60.96" y="113.03" size="1.778" layer="95"/>
</segment>
<segment>
<pinref part="J1" gate="G$1" pin="31"/>
<wire x1="99.06" y1="78.74" x2="87.63" y2="78.74" width="0.1524" layer="91"/>
<label x="87.63" y="78.74" size="1.778" layer="95"/>
</segment>
<segment>
<pinref part="J1" gate="G$1" pin="32"/>
<wire x1="114.3" y1="78.74" x2="124.46" y2="78.74" width="0.1524" layer="91"/>
<label x="118.11" y="78.74" size="1.778" layer="95"/>
</segment>
<segment>
<pinref part="J1" gate="G$1" pin="9"/>
<wire x1="99.06" y1="106.68" x2="87.63" y2="106.68" width="0.1524" layer="91"/>
<label x="87.63" y="106.68" size="1.778" layer="95"/>
</segment>
<segment>
<pinref part="J1" gate="G$1" pin="7"/>
<wire x1="99.06" y1="109.22" x2="87.63" y2="109.22" width="0.1524" layer="91"/>
<label x="87.63" y="109.22" size="1.778" layer="95"/>
</segment>
<segment>
<pinref part="J1" gate="G$1" pin="3"/>
<wire x1="99.06" y1="114.3" x2="87.63" y2="114.3" width="0.1524" layer="91"/>
<label x="87.63" y="114.3" size="1.778" layer="95"/>
</segment>
<segment>
<pinref part="J1" gate="G$1" pin="4"/>
<wire x1="114.3" y1="114.3" x2="124.46" y2="114.3" width="0.1524" layer="91"/>
<label x="118.11" y="114.3" size="1.778" layer="95"/>
</segment>
<segment>
<pinref part="J1" gate="G$1" pin="8"/>
<wire x1="114.3" y1="109.22" x2="124.46" y2="109.22" width="0.1524" layer="91"/>
<label x="118.11" y="109.22" size="1.778" layer="95"/>
</segment>
<segment>
<pinref part="J1" gate="G$1" pin="10"/>
<wire x1="114.3" y1="106.68" x2="124.46" y2="106.68" width="0.1524" layer="91"/>
<label x="118.11" y="106.68" size="1.778" layer="95"/>
</segment>
</net>
<net name="VCC" class="0">
<segment>
<pinref part="JP1" gate="G$1" pin="5"/>
<wire x1="41.91" y1="110.49" x2="30.48" y2="110.49" width="0.1524" layer="91"/>
<label x="30.48" y="110.49" size="1.778" layer="95"/>
</segment>
<segment>
<pinref part="JP1" gate="G$1" pin="6"/>
<wire x1="57.15" y1="110.49" x2="67.31" y2="110.49" width="0.1524" layer="91"/>
<label x="60.96" y="110.49" size="1.778" layer="95"/>
</segment>
<segment>
<pinref part="J1" gate="G$1" pin="5"/>
<wire x1="99.06" y1="111.76" x2="87.63" y2="111.76" width="0.1524" layer="91"/>
<label x="87.63" y="111.76" size="1.778" layer="95"/>
</segment>
<segment>
<pinref part="J1" gate="G$1" pin="6"/>
<wire x1="114.3" y1="111.76" x2="124.46" y2="111.76" width="0.1524" layer="91"/>
<label x="118.11" y="111.76" size="1.778" layer="95"/>
</segment>
</net>
<net name="PIN7" class="0">
<segment>
<pinref part="JP1" gate="G$1" pin="22"/>
<wire x1="57.15" y1="90.17" x2="67.31" y2="90.17" width="0.1524" layer="91"/>
<label x="60.96" y="90.17" size="1.778" layer="95"/>
</segment>
<segment>
<pinref part="J1" gate="G$1" pin="23"/>
<wire x1="99.06" y1="88.9" x2="87.63" y2="88.9" width="0.1524" layer="91"/>
<label x="87.63" y="88.9" size="1.778" layer="95"/>
</segment>
</net>
<net name="PIN8" class="0">
<segment>
<pinref part="JP1" gate="G$1" pin="24"/>
<wire x1="57.15" y1="87.63" x2="67.31" y2="87.63" width="0.1524" layer="91"/>
<label x="60.96" y="87.63" size="1.778" layer="95"/>
</segment>
<segment>
<pinref part="J1" gate="G$1" pin="25"/>
<wire x1="99.06" y1="86.36" x2="87.63" y2="86.36" width="0.1524" layer="91"/>
<label x="87.63" y="86.36" size="1.778" layer="95"/>
</segment>
</net>
<net name="PIN3" class="0">
<segment>
<pinref part="JP1" gate="G$1" pin="14"/>
<wire x1="57.15" y1="100.33" x2="67.31" y2="100.33" width="0.1524" layer="91"/>
<label x="60.96" y="100.33" size="1.778" layer="95"/>
</segment>
<segment>
<pinref part="J1" gate="G$1" pin="15"/>
<wire x1="99.06" y1="99.06" x2="87.63" y2="99.06" width="0.1524" layer="91"/>
<label x="87.63" y="99.06" size="1.778" layer="95"/>
</segment>
</net>
<net name="PIN2" class="0">
<segment>
<pinref part="JP1" gate="G$1" pin="12"/>
<wire x1="57.15" y1="102.87" x2="67.31" y2="102.87" width="0.1524" layer="91"/>
<label x="60.96" y="102.87" size="1.778" layer="95"/>
</segment>
<segment>
<pinref part="J1" gate="G$1" pin="13"/>
<wire x1="99.06" y1="101.6" x2="87.63" y2="101.6" width="0.1524" layer="91"/>
<label x="87.63" y="101.6" size="1.778" layer="95"/>
</segment>
</net>
<net name="PIN5" class="0">
<segment>
<pinref part="JP1" gate="G$1" pin="18"/>
<wire x1="57.15" y1="95.25" x2="67.31" y2="95.25" width="0.1524" layer="91"/>
<label x="60.96" y="95.25" size="1.778" layer="95"/>
</segment>
<segment>
<pinref part="J1" gate="G$1" pin="19"/>
<wire x1="99.06" y1="93.98" x2="87.63" y2="93.98" width="0.1524" layer="91"/>
<label x="87.63" y="93.98" size="1.778" layer="95"/>
</segment>
</net>
<net name="PIN4" class="0">
<segment>
<pinref part="JP1" gate="G$1" pin="16"/>
<wire x1="57.15" y1="97.79" x2="67.31" y2="97.79" width="0.1524" layer="91"/>
<label x="60.96" y="97.79" size="1.778" layer="95"/>
</segment>
<segment>
<pinref part="J1" gate="G$1" pin="17"/>
<wire x1="99.06" y1="96.52" x2="87.63" y2="96.52" width="0.1524" layer="91"/>
<label x="87.63" y="96.52" size="1.778" layer="95"/>
</segment>
</net>
<net name="PIN20" class="0">
<segment>
<pinref part="JP1" gate="G$1" pin="9"/>
<wire x1="41.91" y1="105.41" x2="30.48" y2="105.41" width="0.1524" layer="91"/>
<label x="30.48" y="105.41" size="1.778" layer="95"/>
</segment>
<segment>
<pinref part="J1" gate="G$1" pin="12"/>
<wire x1="114.3" y1="104.14" x2="124.46" y2="104.14" width="0.1524" layer="91"/>
<label x="118.11" y="104.14" size="1.778" layer="95"/>
</segment>
</net>
<net name="PIN6" class="0">
<segment>
<pinref part="JP1" gate="G$1" pin="20"/>
<wire x1="57.15" y1="92.71" x2="67.31" y2="92.71" width="0.1524" layer="91"/>
<label x="60.96" y="92.71" size="1.778" layer="95"/>
</segment>
<segment>
<pinref part="J1" gate="G$1" pin="21"/>
<wire x1="99.06" y1="91.44" x2="87.63" y2="91.44" width="0.1524" layer="91"/>
<label x="87.63" y="91.44" size="1.778" layer="95"/>
</segment>
</net>
<net name="PIN9" class="0">
<segment>
<pinref part="JP1" gate="G$1" pin="26"/>
<wire x1="57.15" y1="85.09" x2="67.31" y2="85.09" width="0.1524" layer="91"/>
<label x="60.96" y="85.09" size="1.778" layer="95"/>
</segment>
<segment>
<pinref part="J1" gate="G$1" pin="27"/>
<wire x1="99.06" y1="83.82" x2="87.63" y2="83.82" width="0.1524" layer="91"/>
<label x="87.63" y="83.82" size="1.778" layer="95"/>
</segment>
</net>
<net name="PIN10" class="0">
<segment>
<pinref part="JP1" gate="G$1" pin="28"/>
<wire x1="57.15" y1="82.55" x2="67.31" y2="82.55" width="0.1524" layer="91"/>
<label x="60.96" y="82.55" size="1.778" layer="95"/>
</segment>
<segment>
<pinref part="J1" gate="G$1" pin="29"/>
<wire x1="99.06" y1="81.28" x2="87.63" y2="81.28" width="0.1524" layer="91"/>
<label x="87.63" y="81.28" size="1.778" layer="95"/>
</segment>
</net>
<net name="EXT2" class="0">
<segment>
<pinref part="JP1" gate="G$1" pin="31"/>
<wire x1="41.91" y1="77.47" x2="30.48" y2="77.47" width="0.1524" layer="91"/>
<label x="30.48" y="77.47" size="1.778" layer="95"/>
</segment>
<segment>
<pinref part="J1" gate="G$1" pin="34"/>
<wire x1="114.3" y1="76.2" x2="124.46" y2="76.2" width="0.1524" layer="91"/>
<label x="118.11" y="76.2" size="1.778" layer="95"/>
</segment>
</net>
<net name="VIN" class="0">
<segment>
<pinref part="JP1" gate="G$1" pin="1"/>
<wire x1="41.91" y1="115.57" x2="30.48" y2="115.57" width="0.1524" layer="91"/>
<label x="30.48" y="115.57" size="1.778" layer="95"/>
</segment>
<segment>
<pinref part="JP1" gate="G$1" pin="2"/>
<wire x1="57.15" y1="115.57" x2="67.31" y2="115.57" width="0.1524" layer="91"/>
<label x="60.96" y="115.57" size="1.778" layer="95"/>
</segment>
<segment>
<pinref part="J1" gate="G$1" pin="1"/>
<wire x1="99.06" y1="116.84" x2="87.63" y2="116.84" width="0.1524" layer="91"/>
<label x="87.63" y="116.84" size="1.778" layer="95"/>
</segment>
<segment>
<pinref part="J1" gate="G$1" pin="2"/>
<wire x1="114.3" y1="116.84" x2="124.46" y2="116.84" width="0.1524" layer="91"/>
<label x="118.11" y="116.84" size="1.778" layer="95"/>
</segment>
</net>
<net name="EXT1" class="0">
<segment>
<pinref part="JP1" gate="G$1" pin="32"/>
<wire x1="57.15" y1="77.47" x2="67.31" y2="77.47" width="0.1524" layer="91"/>
<label x="60.96" y="77.47" size="1.778" layer="95"/>
</segment>
<segment>
<pinref part="J1" gate="G$1" pin="33"/>
<wire x1="99.06" y1="76.2" x2="87.63" y2="76.2" width="0.1524" layer="91"/>
<label x="87.63" y="76.2" size="1.778" layer="95"/>
</segment>
</net>
<net name="PIN1" class="0">
<segment>
<pinref part="JP1" gate="G$1" pin="10"/>
<wire x1="57.15" y1="105.41" x2="67.31" y2="105.41" width="0.1524" layer="91"/>
<label x="60.96" y="105.41" size="1.778" layer="95"/>
</segment>
<segment>
<pinref part="J1" gate="G$1" pin="11"/>
<wire x1="99.06" y1="104.14" x2="87.63" y2="104.14" width="0.1524" layer="91"/>
<label x="87.63" y="104.14" size="1.778" layer="95"/>
</segment>
</net>
<net name="PIN11" class="0">
<segment>
<pinref part="JP1" gate="G$1" pin="27"/>
<wire x1="41.91" y1="82.55" x2="30.48" y2="82.55" width="0.1524" layer="91"/>
<label x="30.48" y="82.55" size="1.778" layer="95"/>
</segment>
<segment>
<pinref part="J1" gate="G$1" pin="30"/>
<wire x1="114.3" y1="81.28" x2="124.46" y2="81.28" width="0.1524" layer="91"/>
<label x="118.11" y="81.28" size="1.778" layer="95"/>
</segment>
</net>
<net name="PIN12" class="0">
<segment>
<pinref part="JP1" gate="G$1" pin="25"/>
<wire x1="41.91" y1="85.09" x2="30.48" y2="85.09" width="0.1524" layer="91"/>
<label x="30.48" y="85.09" size="1.778" layer="95"/>
</segment>
<segment>
<pinref part="J1" gate="G$1" pin="28"/>
<wire x1="114.3" y1="83.82" x2="124.46" y2="83.82" width="0.1524" layer="91"/>
<label x="118.11" y="83.82" size="1.778" layer="95"/>
</segment>
</net>
<net name="PIN13" class="0">
<segment>
<pinref part="JP1" gate="G$1" pin="23"/>
<wire x1="41.91" y1="87.63" x2="30.48" y2="87.63" width="0.1524" layer="91"/>
<label x="30.48" y="87.63" size="1.778" layer="95"/>
</segment>
<segment>
<pinref part="J1" gate="G$1" pin="26"/>
<wire x1="114.3" y1="86.36" x2="124.46" y2="86.36" width="0.1524" layer="91"/>
<label x="118.11" y="86.36" size="1.778" layer="95"/>
</segment>
</net>
<net name="PIN14" class="0">
<segment>
<pinref part="JP1" gate="G$1" pin="21"/>
<wire x1="41.91" y1="90.17" x2="30.48" y2="90.17" width="0.1524" layer="91"/>
<label x="30.48" y="90.17" size="1.778" layer="95"/>
</segment>
<segment>
<pinref part="J1" gate="G$1" pin="24"/>
<wire x1="114.3" y1="88.9" x2="124.46" y2="88.9" width="0.1524" layer="91"/>
<label x="118.11" y="88.9" size="1.778" layer="95"/>
</segment>
</net>
<net name="PIN15" class="0">
<segment>
<pinref part="JP1" gate="G$1" pin="19"/>
<wire x1="41.91" y1="92.71" x2="30.48" y2="92.71" width="0.1524" layer="91"/>
<label x="30.48" y="92.71" size="1.778" layer="95"/>
</segment>
<segment>
<pinref part="J1" gate="G$1" pin="22"/>
<wire x1="114.3" y1="91.44" x2="124.46" y2="91.44" width="0.1524" layer="91"/>
<label x="118.11" y="91.44" size="1.778" layer="95"/>
</segment>
</net>
<net name="PIN16" class="0">
<segment>
<pinref part="JP1" gate="G$1" pin="17"/>
<wire x1="41.91" y1="95.25" x2="30.48" y2="95.25" width="0.1524" layer="91"/>
<label x="30.48" y="95.25" size="1.778" layer="95"/>
</segment>
<segment>
<pinref part="J1" gate="G$1" pin="20"/>
<wire x1="114.3" y1="93.98" x2="124.46" y2="93.98" width="0.1524" layer="91"/>
<label x="118.11" y="93.98" size="1.778" layer="95"/>
</segment>
</net>
<net name="PIN17" class="0">
<segment>
<pinref part="JP1" gate="G$1" pin="15"/>
<wire x1="41.91" y1="97.79" x2="30.48" y2="97.79" width="0.1524" layer="91"/>
<label x="30.48" y="97.79" size="1.778" layer="95"/>
</segment>
<segment>
<pinref part="J1" gate="G$1" pin="18"/>
<wire x1="114.3" y1="96.52" x2="124.46" y2="96.52" width="0.1524" layer="91"/>
<label x="118.11" y="96.52" size="1.778" layer="95"/>
</segment>
</net>
<net name="PIN18" class="0">
<segment>
<pinref part="JP1" gate="G$1" pin="13"/>
<wire x1="41.91" y1="100.33" x2="30.48" y2="100.33" width="0.1524" layer="91"/>
<label x="30.48" y="100.33" size="1.778" layer="95"/>
</segment>
<segment>
<pinref part="J1" gate="G$1" pin="16"/>
<wire x1="114.3" y1="99.06" x2="124.46" y2="99.06" width="0.1524" layer="91"/>
<label x="118.11" y="99.06" size="1.778" layer="95"/>
</segment>
</net>
<net name="PIN19" class="0">
<segment>
<pinref part="JP1" gate="G$1" pin="11"/>
<wire x1="41.91" y1="102.87" x2="30.48" y2="102.87" width="0.1524" layer="91"/>
<label x="30.48" y="102.87" size="1.778" layer="95"/>
</segment>
<segment>
<pinref part="J1" gate="G$1" pin="14"/>
<wire x1="114.3" y1="101.6" x2="124.46" y2="101.6" width="0.1524" layer="91"/>
<label x="118.11" y="101.6" size="1.778" layer="95"/>
</segment>
</net>
</nets>
</sheet>
</sheets>
</schematic>
</drawing>
</eagle>
