<?xml version="1.0" encoding="utf-8"?>
<!DOCTYPE eagle SYSTEM "eagle.dtd">
<eagle version="7.3.0">
<drawing>
<settings>
<setting alwaysvectorfont="yes"/>
<setting verticaltext="up"/>
</settings>
<grid distance="0.05" unitdist="mm" unit="mm" style="lines" multiple="1" display="no" altdistance="0.025" altunitdist="inch" altunit="inch"/>
<layers>
<layer number="1" name="Top" color="4" fill="1" visible="yes" active="yes"/>
<layer number="16" name="Bottom" color="1" fill="1" visible="yes" active="yes"/>
<layer number="17" name="Pads" color="2" fill="1" visible="yes" active="yes"/>
<layer number="18" name="Vias" color="2" fill="1" visible="yes" active="yes"/>
<layer number="19" name="Unrouted" color="6" fill="1" visible="yes" active="yes"/>
<layer number="20" name="Dimension" color="15" fill="1" visible="yes" active="yes"/>
<layer number="21" name="tPlace" color="7" fill="1" visible="yes" active="yes"/>
<layer number="22" name="bPlace" color="7" fill="1" visible="yes" active="yes"/>
<layer number="23" name="tOrigins" color="15" fill="1" visible="yes" active="yes"/>
<layer number="24" name="bOrigins" color="15" fill="1" visible="yes" active="yes"/>
<layer number="25" name="tNames" color="7" fill="1" visible="yes" active="yes"/>
<layer number="26" name="bNames" color="7" fill="1" visible="yes" active="yes"/>
<layer number="27" name="tValues" color="7" fill="1" visible="yes" active="yes"/>
<layer number="28" name="bValues" color="7" fill="1" visible="yes" active="yes"/>
<layer number="29" name="tStop" color="7" fill="3" visible="yes" active="yes"/>
<layer number="30" name="bStop" color="7" fill="6" visible="yes" active="yes"/>
<layer number="31" name="tCream" color="7" fill="4" visible="no" active="yes"/>
<layer number="32" name="bCream" color="7" fill="5" visible="no" active="yes"/>
<layer number="33" name="tFinish" color="6" fill="3" visible="no" active="yes"/>
<layer number="34" name="bFinish" color="6" fill="6" visible="no" active="yes"/>
<layer number="35" name="tGlue" color="7" fill="4" visible="no" active="yes"/>
<layer number="36" name="bGlue" color="7" fill="5" visible="no" active="yes"/>
<layer number="37" name="tTest" color="7" fill="1" visible="no" active="yes"/>
<layer number="38" name="bTest" color="7" fill="1" visible="no" active="yes"/>
<layer number="39" name="tKeepout" color="4" fill="11" visible="yes" active="yes"/>
<layer number="40" name="bKeepout" color="1" fill="11" visible="yes" active="yes"/>
<layer number="41" name="tRestrict" color="4" fill="10" visible="yes" active="yes"/>
<layer number="42" name="bRestrict" color="1" fill="10" visible="yes" active="yes"/>
<layer number="43" name="vRestrict" color="2" fill="10" visible="yes" active="yes"/>
<layer number="44" name="Drills" color="7" fill="1" visible="no" active="yes"/>
<layer number="45" name="Holes" color="7" fill="1" visible="no" active="yes"/>
<layer number="46" name="Milling" color="3" fill="1" visible="no" active="yes"/>
<layer number="47" name="Measures" color="7" fill="1" visible="no" active="yes"/>
<layer number="48" name="Document" color="7" fill="1" visible="yes" active="yes"/>
<layer number="49" name="Reference" color="7" fill="1" visible="yes" active="yes"/>
<layer number="50" name="dxf" color="7" fill="1" visible="no" active="no"/>
<layer number="51" name="tDocu" color="7" fill="1" visible="yes" active="yes"/>
<layer number="52" name="bDocu" color="7" fill="1" visible="yes" active="yes"/>
<layer number="53" name="tGND_GNDA" color="7" fill="9" visible="no" active="no"/>
<layer number="54" name="bGND_GNDA" color="1" fill="9" visible="no" active="no"/>
<layer number="56" name="wert" color="7" fill="1" visible="no" active="no"/>
<layer number="57" name="tCAD" color="7" fill="1" visible="no" active="no"/>
<layer number="90" name="Modules" color="5" fill="1" visible="no" active="no"/>
<layer number="91" name="Nets" color="2" fill="1" visible="no" active="no"/>
<layer number="92" name="Busses" color="1" fill="1" visible="no" active="no"/>
<layer number="93" name="Pins" color="2" fill="1" visible="no" active="no"/>
<layer number="94" name="Symbols" color="4" fill="1" visible="no" active="no"/>
<layer number="95" name="Names" color="7" fill="1" visible="no" active="no"/>
<layer number="96" name="Values" color="7" fill="1" visible="no" active="no"/>
<layer number="97" name="Info" color="7" fill="1" visible="no" active="no"/>
<layer number="98" name="Guide" color="6" fill="1" visible="no" active="no"/>
<layer number="99" name="SpiceOrder" color="7" fill="1" visible="no" active="no"/>
<layer number="100" name="Muster" color="7" fill="1" visible="no" active="no"/>
<layer number="101" name="Patch_Top" color="12" fill="4" visible="yes" active="yes"/>
<layer number="102" name="Vscore" color="7" fill="1" visible="yes" active="yes"/>
<layer number="103" name="tMap" color="7" fill="1" visible="yes" active="yes"/>
<layer number="104" name="Name" color="16" fill="1" visible="yes" active="yes"/>
<layer number="105" name="tPlate" color="7" fill="1" visible="yes" active="yes"/>
<layer number="106" name="bPlate" color="7" fill="1" visible="yes" active="yes"/>
<layer number="107" name="Crop" color="7" fill="1" visible="yes" active="yes"/>
<layer number="108" name="tplace-old" color="10" fill="1" visible="yes" active="yes"/>
<layer number="109" name="ref-old" color="11" fill="1" visible="yes" active="yes"/>
<layer number="110" name="fp0" color="7" fill="1" visible="yes" active="yes"/>
<layer number="111" name="LPC17xx" color="7" fill="1" visible="yes" active="yes"/>
<layer number="112" name="tSilk" color="7" fill="1" visible="yes" active="yes"/>
<layer number="113" name="IDFDebug" color="4" fill="1" visible="yes" active="yes"/>
<layer number="116" name="Patch_BOT" color="9" fill="4" visible="yes" active="yes"/>
<layer number="121" name="_tsilk" color="7" fill="1" visible="yes" active="yes"/>
<layer number="122" name="_bsilk" color="7" fill="1" visible="yes" active="yes"/>
<layer number="123" name="tTestmark" color="7" fill="1" visible="yes" active="yes"/>
<layer number="124" name="bTestmark" color="7" fill="1" visible="yes" active="yes"/>
<layer number="125" name="_tNames" color="7" fill="1" visible="yes" active="yes"/>
<layer number="126" name="_bNames" color="7" fill="1" visible="yes" active="yes"/>
<layer number="127" name="_tValues" color="7" fill="1" visible="yes" active="yes"/>
<layer number="128" name="_bValues" color="7" fill="1" visible="yes" active="yes"/>
<layer number="131" name="tAdjust" color="7" fill="1" visible="yes" active="yes"/>
<layer number="132" name="bAdjust" color="7" fill="1" visible="yes" active="yes"/>
<layer number="144" name="Drill_legend" color="7" fill="1" visible="yes" active="yes"/>
<layer number="150" name="Notes" color="7" fill="1" visible="yes" active="yes"/>
<layer number="151" name="HeatSink" color="7" fill="1" visible="yes" active="yes"/>
<layer number="152" name="_bDocu" color="7" fill="1" visible="yes" active="yes"/>
<layer number="153" name="FabDoc1" color="7" fill="1" visible="yes" active="yes"/>
<layer number="154" name="FabDoc2" color="7" fill="1" visible="yes" active="yes"/>
<layer number="155" name="FabDoc3" color="7" fill="1" visible="yes" active="yes"/>
<layer number="199" name="Contour" color="7" fill="1" visible="yes" active="yes"/>
<layer number="200" name="200bmp" color="1" fill="10" visible="yes" active="yes"/>
<layer number="201" name="201bmp" color="2" fill="10" visible="yes" active="yes"/>
<layer number="202" name="202bmp" color="3" fill="10" visible="yes" active="yes"/>
<layer number="203" name="203bmp" color="4" fill="10" visible="yes" active="yes"/>
<layer number="204" name="204bmp" color="5" fill="10" visible="yes" active="yes"/>
<layer number="205" name="205bmp" color="6" fill="10" visible="yes" active="yes"/>
<layer number="206" name="206bmp" color="7" fill="10" visible="yes" active="yes"/>
<layer number="207" name="207bmp" color="8" fill="10" visible="yes" active="yes"/>
<layer number="208" name="208bmp" color="9" fill="10" visible="yes" active="yes"/>
<layer number="209" name="209bmp" color="7" fill="1" visible="yes" active="yes"/>
<layer number="210" name="210bmp" color="7" fill="1" visible="yes" active="yes"/>
<layer number="211" name="211bmp" color="7" fill="1" visible="yes" active="yes"/>
<layer number="212" name="212bmp" color="7" fill="1" visible="yes" active="yes"/>
<layer number="213" name="213bmp" color="7" fill="1" visible="yes" active="yes"/>
<layer number="214" name="214bmp" color="7" fill="1" visible="yes" active="yes"/>
<layer number="215" name="215bmp" color="7" fill="1" visible="yes" active="yes"/>
<layer number="216" name="216bmp" color="7" fill="1" visible="yes" active="yes"/>
<layer number="217" name="217bmp" color="18" fill="1" visible="no" active="no"/>
<layer number="218" name="218bmp" color="19" fill="1" visible="no" active="no"/>
<layer number="219" name="219bmp" color="20" fill="1" visible="no" active="no"/>
<layer number="220" name="220bmp" color="21" fill="1" visible="no" active="no"/>
<layer number="221" name="221bmp" color="22" fill="1" visible="no" active="no"/>
<layer number="222" name="222bmp" color="23" fill="1" visible="no" active="no"/>
<layer number="223" name="223bmp" color="24" fill="1" visible="no" active="no"/>
<layer number="224" name="224bmp" color="25" fill="1" visible="no" active="no"/>
<layer number="231" name="Eagle3D_PG1" color="14" fill="1" visible="yes" active="yes"/>
<layer number="232" name="Eagle3D_PG2" color="14" fill="2" visible="yes" active="yes"/>
<layer number="233" name="Eagle3D_PG3" color="14" fill="4" visible="yes" active="yes"/>
<layer number="248" name="Housing" color="7" fill="1" visible="yes" active="yes"/>
<layer number="249" name="Edge" color="7" fill="1" visible="yes" active="yes"/>
<layer number="250" name="Descript" color="3" fill="1" visible="no" active="no"/>
<layer number="251" name="SMDround" color="12" fill="11" visible="no" active="no"/>
<layer number="254" name="cooling" color="7" fill="1" visible="yes" active="yes"/>
</layers>
<board>
<plain>
<text x="1.9" y="13.59" size="1.016" layer="16" font="vector" ratio="15" rot="MR270">mcutech.eu</text>
<text x="7.07" y="12.59" size="0.8128" layer="21" font="vector" ratio="15">C10
C13</text>
<text x="19.21" y="3.14" size="1.27" layer="22" font="vector" ratio="15" rot="MR0">EBN-I2SPA</text>
</plain>
<libraries>
<library name="atomx_RLC">
<packages>
<package name="SMC_C">
<description>&lt;b&gt;Chip Capacitor &lt;/b&gt; Polar tantalum capacitors with solid electrolyte&lt;p&gt;
Siemens Matsushita Components B 45 194, B 45 197, B 45 198&lt;br&gt;
Source: www.farnell.com/datasheets/247.pdf</description>
<wire x1="-2.85" y1="1.55" x2="2.85" y2="1.55" width="0.1016" layer="51"/>
<wire x1="2.85" y1="1.55" x2="2.85" y2="-1.55" width="0.1016" layer="51"/>
<wire x1="2.85" y1="-1.55" x2="-2.85" y2="-1.55" width="0.1016" layer="51"/>
<wire x1="-2.85" y1="-1.55" x2="-2.85" y2="1.55" width="0.1016" layer="51"/>
<smd name="+" x="-2.5" y="0" dx="2.4" dy="2.4" layer="1"/>
<smd name="-" x="2.5" y="0" dx="2.4" dy="2.4" layer="1" rot="R180"/>
<text x="-1.905" y="1.905" size="1.016" layer="25">&gt;NAME</text>
<text x="-1.905" y="-2.54" size="1.016" layer="27">&gt;VALUE</text>
<rectangle x1="-3" y1="-1.1" x2="-2.8" y2="1.1" layer="51"/>
<rectangle x1="2.8" y1="-1.1" x2="3" y2="1.1" layer="51" rot="R180"/>
<rectangle x1="-2.85" y1="-1.55" x2="-1.9" y2="1.55" layer="51"/>
</package>
<package name="C1206">
<description>&lt;b&gt;CAPACITOR&lt;/b&gt;&lt;p&gt;
chip</description>
<wire x1="-0.965" y1="0.787" x2="0.965" y2="0.787" width="0.1016" layer="51"/>
<wire x1="-0.965" y1="-0.787" x2="0.965" y2="-0.787" width="0.1016" layer="51"/>
<smd name="1" x="-1.4" y="0" dx="1.6" dy="1.8" layer="1"/>
<smd name="2" x="1.4" y="0" dx="1.6" dy="1.8" layer="1"/>
<text x="-1.27" y="1.143" size="1.27" layer="25">&gt;NAME</text>
<text x="-1.27" y="-2.413" size="1.27" layer="27">&gt;VALUE</text>
<rectangle x1="-1.7018" y1="-0.8509" x2="-0.9517" y2="0.8491" layer="51"/>
<rectangle x1="0.9517" y1="-0.8491" x2="1.7018" y2="0.8509" layer="51"/>
<rectangle x1="-0.1999" y1="-0.4001" x2="0.1999" y2="0.4001" layer="35"/>
</package>
<package name="C0805">
<description>&lt;b&gt;CAPACITOR&lt;/b&gt;&lt;p&gt;
Pad definition corrected 2006.05.15, librarian@cadsoft.de</description>
<wire x1="-0.381" y1="0.66" x2="0.381" y2="0.66" width="0.1016" layer="51"/>
<wire x1="-0.356" y1="-0.66" x2="0.381" y2="-0.66" width="0.1016" layer="51"/>
<smd name="1" x="-0.95" y="0" dx="1.2" dy="1.5" layer="1"/>
<smd name="2" x="0.95" y="0" dx="1.2" dy="1.5" layer="1"/>
<text x="-1.651" y="1.016" size="0.6096" layer="25">&gt;NAME</text>
<text x="-1.651" y="-1.651" size="0.6096" layer="27">&gt;VALUE</text>
<rectangle x1="-1.0922" y1="-0.7239" x2="-0.3421" y2="0.7262" layer="51"/>
<rectangle x1="0.3556" y1="-0.7239" x2="1.1057" y2="0.7262" layer="51"/>
<rectangle x1="-0.1001" y1="-0.4001" x2="0.1001" y2="0.4001" layer="35"/>
</package>
<package name="C0603">
<description>&lt;b&gt;CAPACITOR&lt;/b&gt;&lt;p&gt;
chip</description>
<wire x1="-0.356" y1="0.432" x2="0.356" y2="0.432" width="0.1016" layer="51"/>
<wire x1="-0.356" y1="-0.419" x2="0.356" y2="-0.419" width="0.1016" layer="51"/>
<smd name="1" x="-0.84" y="0" dx="0.9" dy="1" layer="1"/>
<smd name="2" x="0.84" y="0" dx="0.9" dy="1" layer="1"/>
<text x="-1.397" y="0.762" size="0.8128" layer="25" font="vector" ratio="15">&gt;NAME</text>
<rectangle x1="-0.8382" y1="-0.4699" x2="-0.3381" y2="0.4801" layer="51"/>
<rectangle x1="0.3302" y1="-0.4699" x2="0.8303" y2="0.4801" layer="51"/>
<rectangle x1="-0.1999" y1="-0.3" x2="0.1999" y2="0.3" layer="35"/>
</package>
<package name="R0603">
<description>&lt;b&gt;RESISTOR&lt;/b&gt;&lt;p&gt;
chip</description>
<wire x1="-0.432" y1="-0.356" x2="0.432" y2="-0.356" width="0.1524" layer="51"/>
<wire x1="0.432" y1="0.356" x2="-0.432" y2="0.356" width="0.1524" layer="51"/>
<smd name="1" x="-0.84" y="0" dx="0.9" dy="1" layer="1"/>
<smd name="2" x="0.84" y="0" dx="0.9" dy="1" layer="1"/>
<text x="-0.635" y="1.27" size="0.8128" layer="25" font="vector" ratio="15">&gt;NAME</text>
<rectangle x1="0.4318" y1="-0.4318" x2="0.8382" y2="0.4318" layer="51"/>
<rectangle x1="-0.8382" y1="-0.4318" x2="-0.4318" y2="0.4318" layer="51"/>
<rectangle x1="-0.1999" y1="-0.4001" x2="0.1999" y2="0.4001" layer="35"/>
</package>
<package name="L0603">
<description>&lt;b&gt;INDUCTOR&lt;/b&gt;&lt;p&gt;
chip</description>
<wire x1="-0.432" y1="-0.356" x2="0.432" y2="-0.356" width="0.1524" layer="51"/>
<wire x1="0.432" y1="0.356" x2="-0.432" y2="0.356" width="0.1524" layer="51"/>
<smd name="1" x="-0.84" y="0" dx="0.9" dy="1" layer="1"/>
<smd name="2" x="0.84" y="0" dx="0.9" dy="1" layer="1"/>
<text x="-1.143" y="1.016" size="0.8128" layer="25" font="vector" ratio="15">&gt;NAME</text>
<rectangle x1="0.4318" y1="-0.4318" x2="0.8382" y2="0.4318" layer="51"/>
<rectangle x1="-0.8382" y1="-0.4318" x2="-0.4318" y2="0.4318" layer="51"/>
</package>
<package name="L0805">
<description>&lt;b&gt;INDUCTOR&lt;/b&gt;&lt;p&gt;
chip</description>
<wire x1="-0.41" y1="0.635" x2="0.41" y2="0.635" width="0.1524" layer="51"/>
<wire x1="-0.41" y1="-0.635" x2="0.41" y2="-0.635" width="0.1524" layer="51"/>
<smd name="1" x="-0.95" y="0" dx="1.2" dy="1.5" layer="1"/>
<smd name="2" x="0.95" y="0" dx="1.2" dy="1.5" layer="1"/>
<text x="-1.397" y="1.27" size="0.6096" layer="25">&gt;NAME</text>
<text x="-1.397" y="-1.778" size="0.6096" layer="27">&gt;VALUE</text>
<rectangle x1="0.4064" y1="-0.6985" x2="1.0564" y2="0.7015" layer="51"/>
<rectangle x1="-1.0668" y1="-0.6985" x2="-0.4168" y2="0.7015" layer="51"/>
</package>
</packages>
</library>
<library name="atomx_Boards">
<packages>
<package name="FRDM-N28P-SHIELD">
<pad name="1" x="-16.51" y="-7.62" drill="1.4" diameter="2.2" shape="square" rot="R90"/>
<pad name="2" x="-13.97" y="-7.62" drill="1.4" diameter="2.2" shape="octagon" rot="R90"/>
<pad name="7" x="-1.27" y="-7.62" drill="1.4" diameter="2.2" shape="octagon" rot="R90"/>
<pad name="8" x="1.27" y="-7.62" drill="1.4" diameter="2.2" shape="octagon" rot="R90"/>
<pad name="3" x="-11.43" y="-7.62" drill="1.4" diameter="2.2" shape="octagon" rot="R90"/>
<pad name="4" x="-8.89" y="-7.62" drill="1.4" diameter="2.2" shape="octagon" rot="R90"/>
<pad name="6" x="-3.81" y="-7.62" drill="1.4" diameter="2.2" shape="octagon" rot="R90"/>
<pad name="5" x="-6.35" y="-7.62" drill="1.4" diameter="2.2" shape="octagon" rot="R90"/>
<pad name="9" x="3.81" y="-7.62" drill="1.4" diameter="2.2" shape="octagon" rot="R90"/>
<pad name="10" x="6.35" y="-7.62" drill="1.4" diameter="2.2" shape="octagon" rot="R90"/>
<pad name="11" x="8.89" y="-7.62" drill="1.4" diameter="2.2" shape="octagon" rot="R90"/>
<pad name="12" x="11.43" y="-7.62" drill="1.4" diameter="2.2" shape="octagon" rot="R90"/>
<pad name="13" x="13.97" y="-7.62" drill="1.4" diameter="2.2" shape="octagon" rot="R90"/>
<pad name="14" x="16.51" y="-7.62" drill="1.4" diameter="2.2" shape="octagon" rot="R90"/>
<pad name="15" x="16.51" y="7.62" drill="1.4" diameter="2.2" shape="octagon" rot="R90"/>
<pad name="16" x="13.97" y="7.62" drill="1.4" diameter="2.2" shape="octagon" rot="R90"/>
<pad name="17" x="11.43" y="7.62" drill="1.4" diameter="2.2" shape="octagon" rot="R90"/>
<pad name="18" x="8.89" y="7.62" drill="1.4" diameter="2.2" shape="octagon" rot="R90"/>
<pad name="19" x="6.35" y="7.62" drill="1.4" diameter="2.2" shape="octagon" rot="R90"/>
<pad name="20" x="3.81" y="7.62" drill="1.4" diameter="2.2" shape="octagon" rot="R90"/>
<pad name="21" x="1.27" y="7.62" drill="1.4" diameter="2.2" shape="octagon" rot="R90"/>
<pad name="22" x="-1.27" y="7.62" drill="1.4" diameter="2.2" shape="octagon" rot="R90"/>
<pad name="23" x="-3.81" y="7.62" drill="1.4" diameter="2.2" shape="octagon" rot="R90"/>
<pad name="24" x="-6.35" y="7.62" drill="1.4" diameter="2.2" shape="octagon" rot="R90"/>
<pad name="25" x="-8.89" y="7.62" drill="1.4" diameter="2.2" shape="octagon" rot="R90"/>
<pad name="26" x="-11.43" y="7.62" drill="1.4" diameter="2.2" shape="octagon" rot="R90"/>
<pad name="27" x="-13.97" y="7.62" drill="1.4" diameter="2.2" shape="octagon" rot="R90"/>
<pad name="28" x="-16.51" y="7.62" drill="1.4" diameter="2.2" shape="octagon" rot="R90"/>
<wire x1="-17.8" y1="-9" x2="-17.8" y2="-6.2" width="0.127" layer="21"/>
<wire x1="-17.8" y1="6.2" x2="-17.8" y2="9" width="0.127" layer="21"/>
<wire x1="17.8" y1="9" x2="17.8" y2="6.2" width="0.127" layer="21"/>
<wire x1="17.8" y1="-6.2" x2="17.8" y2="-9" width="0.127" layer="21"/>
<wire x1="-18" y1="9" x2="18" y2="9" width="0.127" layer="20"/>
<wire x1="18" y1="9" x2="18" y2="-9" width="0.127" layer="20"/>
<wire x1="18" y1="-9" x2="-18" y2="-9" width="0.127" layer="20"/>
<wire x1="-18" y1="-9" x2="-18" y2="9" width="0.127" layer="20"/>
<wire x1="-17.8" y1="6.2" x2="17.8" y2="6.2" width="0.127" layer="21"/>
<wire x1="-17.8" y1="-6.2" x2="17.8" y2="-6.2" width="0.127" layer="21"/>
<dimension x1="18" y1="-9.2" x2="-18" y2="-9.2" x3="0" y3="-14.74" textsize="1.27" layer="47" dtype="horizontal" visible="yes"/>
<dimension x1="-17.8" y1="-6.2" x2="-17.8" y2="6.2" x3="-25.4" y3="0" textsize="1.27" layer="47" dtype="horizontal"/>
<dimension x1="18" y1="9" x2="18" y2="-9" x3="24.12" y3="0" textsize="1.27" layer="47" visible="yes"/>
</package>
</packages>
</library>
<library name="atomx_Common">
<packages>
<package name="OSHW-LOGO-S">
<polygon width="0.15" layer="21">
<vertex x="0.3947" y="-0.9528" curve="9.498218"/>
<vertex x="0.5465" y="-0.8746"/>
<vertex x="0.9235" y="-1.182"/>
<vertex x="1.182" y="-0.9235"/>
<vertex x="0.8746" y="-0.5465" curve="19.000773"/>
<vertex x="1.0049" y="-0.232"/>
<vertex x="1.4888" y="-0.1828"/>
<vertex x="1.4888" y="0.1828"/>
<vertex x="1.0049" y="0.232" curve="19.000773"/>
<vertex x="0.8746" y="0.5465"/>
<vertex x="1.182" y="0.9235"/>
<vertex x="0.9235" y="1.182"/>
<vertex x="0.5465" y="0.8746" curve="19.000773"/>
<vertex x="0.232" y="1.0049"/>
<vertex x="0.1828" y="1.4888"/>
<vertex x="-0.1828" y="1.4888"/>
<vertex x="-0.232" y="1.0049" curve="19.000773"/>
<vertex x="-0.5465" y="0.8746"/>
<vertex x="-0.9235" y="1.182"/>
<vertex x="-1.182" y="0.9235"/>
<vertex x="-0.8746" y="0.5465" curve="19.000773"/>
<vertex x="-1.0049" y="0.232"/>
<vertex x="-1.4888" y="0.1828"/>
<vertex x="-1.4888" y="-0.1828"/>
<vertex x="-1.0049" y="-0.232" curve="19.000773"/>
<vertex x="-0.8746" y="-0.5465"/>
<vertex x="-1.182" y="-0.9235"/>
<vertex x="-0.9235" y="-1.182"/>
<vertex x="-0.5465" y="-0.8746" curve="9.498218"/>
<vertex x="-0.3947" y="-0.9528"/>
<vertex x="-0.1794" y="-0.4331" curve="-67.514699"/>
<vertex x="-0.4688" y="0" curve="-247.473915"/>
<vertex x="0.1794" y="-0.4331"/>
</polygon>
</package>
</packages>
</library>
<library name="atomx_Connectors">
<packages>
<package name="JUMPER-SMD-S1X">
<wire x1="0.947" y1="-0.666" x2="-0.947" y2="-0.666" width="0.1524" layer="21"/>
<wire x1="0.947" y1="0.666" x2="1.151" y2="0.462" width="0.1524" layer="21" curve="-90"/>
<wire x1="-1.151" y1="0.462" x2="-0.997" y2="0.666" width="0.1524" layer="21" curve="-90"/>
<wire x1="-1.151" y1="-0.462" x2="-0.947" y2="-0.666" width="0.1524" layer="21" curve="90"/>
<wire x1="0.947" y1="-0.666" x2="1.151" y2="-0.462" width="0.1524" layer="21" curve="90"/>
<wire x1="1.151" y1="-0.462" x2="1.151" y2="0.462" width="0.1524" layer="21"/>
<wire x1="-1.151" y1="-0.462" x2="-1.151" y2="0.462" width="0.1524" layer="21"/>
<wire x1="-0.997" y1="0.666" x2="0.947" y2="0.666" width="0.1524" layer="21"/>
<wire x1="0.716" y1="0" x2="1.124" y2="0" width="0.1524" layer="51"/>
<wire x1="-0.716" y1="0" x2="-1.124" y2="0" width="0.1524" layer="51"/>
<wire x1="-0.2" y1="-0.1" x2="-0.2" y2="0.1" width="0.8128" layer="51" curve="-180" cap="flat"/>
<wire x1="0.2" y1="0.1" x2="0.2" y2="-0.1" width="0.8128" layer="51" curve="-180" cap="flat"/>
<smd name="1" x="-0.7" y="0" dx="0.6" dy="1" layer="1"/>
<smd name="2" x="0.7" y="0" dx="0.6" dy="1" layer="1"/>
<text x="-1.261" y="1.043" size="0.6096" layer="25" ratio="10">&gt;NAME</text>
<polygon width="0.1" layer="1">
<vertex x="-0.45" y="0.45"/>
<vertex x="-0.03" y="0.45"/>
<vertex x="-0.43" y="0.05"/>
<vertex x="-0.43" y="-0.05"/>
<vertex x="-0.03" y="-0.45"/>
<vertex x="-0.45" y="-0.45"/>
</polygon>
<polygon width="0.1" layer="1">
<vertex x="0.45" y="0.45"/>
<vertex x="0.35" y="0.45"/>
<vertex x="0.35" y="0.4"/>
<vertex x="-0.05" y="0"/>
<vertex x="0.35" y="-0.4"/>
<vertex x="0.35" y="-0.45"/>
<vertex x="0.45" y="-0.45"/>
</polygon>
<rectangle x1="-0.4" y1="-0.54" x2="0.4" y2="0.54" layer="29"/>
</package>
<package name="1X04-1.25MM_SMD">
<smd name="1" x="0" y="0" dx="1.8" dy="0.8" layer="1" rot="R90"/>
<smd name="2" x="1.25" y="0" dx="1.8" dy="0.8" layer="1" rot="R90"/>
<smd name="3" x="2.5" y="0" dx="1.8" dy="0.8" layer="1" rot="R90"/>
<smd name="4" x="3.75" y="0" dx="1.8" dy="0.8" layer="1" rot="R90"/>
<smd name="P$5" x="-3" y="-3" dx="3.5" dy="2.4" layer="1" rot="R90"/>
<smd name="P$6" x="6.75" y="-3" dx="3.5" dy="2.4" layer="1" rot="R90"/>
<wire x1="-0.65" y1="0" x2="-3.1" y2="0" width="0.2" layer="21"/>
<wire x1="-3.1" y1="0" x2="-3.1" y2="-1" width="0.2" layer="21"/>
<wire x1="4.4" y1="0" x2="6.8" y2="0" width="0.2" layer="21"/>
<wire x1="6.8" y1="0" x2="6.8" y2="-1" width="0.2" layer="21"/>
<wire x1="-1.55" y1="-4.7" x2="5.3" y2="-4.7" width="0.2" layer="21"/>
<text x="0" y="-3.7" size="0.8128" layer="25" font="vector" ratio="15">&gt;NAME</text>
<circle x="-1.1" y="0.6" radius="0.22360625" width="0.2" layer="25"/>
</package>
<package name="JUMPER-SMD-S2X">
<wire x1="1.639" y1="-0.656" x2="-1.419" y2="-0.656" width="0.1524" layer="21"/>
<wire x1="1.639" y1="0.646" x2="1.863" y2="0.362" width="0.1524" layer="21" curve="-90"/>
<wire x1="-1.663" y1="0.362" x2="-1.449" y2="0.646" width="0.1524" layer="21" curve="-90"/>
<wire x1="-1.663" y1="-0.362" x2="-1.419" y2="-0.656" width="0.1524" layer="21" curve="90"/>
<wire x1="1.639" y1="-0.656" x2="1.863" y2="-0.362" width="0.1524" layer="21" curve="90"/>
<wire x1="1.863" y1="-0.362" x2="1.863" y2="0.362" width="0.1524" layer="21"/>
<wire x1="-1.663" y1="-0.362" x2="-1.663" y2="0.362" width="0.1524" layer="21"/>
<wire x1="-1.449" y1="0.646" x2="1.639" y2="0.646" width="0.1524" layer="21"/>
<wire x1="1.138" y1="0" x2="1.666" y2="0" width="0.1524" layer="51"/>
<wire x1="-1.138" y1="0" x2="-1.666" y2="0" width="0.1524" layer="51"/>
<wire x1="0" y1="0.362" x2="0" y2="0.606" width="0.1524" layer="51"/>
<wire x1="0" y1="-0.616" x2="0" y2="-0.362" width="0.1524" layer="51"/>
<wire x1="0.7" y1="0.1" x2="0.7" y2="-0.1" width="0.8128" layer="51" curve="-180" cap="flat"/>
<wire x1="-0.7" y1="-0.1" x2="-0.7" y2="0.1" width="0.8128" layer="51" curve="-180" cap="flat"/>
<smd name="1" x="-1.2" y="0" dx="0.6" dy="1" layer="1"/>
<smd name="2" x="0" y="0" dx="0.4" dy="1" layer="1"/>
<smd name="3" x="1.2" y="0" dx="0.6" dy="1" layer="1"/>
<text x="-1.745" y="1.006" size="0.6096" layer="25" ratio="10">&gt;NAME</text>
<rectangle x1="-0.4" y1="-0.5" x2="0.4" y2="0.5" layer="51"/>
<polygon width="0.1" layer="1">
<vertex x="-0.94" y="0.45"/>
<vertex x="-0.54" y="0.45"/>
<vertex x="-0.93" y="0.06"/>
<vertex x="-0.93" y="-0.07"/>
<vertex x="-0.55" y="-0.45"/>
<vertex x="-0.94" y="-0.45"/>
</polygon>
<polygon width="0.1" layer="1">
<vertex x="-0.14" y="0.45"/>
<vertex x="-0.18" y="0.45"/>
<vertex x="-0.18" y="0.41"/>
<vertex x="-0.59" y="0"/>
<vertex x="-0.18" y="-0.41"/>
<vertex x="-0.18" y="-0.45"/>
<vertex x="-0.14" y="-0.45"/>
</polygon>
<polygon width="0.08" layer="1">
<vertex x="0.96" y="0.46"/>
<vertex x="0.92" y="0.46"/>
<vertex x="0.92" y="0.42"/>
<vertex x="0.92" y="-0.42"/>
<vertex x="0.92" y="-0.46"/>
<vertex x="0.96" y="-0.46"/>
</polygon>
<polygon width="0.08" layer="1">
<vertex x="0.18" y="0.46"/>
<vertex x="0.18" y="0.08"/>
<vertex x="0.18" y="-0.08"/>
<vertex x="0.18" y="-0.46"/>
</polygon>
<rectangle x1="-0.9" y1="-0.54" x2="-0.2" y2="0.54" layer="29"/>
<rectangle x1="0.2" y1="-0.54" x2="0.9" y2="0.54" layer="29"/>
<wire x1="1.7" y1="0.6" x2="1.7" y2="-0.6" width="0.2" layer="21"/>
<polygon width="0.1" layer="1">
<vertex x="0.96" y="0.45"/>
<vertex x="0.92" y="0.45"/>
<vertex x="0.92" y="0.41"/>
<vertex x="0.51" y="0"/>
<vertex x="0.92" y="-0.41"/>
<vertex x="0.92" y="-0.45"/>
<vertex x="0.96" y="-0.45"/>
</polygon>
<polygon width="0.1" layer="1">
<vertex x="0.16" y="0.45"/>
<vertex x="0.56" y="0.45"/>
<vertex x="0.17" y="0.06"/>
<vertex x="0.17" y="-0.07"/>
<vertex x="0.55" y="-0.45"/>
<vertex x="0.16" y="-0.45"/>
</polygon>
</package>
</packages>
</library>
<library name="atomx_IC">
<packages>
<package name="SO16">
<description>&lt;b&gt;Small Outline package&lt;/b&gt; 150 mil</description>
<wire x1="4.699" y1="1.9558" x2="-4.699" y2="1.9558" width="0.1524" layer="21"/>
<wire x1="4.699" y1="-1.9558" x2="5.08" y2="-1.5748" width="0.1524" layer="21" curve="90"/>
<wire x1="-5.08" y1="1.5748" x2="-4.699" y2="1.9558" width="0.1524" layer="21" curve="-90"/>
<wire x1="4.699" y1="1.9558" x2="5.08" y2="1.5748" width="0.1524" layer="21" curve="-90"/>
<wire x1="-5.08" y1="-1.5748" x2="-4.699" y2="-1.9558" width="0.1524" layer="21" curve="90"/>
<wire x1="-4.699" y1="-1.9558" x2="4.699" y2="-1.9558" width="0.1524" layer="21"/>
<wire x1="5.08" y1="-1.5748" x2="5.08" y2="1.5748" width="0.1524" layer="21"/>
<wire x1="-5.08" y1="1.5748" x2="-5.08" y2="0.508" width="0.1524" layer="21"/>
<wire x1="-5.08" y1="0.508" x2="-5.08" y2="-0.508" width="0.1524" layer="21"/>
<wire x1="-5.08" y1="-0.508" x2="-5.08" y2="-1.5748" width="0.1524" layer="21"/>
<wire x1="-5.08" y1="0.508" x2="-5.08" y2="-0.508" width="0.1524" layer="21" curve="-180"/>
<wire x1="-5.08" y1="-1.6002" x2="5.08" y2="-1.6002" width="0.0508" layer="21"/>
<smd name="1" x="-4.445" y="-2.8734" dx="0.6604" dy="1.8" layer="1"/>
<smd name="16" x="-4.445" y="2.8734" dx="0.6604" dy="1.8" layer="1"/>
<smd name="2" x="-3.175" y="-2.8734" dx="0.6604" dy="1.8" layer="1"/>
<smd name="3" x="-1.905" y="-2.8734" dx="0.6604" dy="1.8" layer="1"/>
<smd name="15" x="-3.175" y="2.8734" dx="0.6604" dy="1.8" layer="1"/>
<smd name="14" x="-1.905" y="2.8734" dx="0.6604" dy="1.8" layer="1"/>
<smd name="4" x="-0.635" y="-2.8734" dx="0.6604" dy="1.8" layer="1"/>
<smd name="13" x="-0.635" y="2.8734" dx="0.6604" dy="1.8" layer="1"/>
<smd name="5" x="0.635" y="-2.8734" dx="0.6604" dy="1.8" layer="1"/>
<smd name="12" x="0.635" y="2.8734" dx="0.6604" dy="1.8" layer="1"/>
<smd name="6" x="1.905" y="-2.8734" dx="0.6604" dy="1.8" layer="1"/>
<smd name="7" x="3.175" y="-2.8734" dx="0.6604" dy="1.8" layer="1"/>
<smd name="11" x="1.905" y="2.8734" dx="0.6604" dy="1.8" layer="1"/>
<smd name="10" x="3.175" y="2.8734" dx="0.6604" dy="1.8" layer="1"/>
<smd name="8" x="4.445" y="-2.8734" dx="0.6604" dy="1.8" layer="1"/>
<smd name="9" x="4.445" y="2.8734" dx="0.6604" dy="1.8" layer="1"/>
<text x="-4.064" y="-0.635" size="1.27" layer="27" ratio="10">&gt;VALUE</text>
<text x="-5.461" y="-1.778" size="1.27" layer="25" ratio="10" rot="R90">&gt;NAME</text>
<rectangle x1="-0.889" y1="1.9558" x2="-0.381" y2="3.0988" layer="51"/>
<rectangle x1="-4.699" y1="-3.0988" x2="-4.191" y2="-1.9558" layer="51"/>
<rectangle x1="-3.429" y1="-3.0988" x2="-2.921" y2="-1.9558" layer="51"/>
<rectangle x1="-2.159" y1="-3.0734" x2="-1.651" y2="-1.9304" layer="51"/>
<rectangle x1="-0.889" y1="-3.0988" x2="-0.381" y2="-1.9558" layer="51"/>
<rectangle x1="-2.159" y1="1.9558" x2="-1.651" y2="3.0988" layer="51"/>
<rectangle x1="-3.429" y1="1.9558" x2="-2.921" y2="3.0988" layer="51"/>
<rectangle x1="-4.699" y1="1.9558" x2="-4.191" y2="3.0988" layer="51"/>
<rectangle x1="0.381" y1="-3.0988" x2="0.889" y2="-1.9558" layer="51"/>
<rectangle x1="1.651" y1="-3.0988" x2="2.159" y2="-1.9558" layer="51"/>
<rectangle x1="2.921" y1="-3.0988" x2="3.429" y2="-1.9558" layer="51"/>
<rectangle x1="4.191" y1="-3.0988" x2="4.699" y2="-1.9558" layer="51"/>
<rectangle x1="0.381" y1="1.9558" x2="0.889" y2="3.0988" layer="51"/>
<rectangle x1="1.651" y1="1.9558" x2="2.159" y2="3.0988" layer="51"/>
<rectangle x1="2.921" y1="1.9558" x2="3.429" y2="3.0988" layer="51"/>
<rectangle x1="4.191" y1="1.9558" x2="4.699" y2="3.0988" layer="51"/>
</package>
</packages>
</library>
<library name="crystal">
<description>&lt;b&gt;Crystals and Crystal Resonators&lt;/b&gt;&lt;p&gt;
&lt;author&gt;Created by librarian@cadsoft.de&lt;/author&gt;</description>
<packages>
<package name="ASF">
<description>&lt;b&gt;CRYSTAL CLOCK OSCILLATORS&lt;/b&gt;&lt;p&gt;
5.0 Vdc or 3.3 Vdc - LOW PROFILE ULTRA MINIATURE CERAMIC SURFACE MOUNT&lt;br&gt;
Source: http://www.abracon.com/Oscillators/asf1-L-L1.pdf</description>
<wire x1="-2.2" y1="1.5" x2="2.2" y2="1.5" width="0.2032" layer="51"/>
<wire x1="2.4" y1="1.3" x2="2.4" y2="-1.3" width="0.2032" layer="21"/>
<wire x1="2.2" y1="-1.5" x2="-2.2" y2="-1.5" width="0.2032" layer="51"/>
<wire x1="-2.4" y1="-1.3" x2="-2.4" y2="1.3" width="0.2032" layer="21"/>
<wire x1="-2.2" y1="1.5" x2="-2.4" y2="1.3" width="0.2032" layer="21" curve="-90"/>
<wire x1="2.4" y1="1.3" x2="2.2" y2="1.5" width="0.2032" layer="21" curve="-90"/>
<wire x1="-2.4" y1="-1.3" x2="-2.2" y2="-1.5" width="0.2032" layer="21" curve="-90"/>
<wire x1="2.2" y1="-1.5" x2="2.4" y2="-1.3" width="0.2032" layer="21" curve="-90"/>
<circle x="-1.9" y="-0.95" radius="0.1802" width="0" layer="51"/>
<smd name="1" x="-1.25" y="-1.15" dx="1.6" dy="1.5" layer="1"/>
<smd name="2" x="1.25" y="-1.15" dx="1.6" dy="1.5" layer="1"/>
<smd name="3" x="1.25" y="1.15" dx="1.6" dy="1.5" layer="1" rot="R180"/>
<smd name="4" x="-1.25" y="1.15" dx="1.6" dy="1.5" layer="1" rot="R180"/>
<text x="-2.54" y="2.54" size="1.27" layer="25">&gt;NAME</text>
<text x="-2.54" y="-3.81" size="1.27" layer="27">&gt;VALUE</text>
</package>
</packages>
</library>
</libraries>
<attributes>
</attributes>
<variantdefs>
</variantdefs>
<classes>
<class number="0" name="default" width="0" drill="0">
</class>
</classes>
<designrules name="ITEADstudio_DRC *">
<description language="de">&lt;b&gt;EAGLE Design Rules&lt;/b&gt;
&lt;p&gt;
Die Standard-Design-Rules sind so gewählt, dass sie für 
die meisten Anwendungen passen. Sollte ihre Platine 
besondere Anforderungen haben, treffen Sie die erforderlichen
Einstellungen hier und speichern die Design Rules unter 
einem neuen Namen ab.</description>
<description language="en">&lt;b&gt;EAGLE Design Rules&lt;/b&gt;
&lt;p&gt;
The default Design Rules have been set to cover
a wide range of applications. Your particular design
may have different requirements, so please make the
necessary adjustments and save your customized
design rules under a new name.</description>
<description language="zh">&lt;b&gt;Seeed Studio EAGLE Design Rules&lt;/b&gt;
</description>
<param name="layerSetup" value="(1*16)"/>
<param name="mtCopper" value="0.035mm 0.035mm 0.035mm 0.035mm 0.035mm 0.035mm 0.035mm 0.035mm 0.035mm 0.035mm 0.035mm 0.035mm 0.035mm 0.035mm 0.035mm 0.035mm"/>
<param name="mtIsolate" value="1.5mm 0.15mm 0.2mm 0.15mm 0.2mm 0.15mm 0.2mm 0.15mm 0.2mm 0.15mm 0.2mm 0.15mm 0.2mm 0.15mm 0.2mm"/>
<param name="mdWireWire" value="8mil"/>
<param name="mdWirePad" value="8mil"/>
<param name="mdWireVia" value="8mil"/>
<param name="mdPadPad" value="8mil"/>
<param name="mdPadVia" value="8mil"/>
<param name="mdViaVia" value="8mil"/>
<param name="mdSmdPad" value="0mil"/>
<param name="mdSmdVia" value="0mil"/>
<param name="mdSmdSmd" value="0mil"/>
<param name="mdViaViaSameLayer" value="8mil"/>
<param name="mnLayersViaInSmd" value="2"/>
<param name="mdCopperDimension" value="10mil"/>
<param name="mdDrill" value="10mil"/>
<param name="mdSmdStop" value="0mil"/>
<param name="msWidth" value="6mil"/>
<param name="msDrill" value="12mil"/>
<param name="msMicroVia" value="12mil"/>
<param name="msBlindViaRatio" value="0.5"/>
<param name="rvPadTop" value="0.25"/>
<param name="rvPadInner" value="0.25"/>
<param name="rvPadBottom" value="0.25"/>
<param name="rvViaOuter" value="0.25"/>
<param name="rvViaInner" value="0.25"/>
<param name="rvMicroViaOuter" value="0.25"/>
<param name="rvMicroViaInner" value="0.25"/>
<param name="rlMinPadTop" value="10mil"/>
<param name="rlMaxPadTop" value="20mil"/>
<param name="rlMinPadInner" value="10mil"/>
<param name="rlMaxPadInner" value="20mil"/>
<param name="rlMinPadBottom" value="10mil"/>
<param name="rlMaxPadBottom" value="20mil"/>
<param name="rlMinViaOuter" value="6mil"/>
<param name="rlMaxViaOuter" value="20mil"/>
<param name="rlMinViaInner" value="6mil"/>
<param name="rlMaxViaInner" value="20mil"/>
<param name="rlMinMicroViaOuter" value="4mil"/>
<param name="rlMaxMicroViaOuter" value="20mil"/>
<param name="rlMinMicroViaInner" value="4mil"/>
<param name="rlMaxMicroViaInner" value="20mil"/>
<param name="psTop" value="-1"/>
<param name="psBottom" value="-1"/>
<param name="psFirst" value="0"/>
<param name="psElongationLong" value="100"/>
<param name="psElongationOffset" value="100"/>
<param name="mvStopFrame" value="1"/>
<param name="mvCreamFrame" value="0"/>
<param name="mlMinStopFrame" value="2mil"/>
<param name="mlMaxStopFrame" value="2mil"/>
<param name="mlMinCreamFrame" value="0mil"/>
<param name="mlMaxCreamFrame" value="0mil"/>
<param name="mlViaStopLimit" value="100mil"/>
<param name="srRoundness" value="0.5"/>
<param name="srMinRoundness" value="2mil"/>
<param name="srMaxRoundness" value="8mil"/>
<param name="slThermalIsolate" value="10mil"/>
<param name="slThermalsForVias" value="0"/>
<param name="dpMaxLengthDifference" value="10mm"/>
<param name="dpGapFactor" value="2.5"/>
<param name="checkGrid" value="0"/>
<param name="checkAngle" value="0"/>
<param name="checkFont" value="1"/>
<param name="checkRestrict" value="0"/>
<param name="useDiameter" value="13"/>
<param name="maxErrors" value="50"/>
</designrules>
<autorouter>
<pass name="Default">
<param name="RoutingGrid" value="50mil"/>
<param name="AutoGrid" value="1"/>
<param name="Efforts" value="0"/>
<param name="TopRouterVariant" value="1"/>
<param name="tpViaShape" value="round"/>
<param name="PrefDir.1" value="a"/>
<param name="PrefDir.2" value="0"/>
<param name="PrefDir.3" value="0"/>
<param name="PrefDir.4" value="0"/>
<param name="PrefDir.5" value="0"/>
<param name="PrefDir.6" value="0"/>
<param name="PrefDir.7" value="0"/>
<param name="PrefDir.8" value="0"/>
<param name="PrefDir.9" value="0"/>
<param name="PrefDir.10" value="0"/>
<param name="PrefDir.11" value="0"/>
<param name="PrefDir.12" value="0"/>
<param name="PrefDir.13" value="0"/>
<param name="PrefDir.14" value="0"/>
<param name="PrefDir.15" value="0"/>
<param name="PrefDir.16" value="a"/>
<param name="cfVia" value="8"/>
<param name="cfNonPref" value="5"/>
<param name="cfChangeDir" value="2"/>
<param name="cfOrthStep" value="2"/>
<param name="cfDiagStep" value="3"/>
<param name="cfExtdStep" value="0"/>
<param name="cfBonusStep" value="1"/>
<param name="cfMalusStep" value="1"/>
<param name="cfPadImpact" value="4"/>
<param name="cfSmdImpact" value="4"/>
<param name="cfBusImpact" value="0"/>
<param name="cfHugging" value="3"/>
<param name="cfAvoid" value="4"/>
<param name="cfPolygon" value="10"/>
<param name="cfBase.1" value="0"/>
<param name="cfBase.2" value="1"/>
<param name="cfBase.3" value="1"/>
<param name="cfBase.4" value="1"/>
<param name="cfBase.5" value="1"/>
<param name="cfBase.6" value="1"/>
<param name="cfBase.7" value="1"/>
<param name="cfBase.8" value="1"/>
<param name="cfBase.9" value="1"/>
<param name="cfBase.10" value="1"/>
<param name="cfBase.11" value="1"/>
<param name="cfBase.12" value="1"/>
<param name="cfBase.13" value="1"/>
<param name="cfBase.14" value="1"/>
<param name="cfBase.15" value="1"/>
<param name="cfBase.16" value="0"/>
<param name="mnVias" value="20"/>
<param name="mnSegments" value="9999"/>
<param name="mnExtdSteps" value="9999"/>
<param name="mnRipupLevel" value="10"/>
<param name="mnRipupSteps" value="100"/>
<param name="mnRipupTotal" value="100"/>
</pass>
<pass name="Follow-me" refer="Default" active="yes">
</pass>
<pass name="Busses" refer="Default" active="yes">
<param name="cfNonPref" value="4"/>
<param name="cfBusImpact" value="4"/>
<param name="cfHugging" value="0"/>
<param name="mnVias" value="0"/>
</pass>
<pass name="Route" refer="Default" active="yes">
</pass>
<pass name="Optimize1" refer="Default" active="yes">
<param name="cfVia" value="99"/>
<param name="cfExtdStep" value="10"/>
<param name="cfHugging" value="1"/>
<param name="mnExtdSteps" value="1"/>
<param name="mnRipupLevel" value="0"/>
</pass>
<pass name="Optimize2" refer="Optimize1" active="yes">
<param name="cfNonPref" value="0"/>
<param name="cfChangeDir" value="6"/>
<param name="cfExtdStep" value="0"/>
<param name="cfBonusStep" value="2"/>
<param name="cfMalusStep" value="2"/>
<param name="cfPadImpact" value="2"/>
<param name="cfSmdImpact" value="2"/>
<param name="cfHugging" value="0"/>
</pass>
<pass name="Optimize3" refer="Optimize2" active="yes">
<param name="cfChangeDir" value="8"/>
<param name="cfPadImpact" value="0"/>
<param name="cfSmdImpact" value="0"/>
</pass>
<pass name="Optimize4" refer="Optimize3" active="yes">
<param name="cfChangeDir" value="25"/>
</pass>
</autorouter>
<elements>
<element name="C2" library="atomx_RLC" package="C0603" value="1uF" x="21.976" y="11.746" smashed="yes" rot="MR180">
<attribute name="NAME" x="19.606" y="11.149" size="0.8128" layer="26" font="vector" ratio="15" rot="MR90"/>
</element>
<element name="J1" library="atomx_Boards" package="FRDM-N28P-SHIELD" value="FRDM-N28P-ST" x="17.85" y="9"/>
<element name="LOGO1" library="atomx_Common" package="OSHW-LOGO-S" value="OSHW-LOGOS" x="7.11" y="4.12"/>
<element name="SJ2" library="atomx_Connectors" package="JUMPER-SMD-S1X" value="" x="18.43" y="3.84" smashed="yes" rot="R180">
<attribute name="NAME" x="15.049" y="3.403" size="0.8128" layer="25" font="vector" ratio="15"/>
</element>
<element name="U2" library="atomx_IC" package="SO16" value="PAM8403" x="14.51" y="8.98" smashed="yes" rot="MR180">
<attribute name="NAME" x="13.642" y="14.389" size="0.8128" layer="26" font="vector" ratio="15" rot="MR180"/>
</element>
<element name="C6" library="atomx_RLC" package="SMC_C" value="100uF" x="13.716" y="11.776" smashed="yes" rot="R180">
<attribute name="NAME" x="13.099" y="13.749" size="0.8128" layer="25" font="vector" ratio="15"/>
</element>
<element name="C8" library="atomx_RLC" package="SMC_C" value="100uF" x="13.75" y="6.19" smashed="yes" rot="R180">
<attribute name="NAME" x="13.115" y="3.415" size="0.8128" layer="25" font="vector" ratio="15"/>
</element>
<element name="C7" library="atomx_RLC" package="C1206" value="22uF" x="12.6" y="8.99" smashed="yes">
<attribute name="NAME" x="10.287" y="8.43" size="0.8128" layer="25" font="vector" ratio="15" rot="R90"/>
</element>
<element name="L1" library="atomx_RLC" package="L0805" value="470" x="7.012" y="6.118" smashed="yes" rot="MR180">
<attribute name="NAME" x="2.539" y="6.562" size="0.8128" layer="26" font="vector" ratio="15" rot="MR180"/>
</element>
<element name="L2" library="atomx_RLC" package="L0805" value="470" x="6.982" y="8.04" smashed="yes" rot="MR180">
<attribute name="NAME" x="3.709" y="8.454" size="0.8128" layer="26" font="vector" ratio="15" rot="MR180"/>
</element>
<element name="L3" library="atomx_RLC" package="L0805" value="470" x="6.992" y="9.93" smashed="yes" rot="MR180">
<attribute name="NAME" x="3.709" y="10.364" size="0.8128" layer="26" font="vector" ratio="15" rot="MR180"/>
</element>
<element name="L4" library="atomx_RLC" package="L0805" value="470" x="7.022" y="11.836" smashed="yes" rot="MR180">
<attribute name="NAME" x="2.539" y="12.28" size="0.8128" layer="26" font="vector" ratio="15" rot="MR180"/>
</element>
<element name="C10" library="atomx_RLC" package="C0603" value="220pF" x="8.12" y="6.096" smashed="yes" rot="R180"/>
<element name="C11" library="atomx_RLC" package="C0603" value="220pF" x="8.04" y="8.03" smashed="yes" rot="R180"/>
<element name="C12" library="atomx_RLC" package="C0603" value="220pF" x="8.04" y="9.94" smashed="yes" rot="R180"/>
<element name="C13" library="atomx_RLC" package="C0603" value="220pF" x="8.03" y="11.83" smashed="yes" rot="R180"/>
<element name="JP1" library="atomx_Connectors" package="1X04-1.25MM_SMD" value="" x="4.732" y="10.858" rot="R270"/>
<element name="L6" library="atomx_RLC" package="L0805" value="330" x="7.01" y="4.22" smashed="yes" rot="MR0">
<attribute name="NAME" x="4.963" y="3.826" size="0.8128" layer="26" font="vector" ratio="15" rot="MR0"/>
</element>
<element name="C9" library="atomx_RLC" package="C0603" value="2.2uF" x="18.41" y="11.59" smashed="yes" rot="R270">
<attribute name="NAME" x="18.443" y="13.372" size="0.8128" layer="25" font="vector" ratio="15"/>
</element>
<element name="L7" library="atomx_RLC" package="L0805" value="10uH" x="17.46" y="8.99" smashed="yes">
<attribute name="NAME" x="15.734" y="8.337" size="0.8128" layer="25" font="vector" ratio="15" rot="R90"/>
</element>
<element name="R7" library="atomx_RLC" package="R0603" value="22k" x="18.41" y="6.34" smashed="yes" rot="R270">
<attribute name="NAME" x="19.105" y="5.45" size="0.8128" layer="25" font="vector" ratio="15"/>
</element>
<element name="U1" library="atomx_IC" package="SO16" value="ES9023" x="29.34" y="8.89" smashed="yes" rot="R270">
<attribute name="VALUE" x="28.835" y="10.464" size="1.016" layer="27" font="vector" ratio="15" rot="R270"/>
<attribute name="NAME" x="28.742" y="14.221" size="0.8128" layer="25" font="vector" ratio="15"/>
</element>
<element name="C1" library="atomx_RLC" package="C0603" value="1uF" x="34.76" y="5.29" smashed="yes" rot="R270">
<attribute name="NAME" x="34.078" y="4.613" size="0.8128" layer="25" font="vector" ratio="15" rot="R90"/>
</element>
<element name="C3" library="atomx_RLC" package="C0603" value="1uF" x="34.74" y="8.75" smashed="yes" rot="R90">
<attribute name="NAME" x="34.108" y="8.173" size="0.8128" layer="25" font="vector" ratio="15" rot="R90"/>
</element>
<element name="R1" library="atomx_RLC" package="R0603" value="10k" x="21.99" y="8.33" smashed="yes" rot="MR180">
<attribute name="NAME" x="21.355" y="7.06" size="0.8128" layer="26" font="vector" ratio="15" rot="MR180"/>
</element>
<element name="R2" library="atomx_RLC" package="R0603" value="10k" x="22.01" y="4.94" smashed="yes" rot="MR180">
<attribute name="NAME" x="21.245" y="4.08" size="0.8128" layer="26" font="vector" ratio="15" rot="MR180"/>
</element>
<element name="R3" library="atomx_RLC" package="R0603" value="50" x="22.85" y="10.64" smashed="yes">
<attribute name="NAME" x="21.395" y="11.11" size="0.8128" layer="25" font="vector" ratio="15" rot="R180"/>
</element>
<element name="R4" library="atomx_RLC" package="R0603" value="50" x="22.85" y="12.31" smashed="yes">
<attribute name="NAME" x="19.945" y="11.99" size="0.8128" layer="25" font="vector" ratio="15"/>
</element>
<element name="R5" library="atomx_RLC" package="R0603" value="50" x="22.85" y="14.06" smashed="yes">
<attribute name="NAME" x="24.405" y="13.85" size="0.8128" layer="25" font="vector" ratio="15"/>
</element>
<element name="R6" library="atomx_RLC" package="R0603" value="150" x="34.76" y="12.33" smashed="yes" rot="R270">
<attribute name="NAME" x="34.11" y="10.385" size="0.8128" layer="25" font="vector" ratio="15" rot="R90"/>
</element>
<element name="C4" library="atomx_RLC" package="C0603" value="4.7nF" x="22.86" y="5.57" smashed="yes" rot="R180">
<attribute name="NAME" x="20.123" y="4.302" size="0.8128" layer="25" font="vector" ratio="15"/>
</element>
<element name="C5" library="atomx_RLC" package="C0603" value="4.7nF" x="22.86" y="3.86" smashed="yes" rot="R180">
<attribute name="NAME" x="25.897" y="3.838" size="0.8128" layer="25" font="vector" ratio="15" rot="R180"/>
</element>
<element name="C14" library="atomx_RLC" package="C0603" value="220nF" x="21.98" y="10.04" smashed="yes" rot="MR180">
<attribute name="NAME" x="23.502" y="8.963" size="0.8128" layer="26" font="vector" ratio="15" rot="MR90"/>
</element>
<element name="C15" library="atomx_RLC" package="C0603" value="220nF" x="21.99" y="6.64" smashed="yes" rot="MR180">
<attribute name="NAME" x="23.552" y="5.593" size="0.8128" layer="26" font="vector" ratio="15" rot="MR90"/>
</element>
<element name="C16" library="atomx_RLC" package="C0603" value="10uF" x="22.85" y="8.92" smashed="yes" rot="R180">
<attribute name="NAME" x="19.263" y="8.492" size="0.8128" layer="25" font="vector" ratio="15"/>
</element>
<element name="R8" library="atomx_RLC" package="R0603" value="" x="22.86" y="7.21" smashed="yes">
<attribute name="NAME" x="19.975" y="6.8" size="0.8128" layer="25" font="vector" ratio="15"/>
</element>
<element name="SJ1" library="atomx_Connectors" package="JUMPER-SMD-S2X" value="" x="29.22" y="13.49" smashed="yes" rot="MR180">
<attribute name="NAME" x="28.135" y="15.204" size="0.8128" layer="26" font="vector" ratio="15" rot="MR180"/>
</element>
<element name="SJ3" library="atomx_Connectors" package="JUMPER-SMD-S1X" value="" x="25.19" y="11.78" smashed="yes" rot="MR180">
<attribute name="NAME" x="24.239" y="11.067" size="0.8128" layer="26" font="vector" ratio="15" rot="MR180"/>
</element>
<element name="R9" library="atomx_RLC" package="R0603" value="10k" x="25.89" y="8.94" smashed="yes" rot="MR270">
<attribute name="NAME" x="25.085" y="7.28" size="0.8128" layer="26" font="vector" ratio="15" rot="MR180"/>
</element>
<element name="Q1" library="crystal" package="ASF" value="ASFL" x="29.18" y="8.9" smashed="yes" rot="MR90">
<attribute name="OC_NEWARK" value="99M0411" x="29.18" y="8.9" size="1.778" layer="28" rot="MR90" display="off"/>
<attribute name="MPN" value="ASFLM1-50.000MHZ-C-T" x="29.18" y="8.9" size="1.778" layer="28" rot="MR90" display="off"/>
<attribute name="MF" value="" x="29.18" y="8.9" size="1.778" layer="28" rot="MR90" display="off"/>
<attribute name="OC_FARNELL" value="1838931" x="29.18" y="8.9" size="1.778" layer="28" rot="MR90" display="off"/>
<attribute name="NAME" x="28.64" y="11.52" size="0.8128" layer="26" font="vector" ratio="15" rot="MR0"/>
</element>
<element name="C17" library="atomx_RLC" package="C0805" value="10uF" x="28.99" y="5.09" smashed="yes" rot="MR180">
<attribute name="NAME" x="27.919" y="3.914" size="0.8128" layer="26" font="vector" ratio="15" rot="MR180"/>
</element>
<element name="L5" library="atomx_RLC" package="L0603" value="1K" x="22.03" y="13.49" smashed="yes" rot="MR180">
<attribute name="NAME" x="18.847" y="13.924" size="0.8128" layer="26" font="vector" ratio="15" rot="MR180"/>
</element>
<element name="SJ4" library="atomx_Connectors" package="JUMPER-SMD-S1X" value="" x="33.05" y="6.31" smashed="yes" rot="MR0">
<attribute name="NAME" x="34.021" y="7.213" size="0.8128" layer="26" font="vector" ratio="15" rot="MR0"/>
</element>
<element name="C18" library="atomx_RLC" package="C0603" value="1uF" x="32.86" y="11.13" smashed="yes" rot="MR180">
<attribute name="NAME" x="33.157" y="11.912" size="0.8128" layer="26" font="vector" ratio="15" rot="MR0"/>
</element>
<element name="R10" library="atomx_RLC" package="R0603" value="10k" x="32.87" y="8.85" smashed="yes" rot="MR0">
<attribute name="NAME" x="33.825" y="9.57" size="0.8128" layer="26" font="vector" ratio="15" rot="MR0"/>
</element>
<element name="C19" library="atomx_RLC" package="C0603" value="100nF" x="25.4" y="13.5" smashed="yes" rot="MR180">
<attribute name="NAME" x="24.153" y="15.188" size="0.8128" layer="26" font="vector" ratio="15" rot="MR180"/>
</element>
<element name="SJ5" library="atomx_Connectors" package="JUMPER-SMD-S2X" value="" x="17.7" y="3.86" smashed="yes" rot="MR180">
<attribute name="NAME" x="19.696" y="3.455" size="0.8128" layer="26" font="vector" ratio="16" rot="MR90"/>
</element>
</elements>
<signals>
<signal name="GND">
<contactref element="J1" pad="27"/>
<contactref element="J1" pad="2"/>
<contactref element="J1" pad="13"/>
<contactref element="J1" pad="16"/>
<contactref element="C2" pad="2"/>
<contactref element="U2" pad="11"/>
<via x="19.98" y="5.55" extent="1-16" drill="0.5"/>
<via x="5.96" y="13.69" extent="1-16" drill="0.5"/>
<polygon width="0.254" layer="1">
<vertex x="0" y="17.99"/>
<vertex x="36" y="17.99"/>
<vertex x="36" y="0.02"/>
<vertex x="0" y="0.02"/>
</polygon>
<polygon width="0.254" layer="16">
<vertex x="0" y="17.98"/>
<vertex x="35.87" y="17.98"/>
<vertex x="35.87" y="0.02"/>
<vertex x="0" y="0.02"/>
</polygon>
<via x="29.31" y="11.9" extent="1-16" drill="0.5"/>
<wire x1="1.79" y1="4.03" x2="4.32" y2="4.03" width="1.27" layer="1"/>
<wire x1="4.32" y1="4.03" x2="4.32" y2="4.04" width="0.8128" layer="1"/>
<wire x1="1.96" y1="4.13" x2="1.9" y2="4.13" width="0.8128" layer="1"/>
<wire x1="1.9" y1="4.13" x2="1.9" y2="6.03" width="1.27" layer="1"/>
<via x="17.75" y="13.6" extent="1-16" drill="0.5"/>
<wire x1="1.71" y1="14.13" x2="1.73" y2="14.13" width="0.8128" layer="1"/>
<wire x1="1.73" y1="14.13" x2="1.73" y2="11.81" width="1.27" layer="1"/>
<wire x1="1.81" y1="13.79" x2="4.88" y2="13.79" width="1.27" layer="1"/>
<contactref element="C9" pad="1"/>
<contactref element="C13" pad="1"/>
<contactref element="C12" pad="1"/>
<contactref element="C11" pad="1"/>
<contactref element="C10" pad="1"/>
<contactref element="C8" pad="-"/>
<contactref element="C7" pad="1"/>
<contactref element="C6" pad="-"/>
<wire x1="11.28" y1="11.49" x2="11.3" y2="6.26" width="1.27" layer="1"/>
<contactref element="C4" pad="2"/>
<contactref element="C5" pad="2"/>
<contactref element="C3" pad="2"/>
<contactref element="U1" pad="14"/>
<contactref element="U1" pad="12"/>
<contactref element="R8" pad="1"/>
<contactref element="C16" pad="2"/>
<contactref element="SJ3" pad="1"/>
<contactref element="Q1" pad="2"/>
<contactref element="C17" pad="2"/>
<wire x1="34.74" y1="9.59" x2="34.65" y2="9.59" width="0.254" layer="1"/>
<wire x1="34.65" y1="9.59" x2="33.29" y2="8.23" width="0.254" layer="1"/>
<wire x1="33.29" y1="8.23" x2="32.2384" y2="8.23" width="0.254" layer="1"/>
<wire x1="32.2384" y1="8.23" x2="32.2134" y2="8.255" width="0.254" layer="1"/>
<contactref element="C18" pad="1"/>
<via x="19.9" y="9" extent="1-16" drill="0.5"/>
<wire x1="24.49" y1="11.49" x2="24.49" y2="12.46" width="0.254" layer="16"/>
<via x="30.7" y="5.1" extent="1-16" drill="0.5"/>
<contactref element="C19" pad="2"/>
<contactref element="SJ5" pad="3"/>
<wire x1="18.9" y1="3.1" x2="18.9" y2="3.8" width="0.254" layer="16"/>
<wire x1="24.49" y1="11.49" x2="24.49" y2="11.78" width="0" layer="19" extent="16-16"/>
<wire x1="22.816" y1="11.746" x2="24.49" y2="11.78" width="0" layer="19" extent="16-16"/>
</signal>
<signal name="VDD">
<contactref element="U1" pad="5"/>
<contactref element="R9" pad="2"/>
<contactref element="Q1" pad="4"/>
<contactref element="Q1" pad="1"/>
<contactref element="C17" pad="1"/>
<contactref element="L5" pad="2"/>
<via x="24.89" y="8.22" extent="1-16" drill="0.5"/>
<wire x1="23.7" y1="9.41" x2="24.89" y2="8.22" width="0.254" layer="16"/>
<wire x1="26.4666" y1="8.255" x2="24.925" y2="8.255" width="0.3048" layer="1"/>
<wire x1="24.925" y1="8.255" x2="24.89" y2="8.22" width="0.254" layer="1"/>
<wire x1="25.89" y1="8.1" x2="25.01" y2="8.1" width="0.254" layer="16"/>
<wire x1="25.01" y1="8.1" x2="24.89" y2="8.22" width="0.254" layer="16"/>
<wire x1="28.03" y1="7.65" x2="30.33" y2="7.65" width="0.254" layer="16"/>
<contactref element="R10" pad="2"/>
<wire x1="30.33" y1="7.65" x2="31.62" y2="7.65" width="0.254" layer="16"/>
<wire x1="31.62" y1="7.65" x2="32.04" y2="8.07" width="0.254" layer="16"/>
<wire x1="32.04" y1="8.07" x2="32.04" y2="8.84" width="0.254" layer="16"/>
<wire x1="32.04" y1="8.84" x2="32.03" y2="8.85" width="0.254" layer="16"/>
<wire x1="28.03" y1="7.65" x2="28.03" y2="5.1" width="0.3048" layer="16"/>
<wire x1="28.03" y1="5.1" x2="28.04" y2="5.09" width="0.3048" layer="16"/>
<contactref element="C19" pad="1"/>
<wire x1="24.56" y1="13.5" x2="23.7" y2="13.5" width="0.254" layer="16"/>
<wire x1="23.7" y1="13.5" x2="23.56" y2="13.5" width="0.254" layer="16"/>
<wire x1="23.56" y1="13.5" x2="22.87" y2="13.49" width="0.254" layer="16"/>
<wire x1="23.7" y1="9.41" x2="23.7" y2="13.5" width="0.254" layer="16"/>
<wire x1="25.89" y1="8.1" x2="27.58" y2="8.1" width="0.4064" layer="16"/>
<wire x1="27.58" y1="8.1" x2="28.03" y2="7.65" width="0.4064" layer="16"/>
</signal>
<signal name="N$1">
<contactref element="U2" pad="8"/>
<contactref element="C2" pad="1"/>
<wire x1="18.955" y1="11.8534" x2="18.9476" y2="11.746" width="0.4064" layer="16"/>
<wire x1="18.9476" y1="11.746" x2="21.136" y2="11.746" width="0.4064" layer="16"/>
</signal>
<signal name="INL">
<contactref element="U2" pad="7"/>
<contactref element="C14" pad="1"/>
<wire x1="17.97" y1="10.41" x2="17.7" y2="10.68" width="0.254" layer="16"/>
<wire x1="17.7" y1="10.68" x2="17.7" y2="11.8384" width="0.254" layer="16"/>
<wire x1="17.7" y1="11.8384" x2="17.685" y2="11.8534" width="0.4064" layer="16"/>
<wire x1="17.97" y1="10.41" x2="20.09" y2="10.41" width="0.254" layer="16"/>
<wire x1="20.09" y1="10.41" x2="20.45" y2="10.05" width="0.254" layer="16"/>
<wire x1="20.45" y1="10.05" x2="21.05" y2="10.05" width="0.254" layer="16"/>
<wire x1="21.05" y1="10.05" x2="21.14" y2="10.04" width="0.254" layer="16"/>
</signal>
<signal name="INR">
<contactref element="U2" pad="10"/>
<wire x1="17.69" y1="5.9116" x2="17.685" y2="6.1066" width="0.254" layer="16"/>
<contactref element="C15" pad="1"/>
<wire x1="17.68" y1="7.28" x2="17.68" y2="6.1116" width="0.254" layer="16"/>
<wire x1="17.68" y1="6.1116" x2="17.685" y2="6.1066" width="0.4064" layer="16"/>
<wire x1="19.57" y1="7.51" x2="17.91" y2="7.51" width="0.254" layer="16"/>
<wire x1="17.91" y1="7.51" x2="17.68" y2="7.28" width="0.254" layer="16"/>
<wire x1="21.15" y1="6.64" x2="20.44" y2="6.64" width="0.254" layer="16"/>
<wire x1="20.44" y1="6.64" x2="19.57" y2="7.51" width="0.254" layer="16"/>
</signal>
<signal name="SHDN">
<contactref element="U2" pad="12"/>
<contactref element="SJ2" pad="2"/>
<contactref element="R7" pad="2"/>
<via x="15.14" y="3.84" extent="1-16" drill="0.5"/>
<wire x1="15.145" y1="6.1066" x2="15.145" y2="3.845" width="0.254" layer="16"/>
<wire x1="15.145" y1="3.845" x2="15.14" y2="3.84" width="0.254" layer="16"/>
<wire x1="17.73" y1="3.84" x2="15.14" y2="3.84" width="0.254" layer="1"/>
<wire x1="18.41" y1="5.5" x2="18.41" y2="4.98" width="0.254" layer="1"/>
<wire x1="18.41" y1="4.98" x2="17.73" y2="4.3" width="0.254" layer="1"/>
<wire x1="17.73" y1="4.3" x2="17.73" y2="3.84" width="0.254" layer="1"/>
</signal>
<signal name="+OUTL">
<contactref element="U2" pad="1"/>
<contactref element="L3" pad="2"/>
<wire x1="10.065" y1="11.8534" x2="10.065" y2="10.765" width="0.4064" layer="16"/>
<wire x1="10.065" y1="10.765" x2="9.23" y2="9.93" width="0.4064" layer="16"/>
<wire x1="9.23" y1="9.93" x2="7.942" y2="9.93" width="0.4064" layer="16"/>
</signal>
<signal name="-OUTL">
<contactref element="U2" pad="3"/>
<contactref element="L4" pad="2"/>
<wire x1="8.066" y1="11.84" x2="7.972" y2="11.836" width="0.4064" layer="16"/>
<wire x1="8.066" y1="11.84" x2="8.86" y2="11.84" width="0.4064" layer="16"/>
<wire x1="8.86" y1="11.84" x2="9.17" y2="12.15" width="0.4064" layer="16"/>
<wire x1="9.17" y1="12.15" x2="9.17" y2="13.03" width="0.4064" layer="16"/>
<wire x1="9.17" y1="13.03" x2="9.58" y2="13.44" width="0.4064" layer="16"/>
<wire x1="9.58" y1="13.44" x2="12.22" y2="13.44" width="0.4064" layer="16"/>
<wire x1="12.22" y1="13.44" x2="12.6" y2="13.06" width="0.4064" layer="16"/>
<wire x1="12.6" y1="13.06" x2="12.6" y2="11.8584" width="0.4064" layer="16"/>
<wire x1="12.6" y1="11.8584" x2="12.605" y2="11.8534" width="0.4064" layer="16"/>
</signal>
<signal name="+OUTR">
<contactref element="U2" pad="16"/>
<contactref element="L2" pad="2"/>
<wire x1="8.122" y1="8.01" x2="7.932" y2="8.04" width="0.4064" layer="16"/>
<wire x1="10.065" y1="6.1066" x2="10.065" y2="7.285" width="0.4064" layer="16"/>
<wire x1="10.065" y1="7.285" x2="9.31" y2="8.04" width="0.4064" layer="16"/>
<wire x1="9.31" y1="8.04" x2="7.932" y2="8.04" width="0.4064" layer="16"/>
</signal>
<signal name="-OUTR">
<contactref element="U2" pad="14"/>
<contactref element="L1" pad="2"/>
<wire x1="8.07" y1="6.13" x2="7.962" y2="6.118" width="0.4064" layer="16"/>
<wire x1="8.07" y1="6.13" x2="8.82" y2="6.13" width="0.4064" layer="16"/>
<wire x1="8.82" y1="6.13" x2="9.15" y2="5.8" width="0.4064" layer="16"/>
<wire x1="9.15" y1="5.8" x2="9.15" y2="4.95" width="0.4064" layer="16"/>
<wire x1="9.15" y1="4.95" x2="9.54" y2="4.56" width="0.4064" layer="16"/>
<wire x1="9.54" y1="4.56" x2="12.27" y2="4.56" width="0.4064" layer="16"/>
<wire x1="12.27" y1="4.56" x2="12.61" y2="4.9" width="0.4064" layer="16"/>
<wire x1="12.61" y1="4.9" x2="12.61" y2="6.1016" width="0.4064" layer="16"/>
<wire x1="12.61" y1="6.1016" x2="12.605" y2="6.1066" width="0.4064" layer="16"/>
</signal>
<signal name="VCC">
<contactref element="J1" pad="1"/>
<contactref element="L6" pad="2"/>
<wire x1="6.06" y1="4.22" x2="2.78" y2="4.22" width="0.8128" layer="16"/>
<wire x1="2.78" y1="4.22" x2="1.34" y2="2.78" width="0.8128" layer="16"/>
<wire x1="1.34" y1="2.78" x2="1.34" y2="1.38" width="0.8128" layer="16"/>
</signal>
<signal name="PVDD">
<contactref element="U2" pad="4"/>
<contactref element="U2" pad="13"/>
<contactref element="C7" pad="2"/>
<contactref element="C8" pad="+"/>
<contactref element="C6" pad="+"/>
<contactref element="L6" pad="1"/>
<via x="13.86" y="10.16" extent="1-16" drill="0.6"/>
<via x="13.88" y="7.82" extent="1-16" drill="0.6"/>
<wire x1="13.875" y1="11.8534" x2="13.875" y2="10.215" width="0.8128" layer="16"/>
<wire x1="13.875" y1="10.215" x2="13.86" y2="10.16" width="0.4064" layer="16"/>
<wire x1="13.875" y1="6.1066" x2="13.875" y2="7.775" width="0.8128" layer="16"/>
<wire x1="13.875" y1="7.775" x2="13.88" y2="7.82" width="0.4064" layer="16"/>
<wire x1="13.88" y1="7.82" x2="13.88" y2="10.2" width="1.27" layer="16"/>
<wire x1="13.88" y1="10.2" x2="13.86" y2="10.16" width="0.4064" layer="16"/>
<wire x1="16.216" y1="11.776" x2="14.451" y2="11.776" width="1.27" layer="1"/>
<wire x1="14.451" y1="11.776" x2="13.875" y2="11.2" width="1.27" layer="1"/>
<wire x1="13.875" y1="11.2" x2="13.875" y2="9.115" width="1.27" layer="1"/>
<wire x1="13.875" y1="9.115" x2="14" y2="8.99" width="1.016" layer="1"/>
<wire x1="16.25" y1="6.19" x2="14.355" y2="6.19" width="1.27" layer="1"/>
<wire x1="14.355" y1="6.19" x2="13.875" y2="6.66" width="1.27" layer="1"/>
<wire x1="13.875" y1="6.66" x2="13.875" y2="8.865" width="1.27" layer="1"/>
<wire x1="13.875" y1="8.865" x2="14" y2="8.99" width="1.016" layer="1"/>
<wire x1="13.88" y1="5.9016" x2="13.875" y2="6.1066" width="0.4064" layer="16"/>
<wire x1="13.875" y1="6.66" x2="13.875" y2="7.795" width="0.254" layer="1"/>
<wire x1="13.875" y1="7.795" x2="13.88" y2="7.82" width="0.254" layer="1"/>
<contactref element="L7" pad="1"/>
<wire x1="16.51" y1="8.99" x2="14" y2="8.99" width="0.4064" layer="1"/>
<wire x1="9.1" y1="3.7" x2="8.58" y2="4.22" width="0.6096" layer="16"/>
<wire x1="8.58" y1="4.22" x2="7.96" y2="4.22" width="0.6096" layer="16"/>
<wire x1="9.1" y1="3.7" x2="12.77" y2="3.7" width="0.6096" layer="16"/>
<wire x1="12.77" y1="3.7" x2="13.88" y2="4.81" width="0.6096" layer="16"/>
<wire x1="13.88" y1="4.81" x2="13.88" y2="6.1016" width="0.6096" layer="16"/>
<wire x1="13.88" y1="6.1016" x2="13.875" y2="6.1066" width="0.6096" layer="16"/>
</signal>
<signal name="AGND">
<contactref element="U2" pad="2"/>
<contactref element="U2" pad="15"/>
<via x="11.29" y="10.14" extent="1-16" drill="0.6"/>
<via x="11.28" y="7.82" extent="1-16" drill="0.6"/>
<wire x1="11.335" y1="6.1066" x2="11.335" y2="7.805" width="0.8128" layer="16"/>
<wire x1="11.335" y1="7.805" x2="11.28" y2="7.82" width="0.4064" layer="16"/>
<wire x1="11.335" y1="11.8534" x2="11.335" y2="10.369" width="0.8128" layer="16"/>
<wire x1="11.335" y1="10.369" x2="11.335" y2="10.235" width="0.4064" layer="16"/>
<wire x1="11.335" y1="10.235" x2="11.29" y2="10.14" width="0.4064" layer="16"/>
<wire x1="11.29" y1="10.14" x2="11.29" y2="7.78" width="1.27" layer="16"/>
<wire x1="11.29" y1="7.78" x2="11.28" y2="7.82" width="0.4064" layer="16"/>
<wire x1="11.335" y1="10.369" x2="11.216" y2="10.25" width="0.254" layer="16"/>
</signal>
<signal name="N$2">
<contactref element="L1" pad="1"/>
<contactref element="C10" pad="2"/>
<contactref element="JP1" pad="4"/>
<via x="4.72" y="6.11" extent="1-16" drill="0.6"/>
<wire x1="6.062" y1="6.118" x2="4.722" y2="6.108" width="0.4064" layer="16"/>
<wire x1="4.722" y1="6.108" x2="4.72" y2="6.11" width="0.4064" layer="16"/>
<wire x1="7.28" y1="6.096" x2="7.256" y2="6.11" width="0.6096" layer="1"/>
<wire x1="7.256" y1="6.11" x2="4.72" y2="6.11" width="0.6096" layer="1"/>
<wire x1="4.72" y1="6.11" x2="4.732" y2="6.122" width="0.6096" layer="1"/>
<wire x1="4.732" y1="6.122" x2="4.732" y2="7.108" width="0.6096" layer="1"/>
</signal>
<signal name="N$4">
<contactref element="L2" pad="1"/>
<contactref element="C11" pad="2"/>
<contactref element="JP1" pad="3"/>
<via x="3.25" y="8.24" extent="1-16" drill="0.6"/>
<wire x1="6.032" y1="8.04" x2="6.12" y2="8" width="0.4064" layer="16"/>
<wire x1="6.12" y1="8" x2="6.07" y2="8.05" width="0.4064" layer="16"/>
<wire x1="4.924" y1="8.38" x2="4.732" y2="8.358" width="0.4064" layer="1"/>
<wire x1="6.12" y1="8" x2="3.49" y2="8" width="0.4064" layer="16"/>
<wire x1="3.49" y1="8" x2="3.25" y2="8.24" width="0.4064" layer="16"/>
<wire x1="4.924" y1="8.38" x2="3.39" y2="8.38" width="0.6096" layer="1"/>
<wire x1="3.39" y1="8.38" x2="3.25" y2="8.24" width="0.6096" layer="1"/>
<wire x1="7.2" y1="8.03" x2="7.18" y2="8.04" width="0.6096" layer="1"/>
<wire x1="7.18" y1="8.04" x2="6.262" y2="8.04" width="0.6096" layer="1"/>
<wire x1="6.262" y1="8.04" x2="5.944" y2="8.358" width="0.6096" layer="1"/>
<wire x1="5.944" y1="8.358" x2="4.732" y2="8.358" width="0.6096" layer="1"/>
</signal>
<signal name="N$5">
<contactref element="L3" pad="1"/>
<contactref element="C12" pad="2"/>
<contactref element="JP1" pad="2"/>
<via x="3.23" y="9.74" extent="1-16" drill="0.6"/>
<wire x1="4.92" y1="9.59" x2="4.732" y2="9.608" width="0.4064" layer="1"/>
<wire x1="6.042" y1="9.93" x2="3.37" y2="9.93" width="0.4064" layer="16"/>
<wire x1="3.37" y1="9.93" x2="3.23" y2="9.74" width="0.4064" layer="16"/>
<wire x1="4.92" y1="9.59" x2="3.43" y2="9.59" width="0.6096" layer="1"/>
<wire x1="3.43" y1="9.59" x2="3.23" y2="9.74" width="0.6096" layer="1"/>
<wire x1="7.2" y1="9.94" x2="7.18" y2="9.93" width="0.6096" layer="1"/>
<wire x1="7.18" y1="9.93" x2="6.282" y2="9.94" width="0.6096" layer="1"/>
<wire x1="6.282" y1="9.94" x2="5.96" y2="9.618" width="0.6096" layer="1"/>
<wire x1="5.96" y1="9.618" x2="4.732" y2="9.608" width="0.6096" layer="1"/>
</signal>
<signal name="N$9">
<contactref element="L4" pad="1"/>
<contactref element="C13" pad="2"/>
<contactref element="JP1" pad="1"/>
<via x="4.73" y="11.85" extent="1-16" drill="0.6"/>
<wire x1="4.86" y1="10.9" x2="4.732" y2="10.858" width="0.4064" layer="1"/>
<wire x1="6.072" y1="11.836" x2="4.744" y2="11.836" width="0.4064" layer="16"/>
<wire x1="4.744" y1="11.836" x2="4.73" y2="11.85" width="0.4064" layer="16"/>
<wire x1="7.19" y1="11.83" x2="7.16" y2="11.85" width="0.6096" layer="1"/>
<wire x1="7.16" y1="11.85" x2="4.73" y2="11.85" width="0.6096" layer="1"/>
<wire x1="4.86" y1="10.9" x2="4.73" y2="11.03" width="0.6096" layer="1"/>
<wire x1="4.73" y1="11.03" x2="4.73" y2="11.85" width="0.6096" layer="1"/>
</signal>
<signal name="XVDD">
<contactref element="L7" pad="2"/>
<contactref element="C9" pad="2"/>
<contactref element="U2" pad="6"/>
<contactref element="U2" pad="5"/>
<contactref element="R7" pad="1"/>
<via x="18.4" y="8.99" extent="1-16" drill="0.5"/>
<wire x1="18.41" y1="10.75" x2="18.41" y2="9" width="0.4064" layer="1"/>
<wire x1="18.41" y1="9" x2="18.4" y2="8.99" width="0.4064" layer="1"/>
<wire x1="18.41" y1="7.18" x2="18.41" y2="8.98" width="0.4064" layer="1"/>
<wire x1="18.41" y1="8.98" x2="18.4" y2="8.99" width="0.4064" layer="1"/>
<wire x1="15.145" y1="11.8534" x2="16.415" y2="11.8534" width="0.254" layer="16"/>
<wire x1="16.415" y1="11.8534" x2="16.415" y2="8.99" width="0.4064" layer="16"/>
<wire x1="16.415" y1="8.99" x2="18.4" y2="8.99" width="0.4064" layer="16"/>
<contactref element="SJ5" pad="1"/>
<wire x1="16.5" y1="3.86" x2="16.5" y2="4.46" width="0.254" layer="16"/>
<wire x1="16.5" y1="4.46" x2="16.26" y2="4.7" width="0.254" layer="16"/>
<wire x1="16.26" y1="4.7" x2="16" y2="4.7" width="0.254" layer="16"/>
<wire x1="16" y1="4.7" x2="15.78" y2="4.92" width="0.254" layer="16"/>
<wire x1="15.78" y1="4.92" x2="15.78" y2="8.355" width="0.254" layer="16"/>
<wire x1="15.78" y1="8.355" x2="16.415" y2="8.99" width="0.254" layer="16"/>
<wire x1="18.41" y1="8.98" x2="18.41" y2="8.99" width="0" layer="19" extent="1-1"/>
</signal>
<signal name="N$7">
<contactref element="SJ2" pad="1"/>
<contactref element="J1" pad="10"/>
<via x="20.38" y="3.2" extent="1-16" drill="0.5"/>
<wire x1="24.2" y1="1.38" x2="22.61" y2="2.97" width="0.254" layer="16"/>
<wire x1="22.61" y1="2.97" x2="20.59" y2="2.97" width="0.254" layer="16"/>
<wire x1="20.59" y1="2.97" x2="20.38" y2="3.2" width="0.254" layer="16"/>
<wire x1="19.13" y1="3.84" x2="19.72" y2="3.84" width="0.254" layer="1"/>
<wire x1="19.72" y1="3.84" x2="20.38" y2="3.2" width="0.254" layer="1"/>
</signal>
<signal name="N$3">
<contactref element="U1" pad="10"/>
<contactref element="C1" pad="1"/>
<wire x1="34.76" y1="6.13" x2="33.97" y2="6.13" width="0.254" layer="1"/>
<wire x1="33.97" y1="6.13" x2="33.55" y2="5.71" width="0.254" layer="1"/>
<wire x1="33.55" y1="5.71" x2="32.2184" y2="5.71" width="0.254" layer="1"/>
<wire x1="32.2184" y1="5.71" x2="32.2134" y2="5.715" width="0.254" layer="1"/>
</signal>
<signal name="N$12">
<contactref element="R1" pad="1"/>
<contactref element="C14" pad="2"/>
<wire x1="21.15" y1="8.33" x2="21.83" y2="8.33" width="0.254" layer="16"/>
<wire x1="21.83" y1="8.33" x2="22" y2="8.5" width="0.254" layer="16"/>
<wire x1="22" y1="8.5" x2="22" y2="9.85" width="0.254" layer="16"/>
<wire x1="22" y1="9.85" x2="22.2" y2="10.05" width="0.254" layer="16"/>
<wire x1="22.2" y1="10.05" x2="22.81" y2="10.05" width="0.254" layer="16"/>
<wire x1="22.81" y1="10.05" x2="22.82" y2="10.04" width="0.254" layer="16"/>
</signal>
<signal name="N$13">
<contactref element="R2" pad="1"/>
<contactref element="C15" pad="2"/>
<wire x1="21.17" y1="4.94" x2="21.79" y2="4.94" width="0.254" layer="16"/>
<wire x1="21.79" y1="4.94" x2="22" y2="5.15" width="0.254" layer="16"/>
<wire x1="22" y1="5.15" x2="22" y2="6.45" width="0.254" layer="16"/>
<wire x1="22" y1="6.45" x2="22.2" y2="6.65" width="0.254" layer="16"/>
<wire x1="22.2" y1="6.65" x2="22.82" y2="6.65" width="0.254" layer="16"/>
<wire x1="22.82" y1="6.65" x2="22.83" y2="6.64" width="0.254" layer="16"/>
</signal>
<signal name="OUTL">
<contactref element="U1" pad="7"/>
<contactref element="R1" pad="2"/>
<contactref element="C4" pad="1"/>
<via x="24.86" y="5.72" extent="1-16" drill="0.5"/>
<wire x1="26.4666" y1="5.715" x2="26.4616" y2="5.72" width="0.254" layer="1"/>
<wire x1="26.4616" y1="5.72" x2="24.86" y2="5.72" width="0.254" layer="1"/>
<wire x1="24.32" y1="5.72" x2="24.86" y2="5.72" width="0.254" layer="16"/>
<wire x1="24.32" y1="5.72" x2="23.73" y2="6.31" width="0.254" layer="16"/>
<wire x1="23.7" y1="5.57" x2="24.71" y2="5.57" width="0.254" layer="1"/>
<wire x1="24.71" y1="5.57" x2="24.86" y2="5.72" width="0.254" layer="1"/>
<wire x1="23.73" y1="6.31" x2="23.73" y2="8.07" width="0.254" layer="16"/>
<wire x1="23.73" y1="8.07" x2="23.5" y2="8.3" width="0.254" layer="16"/>
<wire x1="23.5" y1="8.3" x2="22.86" y2="8.3" width="0.254" layer="16"/>
<wire x1="22.86" y1="8.3" x2="22.83" y2="8.33" width="0.254" layer="16"/>
</signal>
<signal name="OUTR">
<contactref element="U1" pad="8"/>
<contactref element="R2" pad="2"/>
<contactref element="C5" pad="1"/>
<via x="24.84" y="4.44" extent="1-16" drill="0.5"/>
<wire x1="26.4666" y1="4.445" x2="26.4616" y2="4.44" width="0.254" layer="1"/>
<wire x1="26.4616" y1="4.44" x2="24.84" y2="4.44" width="0.254" layer="1"/>
<wire x1="24.12" y1="4.44" x2="24.84" y2="4.44" width="0.254" layer="16"/>
<wire x1="24.84" y1="4.44" x2="24.3" y2="4.44" width="0.254" layer="1"/>
<wire x1="24.3" y1="4.44" x2="23.7" y2="3.86" width="0.254" layer="1"/>
<wire x1="22.85" y1="4.94" x2="23.62" y2="4.94" width="0.254" layer="16"/>
<wire x1="23.62" y1="4.94" x2="24.12" y2="4.44" width="0.254" layer="16"/>
</signal>
<signal name="N$10">
<contactref element="R6" pad="2"/>
<contactref element="U1" pad="13"/>
<wire x1="32.2134" y1="9.525" x2="33.395" y2="9.525" width="0.254" layer="1"/>
<wire x1="33.395" y1="9.525" x2="33.66" y2="9.79" width="0.254" layer="1"/>
<wire x1="33.66" y1="9.79" x2="33.66" y2="10.19" width="0.254" layer="1"/>
<wire x1="33.66" y1="10.19" x2="33.99" y2="10.52" width="0.254" layer="1"/>
<wire x1="33.99" y1="10.52" x2="34.55" y2="10.52" width="0.254" layer="1"/>
<wire x1="34.55" y1="10.52" x2="34.76" y2="10.73" width="0.254" layer="1"/>
<wire x1="34.76" y1="10.73" x2="34.76" y2="11.49" width="0.254" layer="1"/>
</signal>
<signal name="N$11">
<contactref element="R3" pad="2"/>
<contactref element="U1" pad="1"/>
<wire x1="26.4666" y1="13.335" x2="25.015" y2="13.335" width="0.254" layer="1"/>
<wire x1="24.83" y1="13.15" x2="25.015" y2="13.335" width="0.254" layer="1"/>
<wire x1="24.83" y1="13.15" x2="23.14" y2="13.15" width="0.254" layer="1"/>
<wire x1="23.14" y1="13.15" x2="22.84" y2="12.85" width="0.254" layer="1"/>
<wire x1="22.84" y1="12.85" x2="22.84" y2="10.81" width="0.254" layer="1"/>
<wire x1="22.84" y1="10.81" x2="23.01" y2="10.64" width="0.254" layer="1"/>
<wire x1="23.01" y1="10.64" x2="23.69" y2="10.64" width="0.254" layer="1"/>
</signal>
<signal name="N$14">
<contactref element="U1" pad="2"/>
<contactref element="R4" pad="2"/>
<wire x1="26.4666" y1="12.065" x2="25.085" y2="12.065" width="0.254" layer="1"/>
<wire x1="25.085" y1="12.065" x2="24.85" y2="12.3" width="0.254" layer="1"/>
<wire x1="24.85" y1="12.3" x2="23.83" y2="12.3" width="0.254" layer="1"/>
<wire x1="23.83" y1="12.3" x2="23.69" y2="12.31" width="0.254" layer="1"/>
</signal>
<signal name="N$15">
<contactref element="U1" pad="3"/>
<contactref element="R5" pad="2"/>
<wire x1="25.07" y1="14.2" x2="24.93" y2="14.06" width="0.254" layer="1"/>
<wire x1="24.93" y1="14.06" x2="23.69" y2="14.06" width="0.254" layer="1"/>
<wire x1="25.07" y1="14.2" x2="27.52" y2="14.2" width="0.254" layer="1"/>
<wire x1="27.52" y1="14.2" x2="27.95" y2="13.77" width="0.254" layer="1"/>
<wire x1="27.95" y1="13.77" x2="27.95" y2="11.07" width="0.254" layer="1"/>
<wire x1="27.95" y1="11.07" x2="27.68" y2="10.8" width="0.254" layer="1"/>
<wire x1="27.68" y1="10.8" x2="26.4716" y2="10.8" width="0.254" layer="1"/>
<wire x1="26.4716" y1="10.8" x2="26.4666" y2="10.795" width="0.254" layer="1"/>
</signal>
<signal name="MUTE">
<contactref element="J1" pad="11"/>
<contactref element="SJ4" pad="2"/>
<wire x1="26.74" y1="1.38" x2="28.33" y2="2.97" width="0.254" layer="16"/>
<wire x1="28.33" y1="2.97" x2="30.66" y2="2.97" width="0.254" layer="16"/>
<wire x1="30.66" y1="2.97" x2="32.35" y2="4.66" width="0.254" layer="16"/>
<wire x1="32.35" y1="4.66" x2="32.35" y2="6.31" width="0.254" layer="16"/>
</signal>
<signal name="N$8">
<contactref element="C3" pad="1"/>
<contactref element="U1" pad="11"/>
<wire x1="32.2134" y1="6.985" x2="33.815" y2="6.985" width="0.254" layer="1"/>
<wire x1="33.815" y1="6.985" x2="34.74" y2="7.91" width="0.254" layer="1"/>
</signal>
<signal name="N$6">
<contactref element="C1" pad="2"/>
<contactref element="U1" pad="9"/>
<wire x1="32.2134" y1="4.445" x2="34.755" y2="4.445" width="0.254" layer="1"/>
<wire x1="34.755" y1="4.445" x2="34.76" y2="4.45" width="0.254" layer="1"/>
</signal>
<signal name="N$16">
<contactref element="U1" pad="6"/>
<contactref element="R8" pad="2"/>
<contactref element="C16" pad="1"/>
<wire x1="26.4666" y1="6.985" x2="25.155" y2="6.985" width="0.254" layer="1"/>
<wire x1="25.155" y1="6.985" x2="24.93" y2="7.21" width="0.254" layer="1"/>
<wire x1="24.93" y1="7.21" x2="23.7" y2="7.21" width="0.254" layer="1"/>
<wire x1="23.7" y1="7.21" x2="23.7" y2="8.91" width="0.254" layer="1"/>
<wire x1="23.7" y1="8.91" x2="23.69" y2="8.92" width="0.254" layer="1"/>
</signal>
<signal name="N$17">
<contactref element="R6" pad="1"/>
<contactref element="SJ1" pad="2"/>
<via x="33.69" y="14.25" extent="1-16" drill="0.5"/>
<wire x1="34.76" y1="13.17" x2="34.75" y2="13.17" width="0.254" layer="1"/>
<wire x1="34.76" y1="13.17" x2="34.76" y2="13.78" width="0.254" layer="1"/>
<wire x1="34.76" y1="13.78" x2="34.3" y2="14.24" width="0.254" layer="1"/>
<wire x1="34.3" y1="14.24" x2="33.7" y2="14.24" width="0.254" layer="1"/>
<wire x1="33.7" y1="14.24" x2="33.69" y2="14.25" width="0.254" layer="1"/>
<wire x1="33.69" y1="14.25" x2="31.15" y2="14.25" width="0.254" layer="16"/>
<wire x1="31.15" y1="14.25" x2="31" y2="14.4" width="0.254" layer="16"/>
<wire x1="31" y1="14.4" x2="29.4" y2="14.4" width="0.254" layer="16"/>
<wire x1="29.4" y1="14.4" x2="29.2" y2="14.2" width="0.254" layer="16"/>
<wire x1="29.2" y1="14.2" x2="29.2" y2="13.51" width="0.254" layer="16"/>
<wire x1="29.2" y1="13.51" x2="29.22" y2="13.49" width="0.254" layer="16"/>
</signal>
<signal name="MCLK">
<contactref element="SJ1" pad="1"/>
<contactref element="J1" pad="23"/>
<wire x1="14.04" y1="16.62" x2="15.63" y2="15.03" width="0.254" layer="16"/>
<wire x1="15.63" y1="15.03" x2="27.51" y2="15.03" width="0.254" layer="16"/>
<wire x1="27.51" y1="15.03" x2="28.03" y2="14.51" width="0.254" layer="16"/>
<wire x1="28.03" y1="14.51" x2="28.03" y2="13.3" width="0.254" layer="16"/>
<wire x1="28.03" y1="13.3" x2="28.02" y2="13.49" width="0.254" layer="16"/>
</signal>
<signal name="LRCK">
<contactref element="R4" pad="1"/>
<contactref element="J1" pad="21"/>
<wire x1="19.12" y1="16.6" x2="21.14" y2="14.58" width="0.254" layer="1"/>
<wire x1="21.14" y1="14.58" x2="21.14" y2="12.54" width="0.254" layer="1"/>
<wire x1="21.14" y1="12.54" x2="21.37" y2="12.31" width="0.254" layer="1"/>
<wire x1="21.37" y1="12.31" x2="22.01" y2="12.31" width="0.254" layer="1"/>
<wire x1="19.12" y1="16.6" x2="19.12" y2="16.62" width="0" layer="19" extent="1-1"/>
</signal>
<signal name="SDI">
<contactref element="R5" pad="1"/>
<contactref element="J1" pad="20"/>
<wire x1="21.66" y1="15.15" x2="21.66" y2="16.62" width="0.254" layer="1"/>
<wire x1="21.66" y1="15.15" x2="22.01" y2="14.8" width="0.254" layer="1"/>
<wire x1="22.01" y1="14.8" x2="22.01" y2="14.06" width="0.254" layer="1"/>
</signal>
<signal name="N$24">
<contactref element="R9" pad="1"/>
<contactref element="U1" pad="4"/>
<contactref element="SJ3" pad="2"/>
<via x="24.83" y="9.78" extent="1-16" drill="0.5"/>
<wire x1="26.4666" y1="9.525" x2="25.085" y2="9.525" width="0.254" layer="1"/>
<wire x1="25.085" y1="9.525" x2="24.83" y2="9.78" width="0.254" layer="1"/>
<wire x1="25.89" y1="9.78" x2="24.83" y2="9.78" width="0.254" layer="16"/>
<wire x1="25.89" y1="11.78" x2="25.89" y2="9.78" width="0.254" layer="16"/>
</signal>
<signal name="50MHZ">
<contactref element="Q1" pad="3"/>
<contactref element="SJ1" pad="3"/>
<wire x1="30.33" y1="10.15" x2="30.42" y2="10.15" width="0.254" layer="16"/>
<wire x1="30.42" y1="10.15" x2="30.42" y2="13.49" width="0.254" layer="16"/>
</signal>
<signal name="BCLK">
<contactref element="J1" pad="22"/>
<contactref element="R3" pad="1"/>
<wire x1="20.02" y1="14.98" x2="18.24" y2="14.98" width="0.254" layer="1"/>
<wire x1="18.24" y1="14.98" x2="16.6" y2="16.62" width="0.254" layer="1"/>
<wire x1="16.6" y1="16.62" x2="16.58" y2="16.62" width="0.254" layer="1"/>
<wire x1="22.23" y1="10.62" x2="22.01" y2="10.64" width="0.254" layer="1"/>
<wire x1="20.02" y1="14.98" x2="20.64" y2="14.36" width="0.254" layer="1"/>
<wire x1="20.64" y1="14.36" x2="20.64" y2="12.28" width="0.254" layer="1"/>
<wire x1="20.64" y1="12.28" x2="21.11" y2="11.81" width="0.254" layer="1"/>
<wire x1="21.11" y1="11.81" x2="21.11" y2="10.85" width="0.254" layer="1"/>
<wire x1="21.11" y1="10.85" x2="21.32" y2="10.64" width="0.254" layer="1"/>
<wire x1="21.32" y1="10.64" x2="22.01" y2="10.64" width="0.254" layer="1"/>
</signal>
<signal name="N$21">
<contactref element="L5" pad="1"/>
<contactref element="J1" pad="28"/>
<wire x1="1.34" y1="16.62" x2="2.94" y2="15.02" width="0.254" layer="16"/>
<wire x1="2.94" y1="15.02" x2="14.8" y2="15.02" width="0.254" layer="16"/>
<wire x1="14.8" y1="15.02" x2="15.31" y2="14.51" width="0.254" layer="16"/>
<wire x1="15.31" y1="14.51" x2="20.92" y2="14.51" width="0.254" layer="16"/>
<wire x1="20.92" y1="14.51" x2="21.18" y2="14.25" width="0.254" layer="16"/>
<wire x1="21.18" y1="14.25" x2="21.19" y2="13.49" width="0.254" layer="16"/>
</signal>
<signal name="XMUTE">
<contactref element="R10" pad="1"/>
<contactref element="C18" pad="2"/>
<contactref element="SJ4" pad="1"/>
<contactref element="U1" pad="15"/>
<via x="33.7" y="12.34" extent="1-16" drill="0.5"/>
<wire x1="32.2134" y1="12.065" x2="33.435" y2="12.065" width="0.254" layer="1"/>
<wire x1="33.435" y1="12.065" x2="33.7" y2="12.34" width="0.254" layer="1"/>
<wire x1="33.75" y1="6.31" x2="33.75" y2="8.81" width="0.254" layer="16"/>
<wire x1="33.75" y1="8.81" x2="33.71" y2="8.85" width="0.254" layer="16"/>
<wire x1="33.71" y1="8.85" x2="33.71" y2="11.12" width="0.254" layer="16"/>
<wire x1="33.71" y1="11.12" x2="33.7" y2="11.13" width="0.254" layer="16"/>
<wire x1="33.7" y1="11.13" x2="33.7" y2="12.34" width="0.254" layer="16"/>
</signal>
<signal name="MODE">
<contactref element="U2" pad="9"/>
<contactref element="SJ5" pad="2"/>
<wire x1="17.7" y1="3.86" x2="17.7" y2="4.6" width="0.254" layer="16"/>
<wire x1="17.7" y1="4.6" x2="17.84" y2="4.74" width="0.254" layer="16"/>
<wire x1="17.84" y1="4.74" x2="18.7" y2="4.74" width="0.254" layer="16"/>
<wire x1="18.7" y1="4.74" x2="18.96" y2="5" width="0.254" layer="16"/>
<wire x1="18.96" y1="5" x2="18.96" y2="6.1016" width="0.254" layer="16"/>
<wire x1="18.96" y1="6.1016" x2="18.955" y2="6.1066" width="0.254" layer="16"/>
</signal>
</signals>
</board>
</drawing>
<compatibility>
<note version="6.3" minversion="6.2.2" severity="warning">
Since Version 6.2.2 text objects can contain more than one line,
which will not be processed correctly with this version.
</note>
</compatibility>
</eagle>
