<?xml version="1.0" encoding="utf-8"?>
<!DOCTYPE eagle SYSTEM "eagle.dtd">
<eagle version="7.3.0">
<drawing>
<settings>
<setting alwaysvectorfont="no"/>
<setting verticaltext="up"/>
</settings>
<grid distance="0.01" unitdist="mm" unit="mm" style="lines" multiple="1" display="yes" altdistance="0.1" altunitdist="mm" altunit="mm"/>
<layers>
<layer number="1" name="Top" color="4" fill="1" visible="yes" active="yes"/>
<layer number="16" name="Bottom" color="1" fill="1" visible="yes" active="yes"/>
<layer number="17" name="Pads" color="2" fill="1" visible="yes" active="yes"/>
<layer number="18" name="Vias" color="2" fill="1" visible="yes" active="yes"/>
<layer number="19" name="Unrouted" color="6" fill="1" visible="yes" active="yes"/>
<layer number="20" name="Dimension" color="15" fill="1" visible="yes" active="yes"/>
<layer number="21" name="tPlace" color="7" fill="1" visible="yes" active="yes"/>
<layer number="22" name="bPlace" color="7" fill="1" visible="yes" active="yes"/>
<layer number="23" name="tOrigins" color="15" fill="1" visible="yes" active="yes"/>
<layer number="24" name="bOrigins" color="15" fill="1" visible="yes" active="yes"/>
<layer number="25" name="tNames" color="7" fill="1" visible="yes" active="yes"/>
<layer number="26" name="bNames" color="7" fill="1" visible="yes" active="yes"/>
<layer number="27" name="tValues" color="7" fill="1" visible="no" active="yes"/>
<layer number="28" name="bValues" color="7" fill="1" visible="no" active="yes"/>
<layer number="29" name="tStop" color="7" fill="3" visible="yes" active="yes"/>
<layer number="30" name="bStop" color="7" fill="6" visible="yes" active="yes"/>
<layer number="31" name="tCream" color="7" fill="4" visible="no" active="yes"/>
<layer number="32" name="bCream" color="7" fill="5" visible="no" active="yes"/>
<layer number="33" name="tFinish" color="6" fill="3" visible="no" active="yes"/>
<layer number="34" name="bFinish" color="6" fill="6" visible="no" active="yes"/>
<layer number="35" name="tGlue" color="7" fill="4" visible="no" active="yes"/>
<layer number="36" name="bGlue" color="7" fill="5" visible="no" active="yes"/>
<layer number="37" name="tTest" color="7" fill="1" visible="no" active="yes"/>
<layer number="38" name="bTest" color="7" fill="1" visible="no" active="yes"/>
<layer number="39" name="tKeepout" color="4" fill="11" visible="no" active="yes"/>
<layer number="40" name="bKeepout" color="1" fill="11" visible="no" active="yes"/>
<layer number="41" name="tRestrict" color="4" fill="10" visible="no" active="yes"/>
<layer number="42" name="bRestrict" color="1" fill="10" visible="no" active="yes"/>
<layer number="43" name="vRestrict" color="2" fill="10" visible="no" active="yes"/>
<layer number="44" name="Drills" color="7" fill="1" visible="no" active="yes"/>
<layer number="45" name="Holes" color="7" fill="1" visible="no" active="yes"/>
<layer number="46" name="Milling" color="3" fill="1" visible="no" active="yes"/>
<layer number="47" name="Measures" color="7" fill="1" visible="no" active="yes"/>
<layer number="48" name="Document" color="7" fill="1" visible="no" active="yes"/>
<layer number="49" name="Reference" color="7" fill="1" visible="no" active="yes"/>
<layer number="50" name="dxf" color="7" fill="1" visible="no" active="no"/>
<layer number="51" name="tDocu" color="7" fill="1" visible="yes" active="yes"/>
<layer number="52" name="bDocu" color="7" fill="1" visible="yes" active="yes"/>
<layer number="53" name="tGND_GNDA" color="7" fill="9" visible="no" active="no"/>
<layer number="54" name="bGND_GNDA" color="1" fill="9" visible="no" active="no"/>
<layer number="56" name="wert" color="7" fill="1" visible="no" active="no"/>
<layer number="57" name="tCAD" color="7" fill="1" visible="no" active="no"/>
<layer number="59" name="tCarbon" color="7" fill="1" visible="no" active="no"/>
<layer number="60" name="bCarbon" color="7" fill="1" visible="no" active="no"/>
<layer number="90" name="Modules" color="5" fill="1" visible="no" active="no"/>
<layer number="91" name="Nets" color="2" fill="1" visible="no" active="no"/>
<layer number="92" name="Busses" color="1" fill="1" visible="no" active="no"/>
<layer number="93" name="Pins" color="2" fill="1" visible="no" active="no"/>
<layer number="94" name="Symbols" color="4" fill="1" visible="no" active="no"/>
<layer number="95" name="Names" color="7" fill="1" visible="no" active="no"/>
<layer number="96" name="Values" color="7" fill="1" visible="no" active="no"/>
<layer number="97" name="Info" color="7" fill="1" visible="no" active="no"/>
<layer number="98" name="Guide" color="6" fill="1" visible="no" active="no"/>
<layer number="99" name="SpiceOrder" color="7" fill="1" visible="no" active="no"/>
<layer number="100" name="Muster" color="7" fill="1" visible="no" active="no"/>
<layer number="101" name="Patch_Top" color="12" fill="4" visible="no" active="yes"/>
<layer number="102" name="Vscore" color="7" fill="1" visible="no" active="yes"/>
<layer number="103" name="tMap" color="7" fill="1" visible="no" active="yes"/>
<layer number="104" name="Name" color="16" fill="1" visible="no" active="yes"/>
<layer number="105" name="tPlate" color="7" fill="1" visible="no" active="yes"/>
<layer number="106" name="bPlate" color="7" fill="1" visible="no" active="yes"/>
<layer number="107" name="Crop" color="7" fill="1" visible="no" active="yes"/>
<layer number="108" name="tplace-old" color="10" fill="1" visible="no" active="yes"/>
<layer number="109" name="ref-old" color="11" fill="1" visible="no" active="yes"/>
<layer number="110" name="fp0" color="7" fill="1" visible="no" active="yes"/>
<layer number="111" name="LPC17xx" color="7" fill="1" visible="no" active="yes"/>
<layer number="112" name="tSilk" color="7" fill="1" visible="no" active="yes"/>
<layer number="113" name="IDFDebug" color="4" fill="1" visible="no" active="yes"/>
<layer number="116" name="Patch_BOT" color="9" fill="4" visible="no" active="yes"/>
<layer number="121" name="_tsilk" color="7" fill="1" visible="no" active="yes"/>
<layer number="122" name="_bsilk" color="7" fill="1" visible="no" active="yes"/>
<layer number="123" name="tTestmark" color="7" fill="1" visible="no" active="yes"/>
<layer number="124" name="bTestmark" color="7" fill="1" visible="no" active="yes"/>
<layer number="125" name="_tNames" color="7" fill="1" visible="no" active="yes"/>
<layer number="126" name="_bNames" color="7" fill="1" visible="no" active="yes"/>
<layer number="127" name="_tValues" color="7" fill="1" visible="no" active="yes"/>
<layer number="128" name="_bValues" color="7" fill="1" visible="no" active="yes"/>
<layer number="129" name="Mask" color="7" fill="1" visible="yes" active="yes"/>
<layer number="131" name="tAdjust" color="7" fill="1" visible="no" active="yes"/>
<layer number="132" name="bAdjust" color="7" fill="1" visible="no" active="yes"/>
<layer number="144" name="Drill_legend" color="7" fill="1" visible="no" active="yes"/>
<layer number="150" name="Notes" color="7" fill="1" visible="no" active="yes"/>
<layer number="151" name="HeatSink" color="7" fill="1" visible="no" active="yes"/>
<layer number="152" name="_bDocu" color="7" fill="1" visible="no" active="yes"/>
<layer number="153" name="FabDoc1" color="7" fill="1" visible="no" active="yes"/>
<layer number="154" name="FabDoc2" color="7" fill="1" visible="no" active="yes"/>
<layer number="155" name="FabDoc3" color="7" fill="1" visible="no" active="yes"/>
<layer number="199" name="Contour" color="7" fill="1" visible="no" active="yes"/>
<layer number="200" name="200bmp" color="1" fill="10" visible="no" active="yes"/>
<layer number="201" name="201bmp" color="2" fill="10" visible="no" active="yes"/>
<layer number="202" name="202bmp" color="3" fill="10" visible="no" active="yes"/>
<layer number="203" name="203bmp" color="4" fill="10" visible="no" active="yes"/>
<layer number="204" name="204bmp" color="5" fill="10" visible="no" active="yes"/>
<layer number="205" name="205bmp" color="6" fill="10" visible="no" active="yes"/>
<layer number="206" name="206bmp" color="7" fill="10" visible="no" active="yes"/>
<layer number="207" name="207bmp" color="8" fill="10" visible="no" active="yes"/>
<layer number="208" name="208bmp" color="9" fill="10" visible="no" active="yes"/>
<layer number="209" name="209bmp" color="7" fill="1" visible="no" active="yes"/>
<layer number="210" name="210bmp" color="7" fill="1" visible="no" active="yes"/>
<layer number="211" name="211bmp" color="7" fill="1" visible="no" active="yes"/>
<layer number="212" name="212bmp" color="7" fill="1" visible="no" active="yes"/>
<layer number="213" name="213bmp" color="7" fill="1" visible="no" active="yes"/>
<layer number="214" name="214bmp" color="7" fill="1" visible="no" active="yes"/>
<layer number="215" name="215bmp" color="7" fill="1" visible="no" active="yes"/>
<layer number="216" name="216bmp" color="7" fill="1" visible="no" active="yes"/>
<layer number="217" name="217bmp" color="18" fill="1" visible="no" active="no"/>
<layer number="218" name="218bmp" color="19" fill="1" visible="no" active="no"/>
<layer number="219" name="219bmp" color="20" fill="1" visible="no" active="no"/>
<layer number="220" name="220bmp" color="21" fill="1" visible="no" active="no"/>
<layer number="221" name="221bmp" color="22" fill="1" visible="no" active="no"/>
<layer number="222" name="222bmp" color="23" fill="1" visible="no" active="no"/>
<layer number="223" name="223bmp" color="24" fill="1" visible="no" active="no"/>
<layer number="224" name="224bmp" color="25" fill="1" visible="no" active="no"/>
<layer number="231" name="Eagle3D_PG1" color="14" fill="1" visible="yes" active="yes"/>
<layer number="232" name="Eagle3D_PG2" color="14" fill="2" visible="yes" active="yes"/>
<layer number="233" name="Eagle3D_PG3" color="14" fill="4" visible="yes" active="yes"/>
<layer number="248" name="Housing" color="7" fill="1" visible="no" active="yes"/>
<layer number="249" name="Edge" color="7" fill="1" visible="no" active="yes"/>
<layer number="250" name="Descript" color="3" fill="1" visible="no" active="no"/>
<layer number="251" name="SMDround" color="12" fill="11" visible="no" active="no"/>
<layer number="254" name="cooling" color="7" fill="1" visible="no" active="yes"/>
</layers>
<board>
<plain>
<text x="11.73" y="1.43" size="0.8128" layer="22" font="vector" ratio="15" rot="MR0">mcutech.eu</text>
<text x="5.23" y="8.31" size="1.27" layer="22" font="vector" ratio="15" rot="MR180">BAT1</text>
<wire x1="0.1" y1="0" x2="16.5" y2="0" width="0.1" layer="20"/>
<wire x1="16.5" y1="0" x2="16.5" y2="12" width="0.1" layer="20"/>
<wire x1="16.5" y1="12" x2="0.1" y2="12" width="0.1" layer="20"/>
<wire x1="0.1" y1="12" x2="0.1" y2="0" width="0.1" layer="20"/>
<text x="2.01" y="11.49" size="0.8128" layer="22" font="vector" ratio="20" rot="MR180">GND</text>
<text x="2.12" y="1.33" size="0.8128" layer="22" font="vector" ratio="20" rot="MR180">GND</text>
<text x="2.11" y="2.58" size="0.8128" layer="22" font="vector" ratio="20" rot="MR180">VCC</text>
<text x="2.11" y="3.88" size="0.8128" layer="22" font="vector" ratio="20" rot="MR180">ILIM</text>
<text x="2.1" y="5.15" size="0.8128" layer="22" font="vector" ratio="20" rot="MR180">EN</text>
<text x="2.1" y="6.33" size="0.8128" layer="22" font="vector" ratio="20" rot="MR180">MODE</text>
<text x="2.08" y="7.62" size="0.8128" layer="22" font="vector" ratio="20" rot="MR180">GND</text>
<text x="1.8" y="8.91" size="0.8128" layer="22" font="vector" ratio="20" rot="MR180">VIN</text>
<text x="14.36" y="9.29" size="0.8128" layer="22" font="vector" ratio="20" rot="MR0">!CHG</text>
<text x="14.42" y="7.98" size="0.8128" layer="22" font="vector" ratio="20" rot="MR0">!BOOST</text>
<text x="14.4" y="5.54" size="0.8128" layer="22" font="vector" ratio="20" rot="MR0">NTC</text>
<text x="14.44" y="4.34" size="0.8128" layer="22" font="vector" ratio="20" rot="MR0">BAT+</text>
<text x="14.48" y="3.01" size="0.8128" layer="22" font="vector" ratio="20" rot="MR0">BAT+</text>
<text x="14.48" y="1.76" size="0.8128" layer="22" font="vector" ratio="20" rot="MR0">GND</text>
<text x="14.47" y="0.52" size="0.8128" layer="22" font="vector" ratio="20" rot="MR0">GND</text>
<text x="2.02" y="10.15" size="0.8128" layer="22" font="vector" ratio="20" rot="MR180">VPWR</text>
</plain>
<libraries>
<library name="atomx_RLC">
<packages>
<package name="C0402">
<description>&lt;b&gt;CAPACITOR&lt;/b&gt;&lt;p&gt;
chip</description>
<wire x1="-0.245" y1="0.224" x2="0.245" y2="0.224" width="0.1524" layer="51"/>
<wire x1="0.245" y1="-0.224" x2="-0.245" y2="-0.224" width="0.1524" layer="51"/>
<smd name="1" x="-0.5" y="0" dx="0.5" dy="0.65" layer="1"/>
<smd name="2" x="0.5" y="0" dx="0.5" dy="0.65" layer="1"/>
<text x="-1.016" y="0.889" size="0.8128" layer="25" font="vector" ratio="15">&gt;NAME</text>
<rectangle x1="-0.554" y1="-0.3048" x2="-0.254" y2="0.2951" layer="51"/>
<rectangle x1="0.2588" y1="-0.3048" x2="0.5588" y2="0.2951" layer="51"/>
<rectangle x1="-0.1999" y1="-0.3" x2="0.1999" y2="0.3" layer="35"/>
</package>
<package name="C0805">
<description>&lt;b&gt;CAPACITOR&lt;/b&gt;&lt;p&gt;
Pad definition corrected 2006.05.15, librarian@cadsoft.de</description>
<wire x1="-0.381" y1="0.66" x2="0.381" y2="0.66" width="0.1016" layer="51"/>
<wire x1="-0.356" y1="-0.66" x2="0.381" y2="-0.66" width="0.1016" layer="51"/>
<smd name="1" x="-0.95" y="0" dx="1.2" dy="1.5" layer="1"/>
<smd name="2" x="0.95" y="0" dx="1.2" dy="1.5" layer="1"/>
<text x="-1.651" y="1.016" size="0.6096" layer="25">&gt;NAME</text>
<text x="-1.651" y="-1.651" size="0.6096" layer="27">&gt;VALUE</text>
<rectangle x1="-1.0922" y1="-0.7239" x2="-0.3421" y2="0.7262" layer="51"/>
<rectangle x1="0.3556" y1="-0.7239" x2="1.1057" y2="0.7262" layer="51"/>
<rectangle x1="-0.1001" y1="-0.4001" x2="0.1001" y2="0.4001" layer="35"/>
</package>
<package name="C0603">
<description>&lt;b&gt;CAPACITOR&lt;/b&gt;&lt;p&gt;
chip</description>
<wire x1="-0.356" y1="0.432" x2="0.356" y2="0.432" width="0.1016" layer="51"/>
<wire x1="-0.356" y1="-0.419" x2="0.356" y2="-0.419" width="0.1016" layer="51"/>
<smd name="1" x="-0.73" y="0" dx="0.8" dy="1" layer="1"/>
<smd name="2" x="0.73" y="0" dx="0.8" dy="1" layer="1"/>
<text x="-1.397" y="0.762" size="0.8128" layer="25" font="vector" ratio="15">&gt;NAME</text>
<rectangle x1="-0.8382" y1="-0.4699" x2="-0.3381" y2="0.4801" layer="51"/>
<rectangle x1="0.3302" y1="-0.4699" x2="0.8303" y2="0.4801" layer="51"/>
<rectangle x1="-0.1999" y1="-0.3" x2="0.1999" y2="0.3" layer="35"/>
</package>
<package name="R0402">
<description>&lt;b&gt;RESISTOR&lt;/b&gt;&lt;p&gt;
chip</description>
<wire x1="-0.245" y1="0.224" x2="0.245" y2="0.224" width="0.1524" layer="51"/>
<wire x1="0.245" y1="-0.224" x2="-0.245" y2="-0.224" width="0.1524" layer="51"/>
<smd name="1" x="-0.5" y="0" dx="0.5" dy="0.65" layer="1"/>
<smd name="2" x="0.5" y="0" dx="0.5" dy="0.65" layer="1"/>
<text x="-0.635" y="1.27" size="0.8128" layer="25" font="vector" ratio="15">&gt;NAME</text>
<rectangle x1="-0.554" y1="-0.3048" x2="-0.254" y2="0.2951" layer="51"/>
<rectangle x1="0.2588" y1="-0.3048" x2="0.5588" y2="0.2951" layer="51"/>
<rectangle x1="-0.1999" y1="-0.4001" x2="0.1999" y2="0.4001" layer="35"/>
</package>
<package name="LPS3015">
<smd name="P$1" x="-1.4" y="0" dx="3.3" dy="1.4" layer="1" rot="R90"/>
<smd name="P$2" x="1.4" y="0" dx="3.3" dy="1.4" layer="1" rot="R90"/>
<wire x1="-1.3" y1="1.6" x2="1.3" y2="1.6" width="0.127" layer="51"/>
<wire x1="1.6" y1="1.3" x2="1.6" y2="-1.3" width="0.127" layer="51"/>
<wire x1="1.3" y1="-1.6" x2="-1.3" y2="-1.6" width="0.127" layer="51"/>
<wire x1="-1.3" y1="1.6" x2="-1.6" y2="1.3" width="0.127" layer="51"/>
<wire x1="-1.6" y1="1.3" x2="-1.6" y2="-1.3" width="0.127" layer="51"/>
<wire x1="-1.6" y1="-1.3" x2="-1.3" y2="-1.6" width="0.127" layer="51"/>
<wire x1="1.6" y1="1.3" x2="1.3" y2="1.6" width="0.127" layer="51"/>
<wire x1="1.3" y1="-1.6" x2="1.6" y2="-1.3" width="0.127" layer="51"/>
<text x="-1.27" y="2.54" size="0.6096" layer="25">&gt;NAME</text>
</package>
<package name="R0805">
<description>&lt;b&gt;RESISTOR&lt;/b&gt;&lt;p&gt;
Pad definition corrected 2006.05.15, librarian@cadsoft.de</description>
<wire x1="-0.41" y1="0.635" x2="0.41" y2="0.635" width="0.1524" layer="51"/>
<wire x1="-0.41" y1="-0.635" x2="0.41" y2="-0.635" width="0.1524" layer="51"/>
<smd name="1" x="-0.95" y="0" dx="1.2" dy="1.5" layer="1"/>
<smd name="2" x="0.95" y="0" dx="1.2" dy="1.5" layer="1"/>
<text x="-1.905" y="1.27" size="0.8128" layer="25" font="vector" ratio="16">&gt;NAME</text>
<rectangle x1="0.4064" y1="-0.6985" x2="1.0564" y2="0.7015" layer="51"/>
<rectangle x1="-1.0668" y1="-0.6985" x2="-0.4168" y2="0.7015" layer="51"/>
<rectangle x1="-0.1999" y1="-0.5001" x2="0.1999" y2="0.5001" layer="35"/>
</package>
</packages>
</library>
<library name="atomx_Common">
<packages>
<package name="OSHW-LOGO-S">
<polygon width="0.15" layer="21">
<vertex x="0.3947" y="-0.9528" curve="9.498218"/>
<vertex x="0.5465" y="-0.8746"/>
<vertex x="0.9235" y="-1.182"/>
<vertex x="1.182" y="-0.9235"/>
<vertex x="0.8746" y="-0.5465" curve="19.000773"/>
<vertex x="1.0049" y="-0.232"/>
<vertex x="1.4888" y="-0.1828"/>
<vertex x="1.4888" y="0.1828"/>
<vertex x="1.0049" y="0.232" curve="19.000773"/>
<vertex x="0.8746" y="0.5465"/>
<vertex x="1.182" y="0.9235"/>
<vertex x="0.9235" y="1.182"/>
<vertex x="0.5465" y="0.8746" curve="19.000773"/>
<vertex x="0.232" y="1.0049"/>
<vertex x="0.1828" y="1.4888"/>
<vertex x="-0.1828" y="1.4888"/>
<vertex x="-0.232" y="1.0049" curve="19.000773"/>
<vertex x="-0.5465" y="0.8746"/>
<vertex x="-0.9235" y="1.182"/>
<vertex x="-1.182" y="0.9235"/>
<vertex x="-0.8746" y="0.5465" curve="19.000773"/>
<vertex x="-1.0049" y="0.232"/>
<vertex x="-1.4888" y="0.1828"/>
<vertex x="-1.4888" y="-0.1828"/>
<vertex x="-1.0049" y="-0.232" curve="19.000773"/>
<vertex x="-0.8746" y="-0.5465"/>
<vertex x="-1.182" y="-0.9235"/>
<vertex x="-0.9235" y="-1.182"/>
<vertex x="-0.5465" y="-0.8746" curve="9.498218"/>
<vertex x="-0.3947" y="-0.9528"/>
<vertex x="-0.1794" y="-0.4331" curve="-67.514699"/>
<vertex x="-0.4688" y="0" curve="-247.473915"/>
<vertex x="0.1794" y="-0.4331"/>
</polygon>
</package>
</packages>
</library>
<library name="atomx_IC">
<packages>
<package name="QFN24_4MM">
<wire x1="1.65" y1="-2" x2="2" y2="-2" width="0.2032" layer="21"/>
<wire x1="2" y1="-1.65" x2="2" y2="-2" width="0.2032" layer="21"/>
<wire x1="-1.65" y1="-2" x2="-2" y2="-2" width="0.2032" layer="21"/>
<wire x1="-2" y1="-2" x2="-2" y2="-1.65" width="0.2032" layer="21"/>
<wire x1="2" y1="1.65" x2="2" y2="2" width="0.2032" layer="21"/>
<wire x1="2" y1="2" x2="1.65" y2="2" width="0.2032" layer="21"/>
<wire x1="-1.65" y1="2" x2="-2" y2="1.65" width="0.2032" layer="21"/>
<wire x1="-2" y1="2" x2="-2" y2="-2" width="0.2032" layer="51"/>
<wire x1="-2" y1="-2" x2="2" y2="-2" width="0.2032" layer="51"/>
<wire x1="2" y1="-2" x2="2" y2="2" width="0.2032" layer="51"/>
<wire x1="2" y1="2" x2="-2" y2="2" width="0.2032" layer="51"/>
<circle x="-3.048" y="1.27" radius="0.127" width="0.2032" layer="21"/>
<smd name="1" x="-2" y="1.25" dx="0.8" dy="0.28" layer="1" roundness="50" rot="R180"/>
<smd name="2" x="-2" y="0.75" dx="0.8" dy="0.28" layer="1" roundness="50" rot="R180"/>
<smd name="3" x="-2" y="0.25" dx="0.8" dy="0.28" layer="1" roundness="50" rot="R180"/>
<smd name="4" x="-2" y="-0.25" dx="0.8" dy="0.28" layer="1" roundness="50" rot="R180"/>
<smd name="5" x="-2" y="-0.75" dx="0.8" dy="0.28" layer="1" roundness="50" rot="R180"/>
<smd name="6" x="-2" y="-1.25" dx="0.8" dy="0.28" layer="1" roundness="50" rot="R180"/>
<smd name="7" x="-1.25" y="-2" dx="0.8" dy="0.28" layer="1" roundness="50" rot="R90"/>
<smd name="8" x="-0.75" y="-2" dx="0.8" dy="0.28" layer="1" roundness="50" rot="R90"/>
<smd name="9" x="-0.25" y="-2" dx="0.8" dy="0.28" layer="1" roundness="50" rot="R90"/>
<smd name="10" x="0.25" y="-2" dx="0.8" dy="0.28" layer="1" roundness="50" rot="R90"/>
<smd name="11" x="0.75" y="-2" dx="0.8" dy="0.28" layer="1" roundness="50" rot="R90"/>
<smd name="12" x="1.25" y="-2" dx="0.8" dy="0.28" layer="1" roundness="50" rot="R90"/>
<smd name="13" x="2" y="-1.25" dx="0.8" dy="0.28" layer="1" roundness="50"/>
<smd name="14" x="2" y="-0.75" dx="0.8" dy="0.28" layer="1" roundness="50"/>
<smd name="15" x="2" y="-0.25" dx="0.8" dy="0.28" layer="1" roundness="50"/>
<smd name="16" x="2" y="0.25" dx="0.8" dy="0.28" layer="1" roundness="50"/>
<smd name="17" x="2" y="0.75" dx="0.8" dy="0.28" layer="1" roundness="50"/>
<smd name="18" x="2" y="1.25" dx="0.8" dy="0.28" layer="1" roundness="50"/>
<smd name="19" x="1.25" y="2" dx="0.8" dy="0.28" layer="1" roundness="50" rot="R270"/>
<smd name="20" x="0.75" y="2" dx="0.8" dy="0.28" layer="1" roundness="50" rot="R270"/>
<smd name="21" x="0.25" y="2" dx="0.8" dy="0.28" layer="1" roundness="50" rot="R270"/>
<smd name="22" x="-0.25" y="2" dx="0.8" dy="0.28" layer="1" roundness="50" rot="R270"/>
<smd name="23" x="-0.75" y="2" dx="0.8" dy="0.28" layer="1" roundness="50" rot="R270"/>
<smd name="24" x="-1.25" y="2" dx="0.8" dy="0.28" layer="1" roundness="50" rot="R270"/>
<smd name="THERM" x="0" y="0" dx="2.6" dy="2.6" layer="1" roundness="20" cream="no"/>
<text x="-2.35" y="2.8" size="0.8128" layer="25" ratio="18">&gt;NAME</text>
<text x="-2.5" y="-3.15" size="0.4064" layer="27" ratio="10">&gt;VALUE</text>
<rectangle x1="0.1" y1="0.1" x2="0.75" y2="0.75" layer="31"/>
<rectangle x1="0.1" y1="-0.75" x2="0.75" y2="-0.1" layer="31"/>
<rectangle x1="-0.75" y1="0.1" x2="-0.1" y2="0.75" layer="31"/>
<rectangle x1="-0.75" y1="-0.75" x2="-0.1" y2="-0.1" layer="31"/>
</package>
</packages>
</library>
<library name="atomx_Connectors">
<packages>
<package name="1X09_1.27MM_DUAL">
<wire x1="11.049" y1="-0.889" x2="11.049" y2="0.762" width="0.127" layer="51"/>
<wire x1="-0.889" y1="0.762" x2="-0.889" y2="-0.889" width="0.127" layer="51"/>
<pad name="5" x="5.08" y="0" drill="0.6" diameter="1"/>
<pad name="6" x="6.35" y="0" drill="0.6" diameter="1"/>
<pad name="4" x="3.81" y="0" drill="0.6" diameter="1"/>
<pad name="7" x="7.62" y="0" drill="0.6" diameter="1"/>
<pad name="3" x="2.54" y="0" drill="0.6" diameter="1"/>
<pad name="8" x="8.89" y="0" drill="0.6" diameter="1"/>
<pad name="2" x="1.27" y="0" drill="0.6" diameter="1"/>
<pad name="9" x="10.16" y="0" drill="0.6" diameter="1"/>
<pad name="1" x="0" y="0" drill="0.6" diameter="1"/>
<text x="-0.508" y="1.27" size="0.4064" layer="25">&gt;NAME</text>
<pad name="1@0" x="0" y="-1" drill="0.6" diameter="1"/>
<pad name="2@0" x="1.27" y="-1" drill="0.6" diameter="1"/>
<pad name="3@0" x="2.54" y="-1" drill="0.6" diameter="1"/>
<pad name="4@0" x="3.81" y="-1" drill="0.6" diameter="1"/>
<pad name="5@0" x="5.08" y="-1" drill="0.6" diameter="1"/>
<pad name="6@0" x="6.35" y="-1" drill="0.6" diameter="1"/>
<pad name="7@0" x="7.62" y="-1" drill="0.6" diameter="1"/>
<pad name="8@0" x="8.89" y="-1" drill="0.6" diameter="1"/>
<pad name="9@0" x="10.16" y="-1" drill="0.6" diameter="1"/>
<wire x1="-0.889" y1="-0.889" x2="11.049" y2="-0.889" width="0.127" layer="51"/>
<smd name="1@2" x="0" y="-0.508" dx="2" dy="1" layer="1" rot="R90"/>
<smd name="2@2" x="1.27" y="-0.508" dx="2" dy="1" layer="1" rot="R90"/>
<smd name="1@1" x="0" y="-0.508" dx="2" dy="1" layer="16" rot="R90"/>
<smd name="2@1" x="1.27" y="-0.508" dx="2" dy="1" layer="16" rot="R90"/>
<smd name="3@1" x="2.54" y="-0.508" dx="2" dy="1" layer="16" rot="R90"/>
<smd name="3@2" x="2.54" y="-0.508" dx="2" dy="1" layer="1" rot="R90"/>
<smd name="4@1" x="3.81" y="-0.508" dx="2" dy="1" layer="1" rot="R90"/>
<smd name="4@2" x="3.81" y="-0.508" dx="2" dy="1" layer="16" rot="R90"/>
<smd name="5@2" x="5.08" y="-0.508" dx="2" dy="1" layer="16" rot="R90"/>
<smd name="5@1" x="5.08" y="-0.508" dx="2" dy="1" layer="1" rot="R90"/>
<smd name="6@1" x="6.35" y="-0.508" dx="2" dy="1" layer="1" rot="R90"/>
<smd name="6@2" x="6.35" y="-0.508" dx="2" dy="1" layer="16" rot="R90"/>
<smd name="7@2" x="7.62" y="-0.508" dx="2" dy="1" layer="16" rot="R90"/>
<smd name="7@1" x="7.62" y="-0.508" dx="2" dy="1" layer="1" rot="R90"/>
<smd name="8@1" x="8.89" y="-0.508" dx="2" dy="1" layer="1" rot="R90"/>
<smd name="8@2" x="8.89" y="-0.508" dx="2" dy="1" layer="16" rot="R90"/>
<smd name="9@2" x="10.16" y="-0.508" dx="2" dy="1" layer="16" rot="R90"/>
<smd name="9@1" x="10.16" y="-0.508" dx="2" dy="1" layer="1" rot="R90"/>
<wire x1="-0.889" y1="0.762" x2="11.049" y2="0.762" width="0.127" layer="51"/>
</package>
</packages>
</library>
</libraries>
<attributes>
</attributes>
<variantdefs>
</variantdefs>
<classes>
<class number="0" name="default" width="0" drill="0">
</class>
</classes>
<designrules name="ITEADstudio_DRC *">
<description language="de">&lt;b&gt;EAGLE Design Rules&lt;/b&gt;
&lt;p&gt;
Die Standard-Design-Rules sind so gewählt, dass sie für 
die meisten Anwendungen passen. Sollte ihre Platine 
besondere Anforderungen haben, treffen Sie die erforderlichen
Einstellungen hier und speichern die Design Rules unter 
einem neuen Namen ab.</description>
<description language="en">&lt;b&gt;EAGLE Design Rules&lt;/b&gt;
&lt;p&gt;
The default Design Rules have been set to cover
a wide range of applications. Your particular design
may have different requirements, so please make the
necessary adjustments and save your customized
design rules under a new name.</description>
<description language="zh">&lt;b&gt;Seeed Studio EAGLE Design Rules&lt;/b&gt;
</description>
<param name="layerSetup" value="(1*16)"/>
<param name="mtCopper" value="0.035mm 0.035mm 0.035mm 0.035mm 0.035mm 0.035mm 0.035mm 0.035mm 0.035mm 0.035mm 0.035mm 0.035mm 0.035mm 0.035mm 0.035mm 0.035mm"/>
<param name="mtIsolate" value="1.5mm 0.15mm 0.2mm 0.15mm 0.2mm 0.15mm 0.2mm 0.15mm 0.2mm 0.15mm 0.2mm 0.15mm 0.2mm 0.15mm 0.2mm"/>
<param name="mdWireWire" value="8mil"/>
<param name="mdWirePad" value="8mil"/>
<param name="mdWireVia" value="8mil"/>
<param name="mdPadPad" value="8mil"/>
<param name="mdPadVia" value="8mil"/>
<param name="mdViaVia" value="8mil"/>
<param name="mdSmdPad" value="0mil"/>
<param name="mdSmdVia" value="0mil"/>
<param name="mdSmdSmd" value="0mil"/>
<param name="mdViaViaSameLayer" value="8mil"/>
<param name="mnLayersViaInSmd" value="2"/>
<param name="mdCopperDimension" value="10mil"/>
<param name="mdDrill" value="10mil"/>
<param name="mdSmdStop" value="0mil"/>
<param name="msWidth" value="6mil"/>
<param name="msDrill" value="12mil"/>
<param name="msMicroVia" value="12mil"/>
<param name="msBlindViaRatio" value="0.5"/>
<param name="rvPadTop" value="0.25"/>
<param name="rvPadInner" value="0.25"/>
<param name="rvPadBottom" value="0.25"/>
<param name="rvViaOuter" value="0.25"/>
<param name="rvViaInner" value="0.25"/>
<param name="rvMicroViaOuter" value="0.25"/>
<param name="rvMicroViaInner" value="0.25"/>
<param name="rlMinPadTop" value="10mil"/>
<param name="rlMaxPadTop" value="20mil"/>
<param name="rlMinPadInner" value="10mil"/>
<param name="rlMaxPadInner" value="20mil"/>
<param name="rlMinPadBottom" value="10mil"/>
<param name="rlMaxPadBottom" value="20mil"/>
<param name="rlMinViaOuter" value="6mil"/>
<param name="rlMaxViaOuter" value="20mil"/>
<param name="rlMinViaInner" value="6mil"/>
<param name="rlMaxViaInner" value="20mil"/>
<param name="rlMinMicroViaOuter" value="4mil"/>
<param name="rlMaxMicroViaOuter" value="20mil"/>
<param name="rlMinMicroViaInner" value="4mil"/>
<param name="rlMaxMicroViaInner" value="20mil"/>
<param name="psTop" value="-1"/>
<param name="psBottom" value="-1"/>
<param name="psFirst" value="0"/>
<param name="psElongationLong" value="100"/>
<param name="psElongationOffset" value="100"/>
<param name="mvStopFrame" value="1"/>
<param name="mvCreamFrame" value="0"/>
<param name="mlMinStopFrame" value="2mil"/>
<param name="mlMaxStopFrame" value="2mil"/>
<param name="mlMinCreamFrame" value="0mil"/>
<param name="mlMaxCreamFrame" value="0mil"/>
<param name="mlViaStopLimit" value="100mil"/>
<param name="srRoundness" value="0.5"/>
<param name="srMinRoundness" value="5mil"/>
<param name="srMaxRoundness" value="15mil"/>
<param name="slThermalIsolate" value="10mil"/>
<param name="slThermalsForVias" value="0"/>
<param name="dpMaxLengthDifference" value="10mm"/>
<param name="dpGapFactor" value="2.5"/>
<param name="checkGrid" value="0"/>
<param name="checkAngle" value="0"/>
<param name="checkFont" value="1"/>
<param name="checkRestrict" value="0"/>
<param name="useDiameter" value="13"/>
<param name="maxErrors" value="50"/>
</designrules>
<autorouter>
<pass name="Default">
<param name="RoutingGrid" value="50mil"/>
<param name="AutoGrid" value="1"/>
<param name="Efforts" value="0"/>
<param name="TopRouterVariant" value="1"/>
<param name="tpViaShape" value="round"/>
<param name="PrefDir.1" value="a"/>
<param name="PrefDir.2" value="0"/>
<param name="PrefDir.3" value="0"/>
<param name="PrefDir.4" value="0"/>
<param name="PrefDir.5" value="0"/>
<param name="PrefDir.6" value="0"/>
<param name="PrefDir.7" value="0"/>
<param name="PrefDir.8" value="0"/>
<param name="PrefDir.9" value="0"/>
<param name="PrefDir.10" value="0"/>
<param name="PrefDir.11" value="0"/>
<param name="PrefDir.12" value="0"/>
<param name="PrefDir.13" value="0"/>
<param name="PrefDir.14" value="0"/>
<param name="PrefDir.15" value="0"/>
<param name="PrefDir.16" value="a"/>
<param name="cfVia" value="8"/>
<param name="cfNonPref" value="5"/>
<param name="cfChangeDir" value="2"/>
<param name="cfOrthStep" value="2"/>
<param name="cfDiagStep" value="3"/>
<param name="cfExtdStep" value="0"/>
<param name="cfBonusStep" value="1"/>
<param name="cfMalusStep" value="1"/>
<param name="cfPadImpact" value="4"/>
<param name="cfSmdImpact" value="4"/>
<param name="cfBusImpact" value="0"/>
<param name="cfHugging" value="3"/>
<param name="cfAvoid" value="4"/>
<param name="cfPolygon" value="10"/>
<param name="cfBase.1" value="0"/>
<param name="cfBase.2" value="1"/>
<param name="cfBase.3" value="1"/>
<param name="cfBase.4" value="1"/>
<param name="cfBase.5" value="1"/>
<param name="cfBase.6" value="1"/>
<param name="cfBase.7" value="1"/>
<param name="cfBase.8" value="1"/>
<param name="cfBase.9" value="1"/>
<param name="cfBase.10" value="1"/>
<param name="cfBase.11" value="1"/>
<param name="cfBase.12" value="1"/>
<param name="cfBase.13" value="1"/>
<param name="cfBase.14" value="1"/>
<param name="cfBase.15" value="1"/>
<param name="cfBase.16" value="0"/>
<param name="mnVias" value="20"/>
<param name="mnSegments" value="9999"/>
<param name="mnExtdSteps" value="9999"/>
<param name="mnRipupLevel" value="10"/>
<param name="mnRipupSteps" value="100"/>
<param name="mnRipupTotal" value="100"/>
</pass>
<pass name="Follow-me" refer="Default" active="yes">
</pass>
<pass name="Busses" refer="Default" active="yes">
<param name="cfNonPref" value="4"/>
<param name="cfBusImpact" value="4"/>
<param name="cfHugging" value="0"/>
<param name="mnVias" value="0"/>
</pass>
<pass name="Route" refer="Default" active="yes">
</pass>
<pass name="Optimize1" refer="Default" active="yes">
<param name="cfVia" value="99"/>
<param name="cfExtdStep" value="10"/>
<param name="cfHugging" value="1"/>
<param name="mnExtdSteps" value="1"/>
<param name="mnRipupLevel" value="0"/>
</pass>
<pass name="Optimize2" refer="Optimize1" active="yes">
<param name="cfNonPref" value="0"/>
<param name="cfChangeDir" value="6"/>
<param name="cfExtdStep" value="0"/>
<param name="cfBonusStep" value="2"/>
<param name="cfMalusStep" value="2"/>
<param name="cfPadImpact" value="2"/>
<param name="cfSmdImpact" value="2"/>
<param name="cfHugging" value="0"/>
</pass>
<pass name="Optimize3" refer="Optimize2" active="yes">
<param name="cfChangeDir" value="8"/>
<param name="cfPadImpact" value="0"/>
<param name="cfSmdImpact" value="0"/>
</pass>
<pass name="Optimize4" refer="Optimize3" active="yes">
<param name="cfChangeDir" value="25"/>
</pass>
</autorouter>
<elements>
<element name="C1" library="atomx_RLC" package="C0603" value="4.7uF" x="13.89" y="2.01" smashed="yes" rot="R270">
<attribute name="NAME" x="13.503" y="0.222" size="0.5" layer="25" font="vector" ratio="19"/>
</element>
<element name="LOGO1" library="atomx_Common" package="OSHW-LOGO-S" value="OSHW-LOGOS" x="8.15" y="3.9" rot="MR0"/>
<element name="U3" library="atomx_IC" package="QFN24_4MM" value="MP2633" x="7.89" y="5.9" smashed="yes">
<attribute name="NAME" x="4.15" y="5.11" size="0.6" layer="25" ratio="18"/>
<attribute name="VALUE" x="5.39" y="2.75" size="0.4064" layer="27" ratio="10"/>
</element>
<element name="L3" library="atomx_RLC" package="LPS3015" value="2.2uF" x="12.94" y="9.24" smashed="yes" rot="R270">
<attribute name="NAME" x="10.17" y="9.01" size="0.5" layer="25" font="vector" ratio="19"/>
</element>
<element name="R5" library="atomx_RLC" package="R0805" value="" x="13.84" y="5.11" smashed="yes" rot="R270">
<attribute name="NAME" x="11" y="5.585" size="0.5" layer="25" font="vector" ratio="19" rot="R90"/>
</element>
<element name="R1" library="atomx_RLC" package="R0402" value="47k" x="5.71" y="1.55" smashed="yes" rot="R90">
<attribute name="NAME" x="5.385" y="0.16" size="0.5" layer="25" font="vector" ratio="19"/>
</element>
<element name="R2" library="atomx_RLC" package="R0402" value="15k" x="4.58" y="1.55" smashed="yes" rot="R270">
<attribute name="NAME" x="4.225" y="0.16" size="0.5" layer="25" font="vector" ratio="19"/>
</element>
<element name="C2" library="atomx_RLC" package="C0603" value="4.7uF" x="5.61" y="10.7" smashed="yes" rot="R180">
<attribute name="NAME" x="5.203" y="9.422" size="0.5" layer="25" font="vector" ratio="19"/>
</element>
<element name="R6" library="atomx_RLC" package="R0402" value="82k" x="10.5" y="1.55" smashed="yes" rot="R90">
<attribute name="NAME" x="10.085" y="0.17" size="0.5" layer="25" font="vector" ratio="19"/>
</element>
<element name="R7" library="atomx_RLC" package="R0402" value="68k" x="9.31" y="1.55" smashed="yes" rot="R90">
<attribute name="NAME" x="8.995" y="2.55" size="0.5" layer="25" font="vector" ratio="19"/>
</element>
<element name="R8" library="atomx_RLC" package="R0402" value="100k" x="2.74" y="7.26" smashed="yes">
<attribute name="NAME" x="2.395" y="6.38" size="0.45" layer="25" font="vector" ratio="19"/>
</element>
<element name="C3" library="atomx_RLC" package="C0402" value="100nF" x="4.59" y="3.83" smashed="yes" rot="R270">
<attribute name="NAME" x="4.174" y="2.449" size="0.5" layer="25" font="vector" ratio="19"/>
</element>
<element name="R9" library="atomx_RLC" package="R0402" value="21.5k" x="2.74" y="4.55" smashed="yes" rot="R180">
<attribute name="NAME" x="2.405" y="3.68" size="0.45" layer="25" font="vector" ratio="19"/>
</element>
<element name="R10" library="atomx_RLC" package="R0402" value="5.1k" x="2.74" y="5.95" smashed="yes">
<attribute name="NAME" x="2.145" y="5.08" size="0.45" layer="25" font="vector" ratio="19"/>
</element>
<element name="R11" library="atomx_RLC" package="R0402" value="5.1k" x="3.45" y="1.55" smashed="yes" rot="R90">
<attribute name="NAME" x="2.925" y="0.17" size="0.45" layer="25" font="vector" ratio="19"/>
</element>
<element name="R12" library="atomx_RLC" package="R0402" value="15k" x="2.74" y="3.25" smashed="yes" rot="R180">
<attribute name="NAME" x="2.155" y="2.38" size="0.45" layer="25" font="vector" ratio="19"/>
</element>
<element name="C7" library="atomx_RLC" package="C0805" value="10uF" x="2.79" y="9.63" smashed="yes" rot="R90">
<attribute name="NAME" x="3.829" y="8.426" size="0.5" layer="25" ratio="19"/>
<attribute name="VALUE" x="4.441" y="7.979" size="0.6096" layer="27" rot="R90"/>
</element>
<element name="C6" library="atomx_RLC" package="C0603" value="4.7uF" x="8.62" y="10.71" smashed="yes">
<attribute name="NAME" x="8.223" y="9.432" size="0.5" layer="25" font="vector" ratio="19"/>
</element>
<element name="R17" library="atomx_RLC" package="R0402" value="10k" x="6.92" y="1.55" smashed="yes" rot="R270">
<attribute name="NAME" x="6.365" y="2.56" size="0.5" layer="25" font="vector" ratio="19"/>
</element>
<element name="R21" library="atomx_RLC" package="R0402" value="10k" x="8.1" y="1.55" smashed="yes" rot="R90">
<attribute name="NAME" x="7.465" y="0.14" size="0.5" layer="25" font="vector" ratio="19"/>
</element>
<element name="C8" library="atomx_RLC" package="C0603" value="4.7uF" x="12.03" y="2.01" smashed="yes" rot="R270">
<attribute name="NAME" x="11.663" y="0.182" size="0.5" layer="25" font="vector" ratio="19"/>
</element>
<element name="R3" library="atomx_RLC" package="R0805" value="" x="12.02" y="5.11" smashed="yes" rot="R270">
<attribute name="NAME" x="10.97" y="3.885" size="0.5" layer="25" font="vector" ratio="19" rot="R90"/>
</element>
<element name="JP1" library="atomx_Connectors" package="1X09_1.27MM_DUAL" value="M09" x="15.5" y="0.92" smashed="yes" rot="R90"/>
<element name="JP2" library="atomx_Connectors" package="1X09_1.27MM_DUAL" value="M09" x="1.1" y="11.06" smashed="yes" rot="R270"/>
<element name="C4" library="atomx_RLC" package="C0402" value="1uF" x="2.31" y="1.55" smashed="yes" rot="R270">
<attribute name="NAME" x="1.944" y="0.189" size="0.5" layer="25" font="vector" ratio="19"/>
</element>
</elements>
<signals>
<signal name="GND">
<via x="9.7" y="8.55" extent="1-16" drill="0.4"/>
<via x="10.21" y="3.72" extent="1-16" drill="0.4"/>
<via x="12.96" y="1.28" extent="1-16" drill="0.4"/>
<contactref element="U3" pad="13"/>
<contactref element="U3" pad="19"/>
<contactref element="U3" pad="THERM"/>
<contactref element="C1" pad="2"/>
<contactref element="R2" pad="2"/>
<contactref element="C2" pad="2"/>
<contactref element="R8" pad="1"/>
<contactref element="R7" pad="1"/>
<contactref element="R6" pad="1"/>
<contactref element="C3" pad="2"/>
<contactref element="R11" pad="1"/>
<contactref element="C7" pad="2"/>
<contactref element="C6" pad="2"/>
<contactref element="R10" pad="1"/>
<contactref element="R21" pad="1"/>
<contactref element="C8" pad="2"/>
<contactref element="JP1" pad="1@2"/>
<contactref element="JP1" pad="1@1"/>
<contactref element="JP1" pad="1"/>
<contactref element="JP1" pad="1@0"/>
<contactref element="JP1" pad="2@2"/>
<contactref element="JP1" pad="2"/>
<contactref element="JP1" pad="2@0"/>
<contactref element="JP1" pad="2@1"/>
<contactref element="C4" pad="2"/>
<contactref element="JP2" pad="9@1"/>
<contactref element="JP2" pad="9"/>
<contactref element="JP2" pad="9@0"/>
<contactref element="JP2" pad="9@2"/>
<contactref element="JP2" pad="4@1"/>
<contactref element="JP2" pad="4"/>
<contactref element="JP2" pad="4@0"/>
<contactref element="JP2" pad="4@2"/>
<contactref element="JP2" pad="1@2"/>
<contactref element="JP2" pad="1@1"/>
<contactref element="JP2" pad="1"/>
<contactref element="JP2" pad="1@0"/>
<via x="5.56" y="3.14" extent="1-16" drill="0.4"/>
<via x="11.16" y="1.29" extent="1-16" drill="0.4"/>
<polygon width="0.4064" layer="16">
<vertex x="0.16" y="11.99"/>
<vertex x="16.43" y="11.99"/>
<vertex x="16.43" y="0.02"/>
<vertex x="0.16" y="0.02"/>
</polygon>
<polygon width="0.2" layer="1">
<vertex x="0.17" y="11.99"/>
<vertex x="16.43" y="11.99"/>
<vertex x="16.43" y="0.02"/>
<vertex x="0.17" y="0.02"/>
</polygon>
<via x="4.01" y="10.71" extent="1-16" drill="0.4"/>
<via x="10.1" y="10.71" extent="1-16" drill="0.4"/>
<via x="7.17" y="6.62" extent="1-16" drill="0.4"/>
<via x="8.58" y="6.57" extent="1-16" drill="0.4"/>
<via x="7.19" y="5.17" extent="1-16" drill="0.4"/>
<via x="8.57" y="5.15" extent="1-16" drill="0.4"/>
<via x="7.89" y="5.89" extent="1-16" drill="0.4"/>
<wire x1="1.1" y1="0.9" x2="1.17" y2="1.03" width="0.4064" layer="1"/>
<wire x1="1.17" y1="1.03" x2="2.31" y2="1.05" width="0.4064" layer="1"/>
<wire x1="0.1" y1="11.06" x2="2.01" y2="11.06" width="0.6096" layer="1"/>
<wire x1="2.01" y1="11.06" x2="2.79" y2="10.58" width="0.6096" layer="1"/>
<wire x1="6.89" y1="0.48" x2="5.68" y2="0.48" width="0.35" layer="16"/>
<wire x1="5.68" y1="0.48" x2="5.26" y2="0.9" width="0.254" layer="16"/>
<wire x1="5.26" y1="0.9" x2="1.1" y2="0.9" width="0.254" layer="16"/>
<wire x1="7.89" y1="5.89" x2="7.89" y2="5.9" width="0" layer="19" extent="1-1"/>
</signal>
<signal name="VCC">
<contactref element="U3" pad="3"/>
<via x="4.59" y="6.37" extent="1-16" drill="0.4"/>
<contactref element="C4" pad="1"/>
<contactref element="JP2" pad="8@2"/>
<contactref element="JP2" pad="8@1"/>
<contactref element="JP2" pad="8"/>
<contactref element="JP2" pad="8@0"/>
<wire x1="1.1" y1="2.17" x2="1.08" y2="2.03" width="0.4064" layer="1"/>
<wire x1="1.08" y1="2.03" x2="2.31" y2="2.05" width="0.4064" layer="1"/>
<wire x1="4.23" y1="5.18" x2="2.36" y2="3.31" width="0.4064" layer="16"/>
<wire x1="2.36" y1="3.31" x2="2.36" y2="2.6" width="0.4064" layer="16"/>
<wire x1="1.1" y1="2.17" x2="1.93" y2="2.17" width="0.4064" layer="16"/>
<wire x1="1.93" y1="2.17" x2="2.36" y2="2.6" width="0.4064" layer="16"/>
<wire x1="5.89" y1="6.15" x2="4.81" y2="6.15" width="0.254" layer="1"/>
<wire x1="4.81" y1="6.15" x2="4.59" y2="6.37" width="0.254" layer="1"/>
<wire x1="4.23" y1="5.18" x2="4.23" y2="6.01" width="0.4064" layer="16"/>
<wire x1="4.23" y1="6.01" x2="4.59" y2="6.37" width="0.4064" layer="16"/>
<wire x1="0.592" y1="2.17" x2="0.592" y2="2.17" width="0" layer="19" extent="1-16"/>
<wire x1="0.1" y1="2.17" x2="0.592" y2="2.17" width="0" layer="19" extent="16-16"/>
<wire x1="1.08" y1="2.03" x2="0.592" y2="2.17" width="0" layer="19" extent="1-16"/>
</signal>
<signal name="PWR">
<contactref element="U3" pad="22"/>
<contactref element="C2" pad="1"/>
<contactref element="U3" pad="21"/>
<contactref element="C6" pad="1"/>
<contactref element="R1" pad="1"/>
<contactref element="R17" pad="2"/>
<wire x1="7.89" y1="8.79" x2="7.89" y2="8.36" width="0.76" layer="1"/>
<wire x1="7.89" y1="8.36" x2="7.89" y2="7.9" width="0.254" layer="1"/>
<wire x1="7.89" y1="7.9" x2="7.64" y2="7.9" width="0.254" layer="1"/>
<wire x1="8.14" y1="7.9" x2="7.64" y2="7.9" width="0.254" layer="1"/>
<via x="7.89" y="8.79" extent="1-16" drill="0.4"/>
<contactref element="JP2" pad="2@2"/>
<contactref element="JP2" pad="2"/>
<contactref element="JP2" pad="2@0"/>
<contactref element="JP2" pad="2@1"/>
<via x="6.32" y="1.2" extent="1-16" drill="0.4"/>
<wire x1="7.89" y1="8.79" x2="7.89" y2="8.07" width="0.254" layer="16"/>
<wire x1="7.89" y1="8.07" x2="7.29" y2="7.47" width="0.254" layer="16"/>
<wire x1="7.29" y1="7.47" x2="6.85" y2="7.47" width="0.254" layer="16"/>
<wire x1="7.89" y1="8.79" x2="7.89" y2="9.62" width="0.76" layer="1"/>
<wire x1="7.89" y1="9.62" x2="7.89" y2="10.71" width="0.76" layer="1"/>
<wire x1="6.35" y1="10.71" x2="6.34" y2="10.7" width="0.6096" layer="1"/>
<wire x1="1.65" y1="9.63" x2="3.91" y2="9.63" width="0.3048" layer="1"/>
<wire x1="3.91" y1="9.63" x2="6.35" y2="9.63" width="0.6096" layer="1"/>
<wire x1="6.35" y1="9.63" x2="7.88" y2="9.63" width="0.6096" layer="1"/>
<wire x1="7.88" y1="9.63" x2="7.89" y2="9.62" width="0.4064" layer="1" curve="-90"/>
<wire x1="1.1" y1="9.79" x2="0.94" y2="9.63" width="0.6096" layer="1"/>
<wire x1="0.94" y1="9.63" x2="1.65" y2="9.63" width="0.6096" layer="1"/>
<wire x1="6.32" y1="1.2" x2="6.32" y2="6.94" width="0.254" layer="16"/>
<wire x1="6.32" y1="6.94" x2="6.85" y2="7.47" width="0.254" layer="16"/>
<wire x1="5.71" y1="1.05" x2="6.21" y2="1.05" width="0.254" layer="1"/>
<wire x1="6.21" y1="1.05" x2="6.32" y2="1.2" width="0.254" layer="1"/>
<wire x1="6.92" y1="1.05" x2="6.43" y2="1.05" width="0.254" layer="1"/>
<wire x1="6.43" y1="1.05" x2="6.32" y2="1.2" width="0.254" layer="1"/>
<wire x1="6.35" y1="10.71" x2="6.35" y2="9.63" width="0.6096" layer="1"/>
<wire x1="0.592" y1="9.79" x2="0.592" y2="9.79" width="0" layer="19" extent="1-16"/>
<wire x1="0.94" y1="9.63" x2="0.592" y2="9.79" width="0" layer="19" extent="1-1"/>
<wire x1="0.1" y1="9.79" x2="0.592" y2="9.79" width="0" layer="19" extent="1-1"/>
</signal>
<signal name="VIN">
<contactref element="R12" pad="2"/>
<contactref element="C7" pad="1"/>
<contactref element="R9" pad="2"/>
<contactref element="U3" pad="2"/>
<wire x1="5.89" y1="6.65" x2="5.31" y2="6.65" width="0.3048" layer="1"/>
<wire x1="5.31" y1="6.65" x2="4.75" y2="7.21" width="0.3048" layer="1"/>
<wire x1="4.75" y1="7.21" x2="4.86" y2="7.25" width="0.254" layer="1"/>
<wire x1="2.79" y1="8.68" x2="3.82" y2="8.68" width="0.6096" layer="1"/>
<wire x1="3.82" y1="8.68" x2="4.86" y2="7.64" width="0.6096" layer="1"/>
<wire x1="4.86" y1="7.64" x2="4.86" y2="7.25" width="0.6096" layer="1"/>
<contactref element="JP2" pad="3@1"/>
<contactref element="JP2" pad="3@0"/>
<contactref element="JP2" pad="3"/>
<contactref element="JP2" pad="3@2"/>
<wire x1="2.74" y1="5.06" x2="2.24" y2="4.55" width="0.2" layer="1"/>
<wire x1="2.24" y1="4.55" x2="2.24" y2="3.25" width="0.2" layer="1"/>
<wire x1="2.79" y1="8.68" x2="1.88" y2="8.68" width="0.6096" layer="1"/>
<wire x1="1.88" y1="8.68" x2="1.72" y2="8.52" width="0.6096" layer="1"/>
<wire x1="1.72" y1="8.52" x2="1.1" y2="8.52" width="0.6096" layer="1"/>
<wire x1="2.74" y1="5.06" x2="2.74" y2="8.63" width="0.2" layer="1"/>
<wire x1="2.74" y1="8.63" x2="2.79" y2="8.68" width="0.2" layer="1"/>
<wire x1="0.592" y1="8.52" x2="0.592" y2="8.52" width="0" layer="19" extent="1-16"/>
<wire x1="0.1" y1="8.52" x2="0.592" y2="8.52" width="0" layer="19" extent="16-16"/>
<wire x1="1.1" y1="8.52" x2="0.592" y2="8.52" width="0" layer="19" extent="16-16"/>
</signal>
<signal name="N$12">
<contactref element="L3" pad="P$2"/>
<contactref element="R5" pad="1"/>
<contactref element="U3" pad="16"/>
<contactref element="R3" pad="1"/>
<wire x1="9.89" y1="6.15" x2="12.02" y2="6.15" width="0.254" layer="1"/>
<wire x1="12.02" y1="6.15" x2="12.02" y2="6.06" width="0.254" layer="1"/>
<wire x1="12.02" y1="6.06" x2="13.83" y2="6.06" width="1.016" layer="1"/>
<wire x1="13.83" y1="6.06" x2="13.84" y2="6.06" width="0.8128" layer="1"/>
<wire x1="13.84" y1="6.06" x2="12.95" y2="6.1" width="0.8128" layer="1"/>
<wire x1="12.95" y1="6.1" x2="12.94" y2="7.84" width="1.016" layer="1"/>
</signal>
<signal name="BAT">
<contactref element="R5" pad="2"/>
<contactref element="U3" pad="15"/>
<contactref element="C1" pad="1"/>
<contactref element="C8" pad="1"/>
<wire x1="9.89" y1="5.65" x2="10.38" y2="5.65" width="0.254" layer="1"/>
<wire x1="10.38" y1="5.65" x2="10.74" y2="5.29" width="0.254" layer="1"/>
<contactref element="R3" pad="2"/>
<wire x1="10.74" y1="5.29" x2="10.74" y2="4.54" width="0.254" layer="1"/>
<wire x1="10.74" y1="4.54" x2="11.12" y2="4.16" width="0.254" layer="1"/>
<wire x1="11.12" y1="4.16" x2="12.02" y2="4.16" width="0.254" layer="1"/>
<wire x1="12.02" y1="4.16" x2="12.97" y2="4.16" width="1.016" layer="1"/>
<wire x1="13.92" y1="2.8" x2="12.96" y2="2.8" width="0.8128" layer="1"/>
<wire x1="12.96" y1="2.8" x2="12.97" y2="4.16" width="0.8128" layer="1"/>
<wire x1="12.96" y1="2.8" x2="12.03" y2="2.8" width="0.8128" layer="1"/>
<wire x1="12.03" y1="2.8" x2="12.03" y2="2.74" width="0.8128" layer="1"/>
<contactref element="JP1" pad="3@1"/>
<contactref element="JP1" pad="3@0"/>
<contactref element="JP1" pad="3"/>
<contactref element="JP1" pad="3@2"/>
<contactref element="JP1" pad="4@1"/>
<contactref element="JP1" pad="4"/>
<contactref element="JP1" pad="4@0"/>
<contactref element="JP1" pad="4@2"/>
<wire x1="15.5" y1="4.73" x2="15.94" y2="4.16" width="0.6096" layer="1"/>
<wire x1="15.94" y1="4.16" x2="15.56" y2="4.16" width="1.016" layer="1"/>
<wire x1="15.56" y1="4.16" x2="12.97" y2="4.16" width="1.016" layer="1"/>
<wire x1="15.5" y1="3.46" x2="15.56" y2="4.16" width="0.6096" layer="1"/>
<wire x1="16.008" y1="3.46" x2="16.008" y2="3.46" width="0" layer="19" extent="1-16"/>
<wire x1="16.5" y1="3.46" x2="16.008" y2="3.46" width="0" layer="19" extent="16-16"/>
<wire x1="15.5" y1="3.46" x2="16.008" y2="3.46" width="0" layer="19" extent="16-16"/>
<wire x1="13.89" y1="2.74" x2="13.92" y2="2.8" width="0" layer="19" extent="1-1"/>
<wire x1="16.008" y1="4.73" x2="15.5" y2="4.73" width="0" layer="19" extent="1-1"/>
<wire x1="16.008" y1="4.73" x2="16.008" y2="4.73" width="0" layer="19" extent="1-16"/>
<wire x1="16.5" y1="4.73" x2="16.008" y2="4.73" width="0" layer="19" extent="1-1"/>
<wire x1="13.84" y1="4.16" x2="12.97" y2="4.16" width="0" layer="19" extent="1-1"/>
</signal>
<signal name="N$11">
<contactref element="U3" pad="20"/>
<contactref element="L3" pad="P$1"/>
<wire x1="8.64" y1="8.78" x2="8.64" y2="7.9" width="0.254" layer="1"/>
<wire x1="8.64" y1="8.78" x2="8.82" y2="8.88" width="0.254" layer="1"/>
<wire x1="12.94" y1="10.64" x2="11.25" y2="10.64" width="0.6096" layer="1"/>
<wire x1="11.25" y1="10.64" x2="10.14" y2="9.53" width="0.6096" layer="1"/>
<wire x1="10.14" y1="9.53" x2="9.47" y2="9.53" width="0.6096" layer="1"/>
<wire x1="9.47" y1="9.53" x2="8.82" y2="8.88" width="0.6096" layer="1"/>
</signal>
<signal name="N$4">
<contactref element="R1" pad="2"/>
<contactref element="R2" pad="1"/>
<contactref element="U3" pad="9"/>
<wire x1="5.71" y1="2.05" x2="4.58" y2="2.05" width="0.254" layer="1"/>
<wire x1="7.19" y1="2.79" x2="7.64" y2="3.24" width="0.254" layer="1"/>
<wire x1="7.64" y1="3.24" x2="7.64" y2="3.9" width="0.254" layer="1"/>
<wire x1="7.19" y1="2.79" x2="6.45" y2="2.79" width="0.254" layer="1"/>
<wire x1="6.45" y1="2.79" x2="5.71" y2="2.05" width="0.254" layer="1"/>
</signal>
<signal name="NTC">
<contactref element="U3" pad="10"/>
<contactref element="R17" pad="1"/>
<contactref element="R21" pad="2"/>
<via x="8.14" y="2.7" extent="1-16" drill="0.4"/>
<wire x1="8.1" y1="2.05" x2="6.92" y2="2.05" width="0.254" layer="1"/>
<contactref element="JP1" pad="5@1"/>
<contactref element="JP1" pad="5"/>
<contactref element="JP1" pad="5@2"/>
<contactref element="JP1" pad="5@0"/>
<wire x1="15.5" y1="6" x2="14.83" y2="6" width="0.254" layer="16"/>
<wire x1="14.83" y1="6" x2="14.48" y2="5.65" width="0.254" layer="16"/>
<wire x1="14.48" y1="5.65" x2="14.48" y2="3.05" width="0.254" layer="16"/>
<wire x1="14.48" y1="3.05" x2="14.13" y2="2.7" width="0.254" layer="16"/>
<wire x1="14.13" y1="2.7" x2="8.14" y2="2.7" width="0.254" layer="16"/>
<wire x1="8.14" y1="3.9" x2="8.14" y2="2.7" width="0.254" layer="1"/>
<wire x1="8.1" y1="2.05" x2="8.14" y2="2.09" width="0.254" layer="1"/>
<wire x1="8.14" y1="2.09" x2="8.14" y2="2.7" width="0.254" layer="1"/>
<wire x1="16.008" y1="6" x2="16.008" y2="6" width="0" layer="19" extent="1-16"/>
<wire x1="16.5" y1="6" x2="16.008" y2="6" width="0" layer="19" extent="1-1"/>
<wire x1="15.5" y1="6" x2="16.008" y2="6" width="0" layer="19" extent="1-1"/>
</signal>
<signal name="N$18">
<contactref element="U3" pad="12"/>
<contactref element="R6" pad="2"/>
<wire x1="9.14" y1="3.9" x2="9.14" y2="3.45" width="0.254" layer="1"/>
<wire x1="9.14" y1="3.45" x2="9.73" y2="2.86" width="0.254" layer="1"/>
<wire x1="9.73" y1="2.86" x2="10.18" y2="2.86" width="0.254" layer="1"/>
<wire x1="10.18" y1="2.86" x2="10.5" y2="2.54" width="0.254" layer="1"/>
<wire x1="10.5" y1="2.54" x2="10.5" y2="2.05" width="0.254" layer="1"/>
</signal>
<signal name="N$20">
<contactref element="U3" pad="11"/>
<contactref element="R7" pad="2"/>
<wire x1="8.64" y1="3.9" x2="8.64" y2="3.2" width="0.254" layer="1"/>
<wire x1="8.64" y1="3.2" x2="9.31" y2="2.53" width="0.254" layer="1"/>
<wire x1="9.31" y1="2.53" x2="9.31" y2="2.05" width="0.254" layer="1"/>
</signal>
<signal name="ILIM">
<contactref element="U3" pad="4"/>
<contactref element="R8" pad="2"/>
<wire x1="5.89" y1="5.65" x2="4.26" y2="5.65" width="0.254" layer="1"/>
<wire x1="4.26" y1="5.65" x2="3.88" y2="6.03" width="0.254" layer="1"/>
<via x="4" y="7.26" extent="1-16" drill="0.4"/>
<contactref element="JP2" pad="7@1"/>
<contactref element="JP2" pad="7@0"/>
<contactref element="JP2" pad="7@2"/>
<contactref element="JP2" pad="7"/>
<wire x1="1.1" y1="3.44" x2="1.72" y2="3.44" width="0.2" layer="16"/>
<wire x1="1.72" y1="3.44" x2="3.68" y2="5.4" width="0.2" layer="16"/>
<wire x1="3.24" y1="7.26" x2="4" y2="7.26" width="0.254" layer="1"/>
<wire x1="3.88" y1="6.03" x2="3.88" y2="6.69" width="0.254" layer="1"/>
<wire x1="3.88" y1="6.69" x2="4" y2="6.81" width="0.254" layer="1"/>
<wire x1="4" y1="6.81" x2="4" y2="7.26" width="0.254" layer="1"/>
<wire x1="3.68" y1="5.4" x2="3.68" y2="6.94" width="0.2" layer="16"/>
<wire x1="3.68" y1="6.94" x2="4" y2="7.26" width="0.2" layer="16"/>
<wire x1="0.592" y1="3.44" x2="0.592" y2="3.44" width="0" layer="19" extent="1-16"/>
<wire x1="0.1" y1="3.44" x2="0.592" y2="3.44" width="0" layer="19" extent="1-1"/>
<wire x1="1.1" y1="3.44" x2="0.592" y2="3.44" width="0" layer="19" extent="1-1"/>
</signal>
<signal name="N$22">
<contactref element="U3" pad="6"/>
<contactref element="C3" pad="1"/>
<wire x1="5.89" y1="4.65" x2="4.91" y2="4.65" width="0.2" layer="1"/>
<wire x1="4.91" y1="4.65" x2="4.59" y2="4.33" width="0.2" layer="1"/>
</signal>
<signal name="MODE">
<contactref element="U3" pad="23"/>
<via x="6.02" y="8.77" extent="1-16" drill="0.4"/>
<wire x1="7.14" y1="8.56" x2="7.14" y2="7.9" width="0.254" layer="1"/>
<wire x1="7.14" y1="8.56" x2="6.93" y2="8.77" width="0.254" layer="1"/>
<wire x1="6.93" y1="8.77" x2="6.02" y2="8.77" width="0.254" layer="1"/>
<contactref element="JP2" pad="5@1"/>
<contactref element="JP2" pad="5"/>
<contactref element="JP2" pad="5@2"/>
<contactref element="JP2" pad="5@0"/>
<wire x1="6.02" y1="8.77" x2="5.37" y2="9.42" width="0.2" layer="16"/>
<wire x1="5.37" y1="9.42" x2="4.59" y2="9.42" width="0.2" layer="16"/>
<wire x1="4.59" y1="9.42" x2="2.79" y2="7.62" width="0.2" layer="16"/>
<wire x1="2.79" y1="7.62" x2="2.79" y2="6.23" width="0.2" layer="16"/>
<wire x1="2.79" y1="6.23" x2="2.54" y2="5.98" width="0.2" layer="16"/>
<wire x1="2.54" y1="5.98" x2="1.1" y2="5.98" width="0.2" layer="16"/>
<wire x1="0.592" y1="5.98" x2="0.592" y2="5.98" width="0" layer="19" extent="1-16"/>
<wire x1="0.1" y1="5.98" x2="0.592" y2="5.98" width="0" layer="19" extent="1-1"/>
<wire x1="1.1" y1="5.98" x2="0.592" y2="5.98" width="0" layer="19" extent="1-1"/>
</signal>
<signal name="N$24">
<contactref element="R12" pad="1"/>
<contactref element="R11" pad="2"/>
<contactref element="U3" pad="7"/>
<wire x1="3.82" y1="3.83" x2="3.24" y2="3.25" width="0.2" layer="1"/>
<wire x1="3.24" y1="3.25" x2="3.23" y2="2.81" width="0.2" layer="1"/>
<wire x1="3.23" y1="2.81" x2="3.45" y2="2.59" width="0.2" layer="1"/>
<wire x1="3.45" y1="2.59" x2="3.45" y2="2.05" width="0.2" layer="1"/>
<wire x1="3.82" y1="3.83" x2="5.02" y2="3.83" width="0.2" layer="1"/>
<wire x1="5.02" y1="3.83" x2="5.3" y2="4.11" width="0.2" layer="1"/>
<wire x1="5.3" y1="4.11" x2="6.64" y2="4.11" width="0.2" layer="1"/>
<wire x1="6.64" y1="4.11" x2="6.64" y2="3.9" width="0.2" layer="1"/>
</signal>
<signal name="N$25">
<contactref element="R9" pad="1"/>
<contactref element="R10" pad="2"/>
<contactref element="U3" pad="5"/>
<wire x1="3.24" y1="5.95" x2="3.23" y2="5.16" width="0.254" layer="1"/>
<wire x1="3.23" y1="5.16" x2="3.24" y2="4.55" width="0.254" layer="1"/>
<wire x1="5.89" y1="5.15" x2="3.24" y2="5.15" width="0.254" layer="1"/>
<wire x1="3.24" y1="5.15" x2="3.23" y2="5.16" width="0.254" layer="1"/>
</signal>
<signal name="LED1">
<contactref element="U3" pad="18"/>
<wire x1="9.89" y1="7.15" x2="10.24" y2="7.15" width="0.254" layer="1"/>
<wire x1="10.24" y1="7.15" x2="10.38" y2="7.29" width="0.254" layer="1"/>
<wire x1="10.38" y1="7.29" x2="10.38" y2="8.77" width="0.254" layer="1"/>
<wire x1="10.38" y1="8.77" x2="11.09" y2="9.48" width="0.254" layer="1"/>
<contactref element="JP1" pad="8@2"/>
<contactref element="JP1" pad="8@1"/>
<contactref element="JP1" pad="8"/>
<contactref element="JP1" pad="8@0"/>
<wire x1="11.09" y1="9.48" x2="14.61" y2="9.48" width="0.254" layer="1"/>
<wire x1="14.61" y1="9.48" x2="14.94" y2="9.81" width="0.254" layer="1"/>
<wire x1="14.94" y1="9.81" x2="15.5" y2="9.81" width="0.254" layer="1"/>
<wire x1="16.008" y1="9.81" x2="16.008" y2="9.81" width="0" layer="19" extent="1-16"/>
<wire x1="16.5" y1="9.81" x2="16.008" y2="9.81" width="0" layer="19" extent="16-16"/>
<wire x1="15.5" y1="9.81" x2="16.008" y2="9.81" width="0" layer="19" extent="16-16"/>
</signal>
<signal name="LED2">
<contactref element="U3" pad="17"/>
<wire x1="10.87" y1="8.56" x2="11.29" y2="8.98" width="0.254" layer="1"/>
<wire x1="9.89" y1="6.65" x2="10.44" y2="6.66" width="0.254" layer="1"/>
<wire x1="10.44" y1="6.66" x2="10.87" y2="7.09" width="0.254" layer="1"/>
<wire x1="10.87" y1="7.09" x2="10.87" y2="8.56" width="0.254" layer="1"/>
<contactref element="JP1" pad="7@1"/>
<contactref element="JP1" pad="7@0"/>
<contactref element="JP1" pad="7@2"/>
<contactref element="JP1" pad="7"/>
<wire x1="11.29" y1="8.98" x2="14.6" y2="8.98" width="0.254" layer="1"/>
<wire x1="14.6" y1="8.98" x2="15.04" y2="8.54" width="0.254" layer="1"/>
<wire x1="15.04" y1="8.54" x2="15.5" y2="8.54" width="0.254" layer="1"/>
<wire x1="16.008" y1="8.54" x2="16.008" y2="8.54" width="0" layer="19" extent="1-16"/>
<wire x1="16.5" y1="8.54" x2="16.008" y2="8.54" width="0" layer="19" extent="1-1"/>
<wire x1="15.5" y1="8.54" x2="16.008" y2="8.54" width="0" layer="19" extent="1-1"/>
</signal>
<signal name="SLEEP">
<contactref element="U3" pad="24"/>
<wire x1="6.63" y1="7.89" x2="6.64" y2="7.9" width="0.2" layer="1"/>
<via x="5.06" y="8.74" extent="1-16" drill="0.4"/>
<contactref element="JP2" pad="6@1"/>
<contactref element="JP2" pad="6"/>
<contactref element="JP2" pad="6@2"/>
<contactref element="JP2" pad="6@0"/>
<wire x1="5.06" y1="8.74" x2="4.51" y2="8.74" width="0.2" layer="16"/>
<wire x1="4.51" y1="8.74" x2="3.25" y2="7.48" width="0.2" layer="16"/>
<wire x1="3.25" y1="7.48" x2="3.25" y2="5.59" width="0.2" layer="16"/>
<wire x1="2.37" y1="4.71" x2="1.1" y2="4.71" width="0.2" layer="16"/>
<wire x1="5.06" y1="8.74" x2="5.06" y2="8.61" width="0.254" layer="1"/>
<wire x1="5.06" y1="8.61" x2="5.77" y2="7.9" width="0.254" layer="1"/>
<wire x1="5.77" y1="7.9" x2="6.64" y2="7.9" width="0.254" layer="1"/>
<wire x1="0.592" y1="4.71" x2="0.592" y2="4.71" width="0" layer="19" extent="1-16"/>
<wire x1="0.1" y1="4.71" x2="0.592" y2="4.71" width="0" layer="19" extent="1-1"/>
<wire x1="1.1" y1="4.71" x2="0.592" y2="4.71" width="0" layer="19" extent="1-1"/>
<wire x1="2.37" y1="4.71" x2="3.25" y2="5.59" width="0.2" layer="16"/>
</signal>
<signal name="N$1">
<polygon width="0.2" layer="1" pour="cutout">
<vertex x="6.36" y="7.42"/>
<vertex x="9.42" y="7.44"/>
<vertex x="9.42" y="4.41"/>
<vertex x="6.36" y="4.39"/>
</polygon>
</signal>
</signals>
<errors>
<approved hash="19,16,6c23b0a8b1397fa3"/>
<approved hash="19,16,9bf54674ded771aa"/>
<approved hash="19,16,e2a0432fed713e02"/>
<approved hash="19,16,2e680daf122f23f9"/>
<approved hash="19,1,5f6bea67468649ca"/>
</errors>
</board>
</drawing>
</eagle>
